<?xml version="1.0"?>
<VTKFile type="PolyData" version="0.1" byte_order="LittleEndian">
  <PolyData>
    <Piece NumberOfPoints="     19" NumberOfVerts="  0" NumberOfLines="     18"
           NumberOfStrips="  0" NumberOfPolys="      0">
      <Points>
        <DataArray type="Float32" NumberOfComponents="3" format="ascii">
                      -4.76210                       0.29875                      91.48273
                      -4.70161                       0.56905                      92.82108
                      -4.59908                       1.01689                      95.51752
                      -4.50311                       1.42092                      98.22330
                      -4.38335                       1.89981                     101.61116
                      -4.17900                       2.61493                     105.64496
                      -3.93802                       3.45696                     109.65084
                      -3.67959                       4.30032                     113.65534
                      -3.39636                       5.14630                     117.65758
                      -3.08399                       5.99257                     121.65752
                      -2.73875                       6.83519                     125.65544
                      -2.35539                       7.67541                     129.65036
                      -1.93079                       8.51318                     133.64167
                      -1.46293                       9.34861                     137.62872
                      -0.94868                      10.18201                     141.61058
                      -0.48391                      10.87543                     144.92414
                      -0.09080                      11.43761                     147.57015
                       0.31843                      12.05387                     150.20240
                       0.53009                      12.32130                     151.52534
        </DataArray>
      </Points>
      <PointData>
        <DataArray type="Float32" Name="TranslationalVelocity" NumberOfComponents="3" format="ascii">
                       0.06206                      -0.96628                       0.20124
                       0.07924                      -1.84980                       0.37891
                       0.10857                      -3.62949                       0.67337
                       0.13610                      -5.41612                       0.93912
                       0.17046                      -7.65511                       1.25424
                       0.22288                     -10.32786                       1.72509
                       0.28689                     -12.98802                       2.28004
                       0.35618                     -15.65198                       2.83629
                       0.43188                     -18.31945                       3.39449
                       0.51492                     -20.99041                       3.95286
                       0.60602                     -23.66492                       4.50847
                       0.70607                     -26.34224                       5.06181
                       0.81569                     -29.02174                       5.61248
                       0.93528                     -31.70274                       6.16022
                       1.06492                     -34.38447                       6.70483
                       1.18065                     -36.61923                       7.15631
                       1.27823                     -38.40561                       7.52131
                       1.38288                     -40.18425                       7.92124
                       1.43408                     -41.07871                       8.09367
        </DataArray>
        <DataArray type="Float32" Name="RotationalVelocity" NumberOfComponents="3" format="ascii">
                       0.65734                       0.00080                      -0.05948
                       0.65747                       0.00086                      -0.05950
                       0.65782                       0.00106                      -0.05956
                       0.65827                       0.00138                      -0.05966
                       0.65893                       0.00192                      -0.05983
                       0.65980                       0.00277                      -0.06010
                       0.66068                       0.00385                      -0.06044
                       0.66153                       0.00515                      -0.06085
                       0.66232                       0.00670                      -0.06132
                       0.66301                       0.00850                      -0.06184
                       0.66362                       0.01054                      -0.06239
                       0.66412                       0.01279                      -0.06295
                       0.66454                       0.01521                      -0.06351
                       0.66486                       0.01771                      -0.06403
                       0.66510                       0.02017                      -0.06448
                       0.66525                       0.02207                      -0.06479
                       0.66532                       0.02340                      -0.06496
                       0.66536                       0.02448                      -0.06505
                       0.66537                       0.02490                      -0.06506
        </DataArray>
        <DataArray type="Float32" Name="TranslationalAcceleration" NumberOfComponents="3" format="ascii">
                      -0.03766                      -0.23137                      -0.61604
                      -0.06162                      -0.27314                      -0.74703
                      -0.17959                      -0.74640                      -2.15045
                      -0.29173                      -1.16010                      -3.45348
                      -0.42620                      -1.63077                      -4.98501
                      -0.57969                      -2.22219                      -6.70790
                      -0.72812                      -2.85556                      -8.36744
                      -0.87546                      -3.49240                     -10.02581
                      -1.02214                      -4.14106                     -11.70453
                      -1.16742                      -4.80268                     -13.41058
                      -1.30973                      -5.47363                     -15.14038
                      -1.44682                      -6.15003                     -16.88330
                      -1.57621                      -6.82655                     -18.62695
                      -1.69542                      -7.49866                     -20.36125
                      -1.80233                      -8.16415                     -22.08268
                      -1.88063                      -8.71451                     -23.51210
                      -1.93602                      -9.15859                     -24.65819
                      -1.98416                      -9.63044                     -25.80967
                      -2.00654                      -9.85193                     -26.40141
        </DataArray>
        <DataArray type="Float32" Name="OrientationX" NumberOfComponents="3" format="ascii">
                       0.97617                      -0.21700                      -0.00025
                       0.97616                      -0.21706                      -0.00050
                       0.97613                      -0.21720                      -0.00130
                       0.97608                      -0.21741                      -0.00249
                       0.97599                      -0.21776                      -0.00448
                       0.98212                      -0.18773                      -0.01424
                       0.98581                      -0.16626                      -0.02310
                       0.98851                      -0.14765                      -0.03242
                       0.99084                      -0.12800                      -0.04314
                       0.99264                      -0.10779                      -0.05524
                       0.99370                      -0.08879                      -0.06837
                       0.99412                      -0.06997                      -0.08263
                       0.99383                      -0.05305                      -0.09744
                       0.99290                      -0.04050                      -0.11188
                       0.99161                      -0.02814                      -0.12618
                       0.99035                      -0.01775                      -0.13747
                       0.98931                      -0.01003                      -0.14546
                       0.98845                      -0.00617                      -0.15145
                       0.98814                      -0.00647                      -0.15340
        </DataArray>
        <DataArray type="Float32" Name="OrientationY" NumberOfComponents="3" format="ascii">
                       0.21234                       0.95542                      -0.20516
                       0.21233                       0.95540                      -0.20525
                       0.21231                       0.95535                      -0.20550
                       0.21226                       0.95529                      -0.20581
                       0.21218                       0.95521                      -0.20627
                       0.18082                       0.96159                      -0.20653
                       0.15800                       0.96558                      -0.20663
                       0.13791                       0.96867                      -0.20654
                       0.11653                       0.97156                      -0.20614
                       0.09435                       0.97412                      -0.20539
                       0.07316                       0.97616                      -0.20433
                       0.05196                       0.97782                      -0.20289
                       0.03253                       0.97901                      -0.20118
                       0.01747                       0.97972                      -0.19959
                       0.00265                       0.98024                      -0.19779
                      -0.00965                       0.98053                      -0.19614
                      -0.01871                       0.98065                      -0.19487
                      -0.02364                       0.98067                      -0.19423
                      -0.02375                       0.98065                      -0.19431
        </DataArray>
        <DataArray type="Float32" Name="OrientationZ" NumberOfComponents="3" format="ascii">
                       0.04476                       0.20022                       0.97873
                       0.04503                       0.20025                       0.97871
                       0.04588                       0.20032                       0.97866
                       0.04713                       0.20036                       0.97859
                       0.04920                       0.20036                       0.97849
                       0.05246                       0.20027                       0.97834
                       0.05666                       0.20004                       0.97815
                       0.06190                       0.19969                       0.97790
                       0.06830                       0.19923                       0.97757
                       0.07596                       0.19867                       0.97712
                       0.08488                       0.19805                       0.97651
                       0.09500                       0.19740                       0.97571
                       0.10607                       0.19677                       0.97469
                       0.11769                       0.19622                       0.97347
                       0.12925                       0.19579                       0.97209
                       0.13827                       0.19557                       0.97089
                       0.14460                       0.19551                       0.96998
                       0.14972                       0.19557                       0.96919
                       0.15168                       0.19565                       0.96887
        </DataArray>
        <DataArray type="Float32" Name="Force" NumberOfComponents="3" format="ascii">
                      -0.01163                       0.63081                      -0.12851
                     157.51906                      22.91799                     -11.93557
                     178.17648                      52.01689                     -18.99536
                     142.49034                      62.35038                     -19.61987
                    1101.74791                    -353.98195                      17.04823
                    1126.04021                    -310.65170                       3.21206
                    1313.35988                    -331.67646                      -8.14941
                    1243.04903                    -290.54900                     -19.14244
                    1287.79895                    -306.16107                     -27.19736
                    1571.30323                    -395.29065                     -41.03287
                    1794.86976                    -482.15060                     -57.00753
                    2104.42421                    -552.89490                     -91.25400
                    2540.81437                    -582.79560                    -156.60986
                    2758.34676                    -593.99659                    -211.19106
                    2894.94157                    -579.93412                    -265.44152
                    2994.61086                    -565.32852                    -309.93717
                    2959.33563                    -532.73511                    -331.30036
                    2193.87861                    -383.72800                    -259.73736
                     716.23856                       0.13745                    -112.19391
        </DataArray>
        <DataArray type="Float32" Name="Moment" NumberOfComponents="3" format="ascii">
                       0.00000                       0.00000                       0.00000
                       0.00000                       0.00000                       0.00000
                       0.00000                       0.00000                       0.00000
                       0.00000                       0.00000                       0.00000
                     -27.45906                    -111.76743                    -546.13876
                     -34.43036                    -131.44099                    -642.07789
                     -39.13703                    -138.37180                    -675.67263
                     -46.25629                    -149.74559                    -730.85789
                     -51.81426                    -152.05725                    -741.70197
                     -56.20279                    -148.34846                    -723.09975
                     -52.31473                    -123.58352                    -601.88990
                     -55.45300                    -117.05789                    -569.57407
                     -61.90694                    -117.03108                    -568.85836
                     -67.98667                    -115.80039                    -562.26710
                     -72.18016                    -111.89811                    -542.73280
                     -74.65522                    -108.14121                    -524.06758
                     -69.66257                     -96.45542                    -467.15833
                     -36.19727                     -48.38987                    -234.25150
                     -33.56182                     -44.27887                    -214.31071
        </DataArray>
      </PointData>
      <Lines>
        <DataArray type="Int32" Name="connectivity" format="ascii">
      0      1
      1      2
      2      3
      3      4
      4      5
      5      6
      6      7
      7      8
      8      9
      9     10
     10     11
     11     12
     12     13
     13     14
     14     15
     15     16
     16     17
     17     18
        </DataArray>
        <DataArray type="Int32" Name="offsets" format="ascii">
      2
      4
      6
      8
     10
     12
     14
     16
     18
     20
     22
     24
     26
     28
     30
     32
     34
     36
        </DataArray>
      </Lines>
    </Piece>
  </PolyData>
</VTKFile>
