<?xml version="1.0"?>
<VTKFile type="PolyData" version="0.1" byte_order="LittleEndian">
  <PolyData>
    <Piece NumberOfPoints="     19" NumberOfVerts="  0" NumberOfLines="     18"
           NumberOfStrips="  0" NumberOfPolys="      0">
      <Points>
        <DataArray type="Float32" NumberOfComponents="3" format="ascii">
                      -5.15963                      -0.01027                      88.51590
                      -5.33956                      -0.01487                      87.16108
                      -5.72113                       0.07063                      84.45382
                      -6.11240                       0.20100                      81.74756
                      -6.60630                       0.39086                      78.36508
                      -7.14383                       0.47582                      74.29970
                      -7.65393                       0.43105                      70.23151
                      -8.16205                       0.38408                      66.16308
                      -8.66514                       0.33312                      62.09404
                      -9.16341                       0.28012                      58.02442
                      -9.65761                       0.22873                      53.95429
                     -10.14654                       0.17744                      49.88353
                     -10.63049                       0.12624                      45.81218
                     -11.10995                       0.07512                      41.74030
                     -11.58313                       0.02415                      37.66771
                     -11.97256                      -0.01826                      34.27330
                     -12.28134                      -0.06006                      31.55759
                     -12.58851                      -0.15688                      28.84201
                     -12.74184                      -0.16363                      27.48405
        </DataArray>
      </Points>
      <PointData>
        <DataArray type="Float32" Name="TranslationalVelocity" NumberOfComponents="3" format="ascii">
                       0.01058                       0.35534                      -0.00103
                       0.01021                       0.67831                      -0.00208
                       0.01138                       1.32388                       0.01814
                       0.01340                       1.96901                       0.04891
                       0.01629                       2.77476                       0.09365
                       0.01647                       3.74097                       0.11369
                       0.01351                       4.70610                       0.10329
                       0.00994                       5.67008                       0.09247
                       0.00565                       6.63302                       0.08082
                       0.00059                       7.59503                       0.06882
                      -0.00522                       8.55626                       0.05731
                      -0.01184                       9.51688                       0.04594
                      -0.01929                      10.47701                       0.03470
                      -0.02756                      11.43680                       0.02359
                      -0.03662                      12.39635                       0.01261
                      -0.04472                      13.19582                       0.00353
                      -0.05166                      13.83528                      -0.00553
                      -0.05995                      14.47455                      -0.02740
                      -0.06332                      14.79417                      -0.02861
        </DataArray>
        <DataArray type="Float32" Name="RotationalVelocity" NumberOfComponents="3" format="ascii">
                       0.23568                       0.00020                      -0.02076
                       0.23564                       0.00021                      -0.02075
                       0.23551                       0.00023                      -0.02074
                       0.23536                       0.00027                      -0.02072
                       0.23514                       0.00033                      -0.02069
                       0.23486                       0.00043                      -0.02066
                       0.23457                       0.00056                      -0.02063
                       0.23431                       0.00071                      -0.02060
                       0.23407                       0.00087                      -0.02058
                       0.23386                       0.00105                      -0.02057
                       0.23368                       0.00125                      -0.02055
                       0.23354                       0.00145                      -0.02054
                       0.23342                       0.00166                      -0.02054
                       0.23333                       0.00186                      -0.02053
                       0.23325                       0.00204                      -0.02053
                       0.23321                       0.00218                      -0.02053
                       0.23318                       0.00226                      -0.02053
                       0.23316                       0.00232                      -0.02054
                       0.23315                       0.00233                      -0.02054
        </DataArray>
        <DataArray type="Float32" Name="TranslationalAcceleration" NumberOfComponents="3" format="ascii">
                       0.07077                       0.01427                       0.08951
                       0.02626                       0.01761                       0.10292
                       0.06705                       0.04580                       0.29435
                       0.09530                       0.06875                       0.47022
                       0.11889                       0.09379                       0.67493
                       0.13681                       0.12963                       0.90432
                       0.15033                       0.17185                       1.12476
                       0.16436                       0.21417                       1.34371
                       0.18139                       0.25718                       1.56438
                       0.20230                       0.30095                       1.78781
                       0.22674                       0.34521                       2.01353
                       0.25361                       0.38982                       2.24012
                       0.28153                       0.43451                       2.46587
                       0.30931                       0.47901                       2.68943
                       0.33637                       0.52317                       2.91037
                       0.35873                       0.55970                       3.09319
                       0.37713                       0.58941                       3.23962
                       0.39707                       0.62241                       3.38725
                       0.40805                       0.63682                       3.46275
        </DataArray>
        <DataArray type="Float32" Name="OrientationX" NumberOfComponents="3" format="ascii">
                       0.96463                       0.22993                      -0.12894
                       0.96464                       0.22994                      -0.12887
                       0.96467                       0.22994                      -0.12864
                       0.96471                       0.22995                      -0.12831
                       0.96477                       0.22997                      -0.12779
                       0.97168                       0.19884                      -0.12771
                       0.97609                       0.17630                      -0.12719
                       0.97955                       0.15656                      -0.12641
                       0.98278                       0.13566                      -0.12544
                       0.98566                       0.11412                      -0.12428
                       0.98798                       0.09373                      -0.12290
                       0.98989                       0.07351                      -0.12134
                       0.99128                       0.05519                      -0.11963
                       0.99217                       0.04135                      -0.11785
                       0.99285                       0.02773                      -0.11609
                       0.99326                       0.01632                      -0.11472
                       0.99348                       0.00783                      -0.11375
                       0.99359                       0.00331                      -0.11298
                       0.99362                       0.00334                      -0.11269
        </DataArray>
        <DataArray type="Float32" Name="OrientationY" NumberOfComponents="3" format="ascii">
                       0.22870                      -0.97319                      -0.02446
                       0.22871                      -0.97319                      -0.02445
                       0.22872                      -0.97319                      -0.02441
                       0.22873                      -0.97318                      -0.02435
                       0.22876                      -0.97318                      -0.02427
                       0.19791                      -0.98001                      -0.02009
                       0.17556                      -0.98432                      -0.01707
                       0.15599                      -0.98765                      -0.01445
                       0.13527                      -0.99074                      -0.01171
                       0.11390                      -0.99345                      -0.00893
                       0.09367                      -0.99558                      -0.00634
                       0.07359                      -0.99728                      -0.00382
                       0.05540                      -0.99846                      -0.00158
                       0.04165                      -0.99913                       0.00009
                       0.02811                      -0.99960                       0.00169
                       0.01678                      -0.99985                       0.00302
                       0.00834                      -0.99996                       0.00399
                       0.00385                      -0.99998                       0.00451
                       0.00388                      -0.99998                       0.00452
        </DataArray>
        <DataArray type="Float32" Name="OrientationZ" NumberOfComponents="3" format="ascii">
                      -0.13111                      -0.00589                      -0.99135
                      -0.13103                      -0.00589                      -0.99136
                      -0.13080                      -0.00588                      -0.99139
                      -0.13047                      -0.00586                      -0.99143
                      -0.12994                      -0.00582                      -0.99150
                      -0.12915                      -0.00575                      -0.99161
                      -0.12820                      -0.00566                      -0.99173
                      -0.12711                      -0.00557                      -0.99187
                      -0.12587                      -0.00546                      -0.99203
                      -0.12448                      -0.00536                      -0.99221
                      -0.12295                      -0.00525                      -0.99240
                      -0.12129                      -0.00515                      -0.99260
                      -0.11954                      -0.00507                      -0.99282
                      -0.11774                      -0.00500                      -0.99303
                      -0.11600                      -0.00494                      -0.99324
                      -0.11465                      -0.00492                      -0.99339
                      -0.11371                      -0.00491                      -0.99350
                      -0.11296                      -0.00492                      -0.99359
                      -0.11267                      -0.00493                      -0.99362
        </DataArray>
        <DataArray type="Float32" Name="Force" NumberOfComponents="3" format="ascii">
                      84.76188                      -3.53123                     -11.18874
                     113.89771                      -7.76006                     -15.00824
                     127.49179                     -16.05750                     -16.72563
                      98.46274                     -18.01232                     -12.85057
                     682.59385                     238.47450                     -90.87320
                     642.86929                     190.72032                     -84.86132
                     663.40672                     180.84884                     -86.83439
                     576.48378                     138.55913                     -74.70091
                     510.17838                     101.32860                     -65.33401
                     508.78978                      89.51334                     -64.36366
                     466.02803                      61.42612                     -58.10084
                     452.98012                      49.98605                     -55.64724
                     378.39523                      29.10565                     -45.73121
                     368.58563                      23.16526                     -43.84005
                     356.36191                      17.57188                     -41.72185
                     344.49306                      13.62843                     -39.83970
                     329.61121                      14.02728                     -37.80962
                     242.18575                      13.82974                     -27.61579
                     247.40515                      32.12548                     -28.24467
        </DataArray>
        <DataArray type="Float32" Name="Moment" NumberOfComponents="3" format="ascii">
                       0.00000                       0.00000                       0.00000
                       0.00000                       0.00000                       0.00000
                       0.00000                       0.00000                       0.00000
                       0.00000                       0.00000                       0.00000
                      65.63993                       2.97512                     500.86170
                      67.58997                       3.08239                     518.95718
                      62.62995                       2.87736                     484.47966
                      58.72614                       2.72132                     458.25048
                      52.86858                       2.47415                     416.67595
                      47.38598                       2.24245                     377.70120
                      38.05438                       1.82340                     307.16274
                      33.59293                       1.63176                     274.91924
                      28.81601                       1.42034                     239.33725
                      24.91539                       1.24684                     210.13521
                      21.22197                       1.07806                     181.71883
                      18.32140                       0.94167                     158.74691
                      15.19106                       0.78723                     132.72248
                       7.14784                       0.37289                      62.87208
                       5.64348                       0.29517                      49.76901
        </DataArray>
      </PointData>
      <Lines>
        <DataArray type="Int32" Name="connectivity" format="ascii">
      0      1
      1      2
      2      3
      3      4
      4      5
      5      6
      6      7
      7      8
      8      9
      9     10
     10     11
     11     12
     12     13
     13     14
     14     15
     15     16
     16     17
     17     18
        </DataArray>
        <DataArray type="Int32" Name="offsets" format="ascii">
      2
      4
      6
      8
     10
     12
     14
     16
     18
     20
     22
     24
     26
     28
     30
     32
     34
     36
        </DataArray>
      </Lines>
    </Piece>
  </PolyData>
</VTKFile>
