<?xml version="1.0"?>
<VTKFile type="PolyData" version="0.1" byte_order="LittleEndian">
  <PolyData>
    <Piece NumberOfPoints="     22" NumberOfVerts="  0" NumberOfLines="     21"
           NumberOfStrips="  0" NumberOfPolys="      0">
      <Points>
        <DataArray type="Float32" NumberOfComponents="3" format="ascii">
                       0.00003                      -0.00000                       2.19000
                       0.00034                      -0.00001                       6.57000
                       0.00101                      -0.00002                      10.95000
                       0.00206                      -0.00003                      15.33000
                       0.00349                      -0.00005                      19.71000
                       0.00530                      -0.00008                      24.09000
                       0.00744                      -0.00011                      28.47000
                       0.00991                      -0.00014                      32.85000
                       0.01268                      -0.00019                      37.23000
                       0.01574                      -0.00024                      41.61000
                       0.01909                      -0.00029                      45.98999
                       0.02272                      -0.00036                      50.36999
                       0.02665                      -0.00043                      54.74999
                       0.03088                      -0.00052                      59.12999
                       0.03542                      -0.00061                      63.50999
                       0.04025                      -0.00071                      67.88998
                       0.04533                      -0.00083                      72.26998
                       0.05059                      -0.00095                      76.64998
                       0.05590                      -0.00107                      81.02998
                       0.06108                      -0.00121                      85.40997
                       0.06354                      -0.00127                      87.59997
                       0.00000                       0.00000                       0.00000
        </DataArray>
      </Points>
      <PointData>
        <DataArray type="Float32" Name="TranslationalVelocity" NumberOfComponents="3" format="ascii">
                       0.00001                      -0.00000                      -0.00000
                       0.00010                      -0.00000                      -0.00000
                       0.00029                      -0.00001                      -0.00000
                       0.00060                      -0.00002                      -0.00000
                       0.00102                      -0.00003                      -0.00000
                       0.00156                      -0.00004                      -0.00000
                       0.00220                      -0.00006                      -0.00000
                       0.00295                      -0.00007                      -0.00000
                       0.00380                      -0.00009                      -0.00000
                       0.00474                      -0.00011                      -0.00000
                       0.00579                      -0.00014                      -0.00000
                       0.00694                      -0.00016                      -0.00000
                       0.00820                      -0.00019                      -0.00001
                       0.00957                      -0.00022                      -0.00001
                       0.01106                      -0.00025                      -0.00001
                       0.01267                      -0.00029                      -0.00001
                       0.01437                      -0.00032                      -0.00001
                       0.01614                      -0.00036                      -0.00001
                       0.01795                      -0.00040                      -0.00002
                       0.01973                      -0.00044                      -0.00002
                       0.02058                      -0.00046                      -0.00002
                       0.00000                      -0.00000                       0.00000
        </DataArray>
        <DataArray type="Float32" Name="RotationalVelocity" NumberOfComponents="3" format="ascii">
                       0.00000                       0.00001                       0.00000
                       0.00000                       0.00003                       0.00000
                       0.00000                       0.00006                       0.00000
                       0.00000                       0.00008                       0.00000
                       0.00000                       0.00011                       0.00000
                       0.00000                       0.00013                       0.00000
                       0.00000                       0.00016                       0.00000
                       0.00000                       0.00018                       0.00000
                       0.00000                       0.00020                       0.00000
                       0.00001                       0.00023                       0.00000
                       0.00001                       0.00025                       0.00000
                       0.00001                       0.00028                       0.00000
                       0.00001                       0.00030                       0.00000
                       0.00001                       0.00033                       0.00000
                       0.00001                       0.00035                       0.00000
                       0.00001                       0.00038                       0.00000
                       0.00001                       0.00040                       0.00000
                       0.00001                       0.00041                       0.00000
                       0.00001                       0.00041                       0.00000
                       0.00001                       0.00040                       0.00000
                       0.00001                       0.00038                       0.00000
                       0.00000                      -0.00000                       0.00000
        </DataArray>
        <DataArray type="Float32" Name="TranslationalAcceleration" NumberOfComponents="3" format="ascii">
                      -0.00003                       0.00000                       0.00000
                      -0.00026                       0.00000                       0.00000
                      -0.00077                       0.00000                       0.00000
                      -0.00158                       0.00000                       0.00000
                      -0.00269                       0.00000                       0.00000
                      -0.00407                       0.00001                       0.00000
                      -0.00572                       0.00001                       0.00000
                      -0.00761                       0.00001                       0.00000
                      -0.00974                       0.00001                       0.00000
                      -0.01208                       0.00001                       0.00001
                      -0.01464                       0.00002                       0.00001
                      -0.01742                       0.00002                       0.00001
                      -0.02042                       0.00002                       0.00001
                      -0.02365                       0.00003                       0.00001
                      -0.02711                       0.00003                       0.00002
                      -0.03078                       0.00004                       0.00002
                      -0.03465                       0.00004                       0.00002
                      -0.03865                       0.00005                       0.00003
                      -0.04269                       0.00005                       0.00003
                      -0.04662                       0.00006                       0.00004
                      -0.04849                       0.00006                       0.00004
                       0.00000                      -0.00000                       0.00000
        </DataArray>
        <DataArray type="Float32" Name="RotationalAcceleration" NumberOfComponents="3" format="ascii">
                      -0.00000                      -0.00002                       0.00000
                      -0.00000                      -0.00008                       0.00000
                      -0.00000                      -0.00015                       0.00000
                      -0.00000                      -0.00022                       0.00000
                      -0.00000                      -0.00028                       0.00000
                      -0.00000                      -0.00035                       0.00000
                      -0.00000                      -0.00041                       0.00000
                      -0.00000                      -0.00046                       0.00000
                      -0.00000                      -0.00051                       0.00000
                      -0.00000                      -0.00056                       0.00000
                      -0.00000                      -0.00061                       0.00000
                      -0.00000                      -0.00066                       0.00000
                      -0.00000                      -0.00071                       0.00000
                      -0.00000                      -0.00076                       0.00000
                      -0.00000                      -0.00082                       0.00000
                      -0.00000                      -0.00086                       0.00000
                      -0.00000                      -0.00090                       0.00000
                      -0.00000                      -0.00092                       0.00000
                      -0.00000                      -0.00092                       0.00000
                      -0.00000                      -0.00087                       0.00000
                      -0.00000                      -0.00083                       0.00000
                       0.00000                      -0.00000                       0.00000
        </DataArray>
        <DataArray type="Float32" Name="OrientationX" NumberOfComponents="3" format="ascii">
                       1.00000                       0.00000                      -0.00003
                       1.00000                       0.00000                      -0.00011
                       1.00000                       0.00000                      -0.00020
                       1.00000                       0.00000                      -0.00028
                       1.00000                       0.00000                      -0.00037
                       1.00000                       0.00000                      -0.00045
                       1.00000                       0.00000                      -0.00053
                       1.00000                       0.00000                      -0.00060
                       1.00000                       0.00000                      -0.00067
                       1.00000                       0.00000                      -0.00073
                       1.00000                       0.00000                      -0.00080
                       1.00000                       0.00000                      -0.00086
                       1.00000                       0.00000                      -0.00093
                       1.00000                       0.00000                      -0.00100
                       1.00000                       0.00000                      -0.00107
                       1.00000                       0.00000                      -0.00113
                       1.00000                       0.00000                      -0.00118
                       1.00000                       0.00000                      -0.00121
                       1.00000                       0.00000                      -0.00121
                       1.00000                       0.00000                      -0.00115
                       1.00000                       0.00000                      -0.00109
                       1.00000                      -0.00000                       0.00000
        </DataArray>
        <DataArray type="Float32" Name="OrientationY" NumberOfComponents="3" format="ascii">
                       0.00000                       1.00000                       0.00000
                       0.00000                       1.00000                       0.00000
                       0.00000                       1.00000                       0.00000
                       0.00000                       1.00000                       0.00000
                       0.00000                       1.00000                       0.00001
                       0.00000                       1.00000                       0.00001
                       0.00000                       1.00000                       0.00001
                       0.00000                       1.00000                       0.00001
                       0.00000                       1.00000                       0.00001
                       0.00000                       1.00000                       0.00001
                       0.00000                       1.00000                       0.00001
                       0.00000                       1.00000                       0.00002
                       0.00000                       1.00000                       0.00002
                       0.00000                       1.00000                       0.00002
                       0.00000                       1.00000                       0.00002
                       0.00000                       1.00000                       0.00002
                       0.00000                       1.00000                       0.00003
                       0.00000                       1.00000                       0.00003
                       0.00000                       1.00000                       0.00003
                       0.00000                       1.00000                       0.00003
                       0.00000                       1.00000                       0.00003
                      -0.00000                       1.00000                      -0.00000
        </DataArray>
        <DataArray type="Float32" Name="OrientationZ" NumberOfComponents="3" format="ascii">
                       0.00003                      -0.00000                       1.00000
                       0.00011                      -0.00000                       1.00000
                       0.00020                      -0.00000                       1.00000
                       0.00028                      -0.00000                       1.00000
                       0.00037                      -0.00001                       1.00000
                       0.00045                      -0.00001                       1.00000
                       0.00053                      -0.00001                       1.00000
                       0.00060                      -0.00001                       1.00000
                       0.00067                      -0.00001                       1.00000
                       0.00073                      -0.00001                       1.00000
                       0.00080                      -0.00001                       1.00000
                       0.00086                      -0.00002                       1.00000
                       0.00093                      -0.00002                       1.00000
                       0.00100                      -0.00002                       1.00000
                       0.00107                      -0.00002                       1.00000
                       0.00113                      -0.00002                       1.00000
                       0.00118                      -0.00003                       1.00000
                       0.00121                      -0.00003                       1.00000
                       0.00121                      -0.00003                       1.00000
                       0.00115                      -0.00003                       1.00000
                       0.00109                      -0.00003                       1.00000
                       0.00000                      -0.00000                       1.00000
        </DataArray>
      </PointData>
      <Lines>
        <DataArray type="Int32" Name="connectivity" format="ascii">
      0      1
      1      2
      2      3
      3      4
      4      5
      5      6
      6      7
      7      8
      8      9
      9     10
     10     11
     11     12
     12     13
     13     14
     14     15
     15     16
     16     17
     17     18
     18     19
     19     20
     21      0
        </DataArray>
        <DataArray type="Int32" Name="offsets" format="ascii">
      2
      4
      6
      8
     10
     12
     14
     16
     18
     20
     22
     24
     26
     28
     30
     32
     34
     36
     38
     40
     42
        </DataArray>
      </Lines>
    </Piece>
  </PolyData>
</VTKFile>
