<?xml version="1.0"?>
<VTKFile type="PolyData" version="0.1" byte_order="LittleEndian">
  <PolyData>
    <Piece NumberOfPoints="     19" NumberOfVerts="  0" NumberOfLines="     18"
           NumberOfStrips="  0" NumberOfPolys="      0">
      <Points>
        <DataArray type="Float32" NumberOfComponents="3" format="ascii">
                      -4.83119                       1.48312                      90.19565
                      -4.87678                       2.83919                      90.35995
                      -4.97916                       5.53972                      90.78282
                      -5.08441                       8.23524                      91.24919
                      -5.21348                      11.60243                      91.85653
                      -5.31684                      15.66251                      92.43527
                      -5.39095                      19.73899                      92.87900
                      -5.44488                      23.81642                      93.31628
                      -5.47060                      27.89490                      93.74541
                      -5.46267                      31.97392                      94.16865
                      -5.41616                      36.05271                      94.58998
                      -5.32506                      40.13101                      95.00797
                      -5.18543                      44.20829                      95.42262
                      -4.99459                      48.28395                      95.83374
                      -4.74893                      52.35718                      96.24066
                      -4.50122                      55.74901                      96.57574
                      -4.27816                      58.46131                      96.83298
                      -4.03954                      61.17773                      97.03267
                      -3.90862                      62.53032                      97.17233
        </DataArray>
      </Points>
      <PointData>
        <DataArray type="Float32" Name="TranslationalVelocity" NumberOfComponents="3" format="ascii">
                       0.13050                      -0.13609                       1.10882
                       0.22263                      -0.25507                       2.11648
                       0.40665                      -0.56235                       4.12319
                       0.59107                      -0.90173                       6.12618
                       0.82275                      -1.34420                       8.62833
                       1.10443                      -1.76710                      11.64543
                       1.39073                      -2.09163                      14.67483
                       1.68192                      -2.41273                      17.70505
                       1.97933                      -2.72978                      20.73608
                       2.28431                      -3.04494                      23.76746
                       2.59819                      -3.36168                      26.79850
                       2.92223                      -3.67958                      29.82883
                       3.25751                      -3.99914                      32.85787
                       3.60486                      -4.32072                      35.88493
                       3.96478                      -4.64445                      38.90914
                       4.27464                      -4.91570                      41.42641
                       4.52859                      -5.12746                      43.43858
                       4.78799                      -5.29858                      45.45304
                       4.91940                      -5.41508                      46.45573
        </DataArray>
        <DataArray type="Float32" Name="RotationalVelocity" NumberOfComponents="3" format="ascii">
                       0.74305                       0.00055                      -0.06787
                       0.74305                       0.00056                      -0.06793
                       0.74305                       0.00059                      -0.06811
                       0.74306                       0.00064                      -0.06839
                       0.74308                       0.00074                      -0.06886
                       0.74310                       0.00092                      -0.06961
                       0.74313                       0.00116                      -0.07060
                       0.74316                       0.00148                      -0.07186
                       0.74318                       0.00188                      -0.07342
                       0.74318                       0.00237                      -0.07533
                       0.74316                       0.00293                      -0.07758
                       0.74310                       0.00356                      -0.08016
                       0.74300                       0.00425                      -0.08303
                       0.74287                       0.00494                      -0.08609
                       0.74269                       0.00561                      -0.08919
                       0.74251                       0.00610                      -0.09167
                       0.74234                       0.00642                      -0.09347
                       0.74217                       0.00664                      -0.09499
                       0.74208                       0.00671                      -0.09562
        </DataArray>
        <DataArray type="Float32" Name="TranslationalAcceleration" NumberOfComponents="3" format="ascii">
                      -0.01397                      -0.84412                       0.01902
                      -0.00173                      -1.01867                       0.02090
                      -0.00729                      -2.91457                       0.01304
                      -0.01290                      -4.66174                      -0.02342
                      -0.01894                      -6.70495                      -0.08311
                      -0.01708                      -9.02295                      -0.07402
                      -0.00801                     -11.27532                       0.01186
                       0.00027                     -13.52167                       0.10265
                       0.00697                     -15.79172                       0.19927
                       0.01138                     -18.09473                       0.30016
                       0.01295                     -20.42533                       0.40246
                       0.01149                     -22.76934                       0.50602
                       0.00686                     -25.10973                       0.60971
                      -0.00114                     -27.43244                       0.71242
                      -0.01275                     -29.73187                       0.81321
                      -0.02557                     -31.63572                       0.89497
                      -0.03746                     -33.16022                       0.96424
                      -0.04844                     -34.69925                       1.06440
                      -0.05707                     -35.48084                       1.09119
        </DataArray>
        <DataArray type="Float32" Name="OrientationX" NumberOfComponents="3" format="ascii">
                       0.98944                       0.01583                       0.14411
                       0.98945                       0.01556                       0.14407
                       0.98948                       0.01469                       0.14393
                       0.98953                       0.01341                       0.14371
                       0.98962                       0.01125                       0.14330
                       0.99373                       0.01152                       0.11117
                       0.99612                       0.00960                       0.08746
                       0.99778                       0.00608                       0.06627
                       0.99905                       0.00128                       0.04357
                       0.99979                      -0.00496                       0.01988
                       0.99991                      -0.01286                      -0.00301
                       0.99941                      -0.02220                      -0.02603
                       0.99834                      -0.03292                      -0.04737
                       0.99692                      -0.04483                      -0.06431
                       0.99511                      -0.05676                      -0.08090
                       0.99334                      -0.06605                      -0.09446
                       0.99189                      -0.07259                      -0.10432
                       0.99087                      -0.07822                      -0.10980
                       0.99065                      -0.08063                      -0.11007
        </DataArray>
        <DataArray type="Float32" Name="OrientationY" NumberOfComponents="3" format="ascii">
                       0.14116                       0.12138                      -0.98252
                       0.14116                       0.12112                      -0.98255
                       0.14115                       0.12045                      -0.98263
                       0.14110                       0.11960                      -0.98274
                       0.14098                       0.11839                      -0.98291
                       0.10909                       0.11649                      -0.98718
                       0.08578                       0.11477                      -0.98968
                       0.06516                       0.11325                      -0.99143
                       0.04316                       0.11195                      -0.99278
                       0.02031                       0.11095                      -0.99362
                      -0.00157                       0.11032                      -0.99390
                      -0.02344                       0.11008                      -0.99365
                      -0.04348                       0.11021                      -0.99296
                      -0.05903                       0.11054                      -0.99212
                      -0.07423                       0.11113                      -0.99103
                      -0.08670                       0.11177                      -0.98994
                      -0.09581                       0.11228                      -0.98905
                      -0.10067                       0.11246                      -0.98854
                      -0.10069                       0.11233                      -0.98856
        </DataArray>
        <DataArray type="Float32" Name="OrientationZ" NumberOfComponents="3" format="ascii">
                      -0.03305                       0.99248                       0.11786
                      -0.03274                       0.99252                       0.11765
                      -0.03177                       0.99261                       0.11711
                      -0.03036                       0.99273                       0.11646
                      -0.02803                       0.99290                       0.11558
                      -0.02432                       0.99312                       0.11451
                      -0.01953                       0.99335                       0.11350
                      -0.01353                       0.99355                       0.11260
                      -0.00615                       0.99371                       0.11179
                       0.00272                       0.99381                       0.11103
                       0.01311                       0.99381                       0.11029
                       0.02493                       0.99367                       0.10949
                       0.03791                       0.99336                       0.10860
                       0.05158                       0.99286                       0.10756
                       0.06524                       0.99218                       0.10637
                       0.07594                       0.99154                       0.10529
                       0.08350                       0.99102                       0.10441
                       0.08967                       0.99057                       0.10356
                       0.09207                       0.99039                       0.10316
        </DataArray>
        <DataArray type="Float32" Name="Force" NumberOfComponents="3" format="ascii">
                      -0.00015                       0.00019                      -0.00165
                     152.90808                       8.23448                     -26.89986
                     168.92929                      12.45751                     -59.51167
                     132.90274                      12.45918                     -70.95280
                    1164.25942                      -1.40468                     288.12216
                    1184.06086                       0.92518                     235.74652
                    1380.30677                      -2.53210                     249.28932
                    1433.10088                     -13.60302                     279.33469
                    1657.37290                     -31.41789                     353.69835
                    1976.72308                     -50.70750                     386.66367
                    2208.42236                     -77.26993                     414.33559
                    2483.78208                    -108.43637                     400.42249
                    3071.65862                    -160.52590                     378.80426
                    3321.66548                    -212.01872                     348.31452
                    3540.74659                    -267.60519                     309.61451
                    3668.44084                    -310.94871                     267.82671
                    3601.07196                    -328.40663                     222.96048
                    2641.36401                    -255.41101                     145.02536
                     924.88423                     -75.01609                    -104.80156
        </DataArray>
        <DataArray type="Float32" Name="Moment" NumberOfComponents="3" format="ascii">
                       0.00000                       0.00000                       0.00000
                       0.00000                       0.00000                       0.00000
                       0.00000                       0.00000                       0.00000
                       0.00000                       0.00000                       0.00000
                      15.57570                    -555.00452                     -65.64491
                      15.72420                    -648.11687                     -76.43289
                      13.00377                    -670.85510                     -78.81549
                       9.73108                    -731.69373                     -85.55639
                       4.04171                    -690.64100                     -80.28622
                      -2.02340                    -658.54397                     -76.01802
                      -7.26630                    -537.82708                     -61.57037
                     -13.75618                    -542.07944                     -61.46951
                     -27.16667                    -707.04010                     -79.33261
                     -36.46404                    -698.61003                     -77.50771
                     -45.29195                    -686.37185                     -75.28506
                     -51.21285                    -666.59504                     -72.45566
                     -50.93497                    -602.70584                     -65.08816
                     -27.31663                    -300.84811                     -32.31673
                     -25.23911                    -270.64571                     -29.01169
        </DataArray>
      </PointData>
      <Lines>
        <DataArray type="Int32" Name="connectivity" format="ascii">
      0      1
      1      2
      2      3
      3      4
      4      5
      5      6
      6      7
      7      8
      8      9
      9     10
     10     11
     11     12
     12     13
     13     14
     14     15
     15     16
     16     17
     17     18
        </DataArray>
        <DataArray type="Int32" Name="offsets" format="ascii">
      2
      4
      6
      8
     10
     12
     14
     16
     18
     20
     22
     24
     26
     28
     30
     32
     34
     36
        </DataArray>
      </Lines>
    </Piece>
  </PolyData>
</VTKFile>
