<?xml version="1.0"?>
<VTKFile type="PolyData" version="0.1" byte_order="LittleEndian">
  <PolyData>
    <Piece NumberOfPoints="     19" NumberOfVerts="  0" NumberOfLines="     18"
           NumberOfStrips="  0" NumberOfPolys="      0">
      <Points>
        <DataArray type="Float32" NumberOfComponents="3" format="ascii">
                      -5.08982                      -1.07788                      88.97269
                      -5.23404                      -2.05598                      88.02906
                      -5.55025                      -3.94494                      86.07616
                      -5.87905                      -5.80143                      84.09150
                      -6.29658                      -8.10165                      81.59066
                      -6.73341                     -10.96081                      78.68310
                      -7.13462                     -13.90881                      75.86238
                      -7.53369                     -16.85605                      73.04050
                      -7.92754                     -19.80406                      70.21856
                      -8.31658                     -22.75174                      67.39549
                      -8.70196                     -25.69678                      64.56912
                      -9.08256                     -28.64060                      61.74076
                      -9.45886                     -31.58350                      58.91081
                      -9.83161                     -34.52571                      56.07964
                     -10.19926                     -37.46740                      53.24724
                     -10.50187                     -39.91851                      50.88606
                     -10.74150                     -41.88468                      49.00229
                     -10.97687                     -43.88922                      47.15723
                     -11.09726                     -44.86208                      46.20505
        </DataArray>
      </Points>
      <PointData>
        <DataArray type="Float32" Name="TranslationalVelocity" NumberOfComponents="3" format="ascii">
                      -0.04157                       0.06499                      -0.07091
                      -0.04618                       0.12427                      -0.13165
                      -0.05509                       0.24702                      -0.24895
                      -0.06399                       0.37173                      -0.36414
                      -0.07538                       0.52876                      -0.50669
                      -0.09042                       0.71081                      -0.68350
                      -0.10707                       0.88702                      -0.86535
                      -0.12501                       1.06299                      -1.04666
                      -0.14444                       1.23864                      -1.22750
                      -0.16551                       1.41404                      -1.40779
                      -0.18828                       1.58935                      -1.58742
                      -0.21276                       1.76452                      -1.76649
                      -0.23886                       1.93957                      -1.94510
                      -0.26638                       2.11451                      -2.12331
                      -0.29498                       2.28937                      -2.30124
                      -0.31931                       2.43507                      -2.44939
                      -0.33886                       2.55128                      -2.56821
                      -0.35847                       2.66511                      -2.68938
                      -0.36793                       2.72385                      -2.74821
        </DataArray>
        <DataArray type="Float32" Name="RotationalVelocity" NumberOfComponents="3" format="ascii">
                       0.06199                      -0.00082                      -0.00549
                       0.06198                      -0.00081                      -0.00550
                       0.06195                      -0.00077                      -0.00554
                       0.06190                      -0.00071                      -0.00560
                       0.06182                      -0.00061                      -0.00570
                       0.06171                      -0.00045                      -0.00586
                       0.06158                      -0.00025                      -0.00607
                       0.06144                      -0.00003                      -0.00631
                       0.06130                       0.00023                      -0.00659
                       0.06117                       0.00051                      -0.00688
                       0.06104                       0.00079                      -0.00719
                       0.06093                       0.00108                      -0.00749
                       0.06083                       0.00134                      -0.00777
                       0.06076                       0.00157                      -0.00800
                       0.06070                       0.00173                      -0.00816
                       0.06068                       0.00179                      -0.00823
                       0.06067                       0.00178                      -0.00822
                       0.06067                       0.00170                      -0.00813
                       0.06068                       0.00163                      -0.00806
        </DataArray>
        <DataArray type="Float32" Name="TranslationalAcceleration" NumberOfComponents="3" format="ascii">
                      -0.11287                       0.01458                      -0.03009
                      -0.02976                       0.01627                      -0.01430
                      -0.07033                       0.04708                      -0.03776
                      -0.09162                       0.07567                      -0.05487
                      -0.10235                       0.10923                      -0.07018
                      -0.10586                       0.14586                      -0.08355
                      -0.11107                       0.17980                      -0.09401
                      -0.12474                       0.21243                      -0.10186
                      -0.14945                       0.24417                      -0.10805
                      -0.18402                       0.27507                      -0.11307
                      -0.22419                       0.30500                      -0.11718
                      -0.26335                       0.33372                      -0.12066
                      -0.29327                       0.36100                      -0.12384
                      -0.30482                       0.38675                      -0.12738
                      -0.28870                       0.41111                      -0.13240
                      -0.24708                       0.43063                      -0.13899
                      -0.19292                       0.44616                      -0.14688
                      -0.11841                       0.46196                      -0.15847
                      -0.07269                       0.47016                      -0.16568
        </DataArray>
        <DataArray type="Float32" Name="OrientationX" NumberOfComponents="3" format="ascii">
                       0.95122                       0.12968                      -0.27992
                       0.95123                       0.12976                      -0.27985
                       0.95126                       0.12999                      -0.27964
                       0.95131                       0.13032                      -0.27934
                       0.95137                       0.13086                      -0.27887
                       0.96023                       0.10972                      -0.25677
                       0.96604                       0.09473                      -0.24042
                       0.97071                       0.08181                      -0.22589
                       0.97522                       0.06816                      -0.21046
                       0.97941                       0.05412                      -0.19449
                       0.98296                       0.04094                      -0.17922
                       0.98607                       0.02792                      -0.16399
                       0.98855                       0.01624                      -0.15004
                       0.99023                       0.00767                      -0.13923
                       0.99169                      -0.00082                      -0.12863
                       0.99276                      -0.00805                      -0.11984
                       0.99346                      -0.01350                      -0.11335
                       0.99382                      -0.01628                      -0.10980
                       0.99383                      -0.01613                      -0.10972
        </DataArray>
        <DataArray type="Float32" Name="OrientationY" NumberOfComponents="3" format="ascii">
                       0.29015                      -0.68435                       0.66894
                       0.29014                      -0.68443                       0.66886
                       0.29011                      -0.68466                       0.66864
                       0.29009                      -0.68494                       0.66836
                       0.29007                      -0.68533                       0.66797
                       0.25957                      -0.68967                       0.67600
                       0.23744                      -0.69253                       0.68120
                       0.21805                      -0.69477                       0.68538
                       0.19751                      -0.69678                       0.68955
                       0.17632                      -0.69848                       0.69357
                       0.15624                      -0.69977                       0.69707
                       0.13630                      -0.70073                       0.70028
                       0.11821                      -0.70136                       0.70294
                       0.10453                      -0.70170                       0.70476
                       0.09104                      -0.70189                       0.70644
                       0.07974                      -0.70194                       0.70776
                       0.07132                      -0.70191                       0.70869
                       0.06685                      -0.70188                       0.70916
                       0.06690                      -0.70188                       0.70914
        </DataArray>
        <DataArray type="Float32" Name="OrientationZ" NumberOfComponents="3" format="ascii">
                      -0.10481                      -0.71753                      -0.68859
                      -0.10475                      -0.71744                      -0.68870
                      -0.10455                      -0.71718                      -0.68900
                      -0.10423                      -0.71685                      -0.68939
                      -0.10371                      -0.71638                      -0.68996
                      -0.10292                      -0.71576                      -0.69072
                      -0.10196                      -0.71515                      -0.69150
                      -0.10087                      -0.71456                      -0.69226
                      -0.09965                      -0.71404                      -0.69298
                      -0.09831                      -0.71358                      -0.69364
                      -0.09687                      -0.71319                      -0.69424
                      -0.09536                      -0.71288                      -0.69478
                      -0.09382                      -0.71262                      -0.69524
                      -0.09229                      -0.71243                      -0.69565
                      -0.09087                      -0.71228                      -0.69599
                      -0.08982                      -0.71219                      -0.69622
                      -0.08912                      -0.71214                      -0.69636
                      -0.08861                      -0.71211                      -0.69645
                      -0.08844                      -0.71211                      -0.69648
        </DataArray>
        <DataArray type="Float32" Name="Force" NumberOfComponents="3" format="ascii">
                     146.82780                     -12.78573                      -9.02561
                     132.88919                     -16.40628                      -3.11819
                     159.34643                     -21.32452                      -1.96424
                     125.65641                     -16.66677                      -1.64099
                     762.82097                     164.83834                    -286.48455
                     682.92497                     121.10202                    -228.02607
                     650.83904                     104.08827                    -204.53014
                     552.54819                      76.51968                    -160.35065
                     480.91179                      53.03920                    -124.52723
                     448.89552                      42.77543                    -108.30275
                     407.82036                      27.55091                     -85.72512
                     378.57160                      20.48174                     -73.41116
                     325.48469                      12.00961                     -56.53363
                     297.53630                       8.33683                     -48.25274
                     269.91117                       5.20628                     -40.74746
                     247.11233                       2.94676                     -35.02771
                     222.21459                       1.42151                     -29.99367
                     150.49747                       0.53245                     -19.75272
                     149.98603                       0.55154                     -19.66935
        </DataArray>
        <DataArray type="Float32" Name="Moment" NumberOfComponents="3" format="ascii">
                       0.00000                       0.00000                       0.00000
                       0.00000                       0.00000                       0.00000
                       0.00000                       0.00000                       0.00000
                       0.00000                       0.00000                       0.00000
                      68.01668                     471.09977                     452.17047
                      68.87393                     481.00771                     461.73110
                      62.15629                     438.42379                     420.90872
                      56.11695                     400.36419                     384.42663
                      48.50900                     350.53885                     336.64004
                      41.54135                     304.44427                     292.42529
                      32.53935                     242.13239                     232.61765
                      27.50661                     208.02013                     199.88560
                      22.73815                     174.86219                     168.05832
                      18.69553                     146.20089                     140.54020
                      15.14727                     120.35098                     115.71267
                      12.54878                     100.89148                      97.01637
                      10.07100                      81.60831                      78.48088
                       4.59781                      37.47499                      36.04123
                       4.56362                      37.26944                      35.84434
        </DataArray>
      </PointData>
      <Lines>
        <DataArray type="Int32" Name="connectivity" format="ascii">
      0      1
      1      2
      2      3
      3      4
      4      5
      5      6
      6      7
      7      8
      8      9
      9     10
     10     11
     11     12
     12     13
     13     14
     14     15
     15     16
     16     17
     17     18
        </DataArray>
        <DataArray type="Int32" Name="offsets" format="ascii">
      2
      4
      6
      8
     10
     12
     14
     16
     18
     20
     22
     24
     26
     28
     30
     32
     34
     36
        </DataArray>
      </Lines>
    </Piece>
  </PolyData>
</VTKFile>
