<?xml version="1.0"?>
<VTKFile type="PolyData" version="0.1" byte_order="LittleEndian">
  <PolyData>
    <Piece NumberOfPoints="     19" NumberOfVerts="  0" NumberOfLines="     18"
           NumberOfStrips="  0" NumberOfPolys="      0">
      <Points>
        <DataArray type="Float32" NumberOfComponents="3" format="ascii">
                      -4.71366                       1.47039                      90.30878
                      -4.75003                       2.81193                      90.56768
                      -4.83272                       5.47694                      91.17864
                      -4.91638                       8.13399                      91.83258
                      -5.01499                      11.45156                      92.67419
                      -5.07557                      15.46230                      93.53576
                      -5.09802                      19.49866                      94.26384
                      -5.08863                      23.53616                      94.98559
                      -5.03678                      27.57465                      95.69918
                      -4.93440                      31.61303                      96.40657
                      -4.77401                      35.64975                      97.11138
                      -4.54733                      39.68400                      97.81175
                      -4.24854                      43.71452                      98.50715
                      -3.87356                      47.73993                      99.19678
                      -3.41805                      51.75846                      99.87925
                      -2.97536                      55.10051                     100.44104
                      -2.58422                      57.77056                     100.87758
                      -2.16732                      60.44575                     101.25497
                      -1.94329                      61.77345                     101.48207
        </DataArray>
      </Points>
      <PointData>
        <DataArray type="Float32" Name="TranslationalVelocity" NumberOfComponents="3" format="ascii">
                       0.19558                      -0.27413                       1.44069
                       0.31788                      -0.52310                       2.74803
                       0.56163                      -1.11102                       5.34538
                       0.80578                      -1.74087                       7.93544
                       1.11269                      -2.55247                      11.17021
                       1.48736                      -3.38731                      15.08221
                       1.86971                      -4.09578                      19.02084
                       2.25936                      -4.80140                      22.96228
                       2.65796                      -5.50356                      26.90625
                       3.06711                      -6.20519                      30.85144
                       3.48831                      -6.91086                      34.79599
                       3.92298                      -7.61995                      38.73867
                       4.37229                      -8.33297                      42.67778
                       4.83707                      -9.05012                      46.61140
                       5.31775                      -9.77113                      50.53719
                       5.73073                     -10.37430                      53.80078
                       6.06872                     -10.84999                      56.40705
                       6.41404                     -11.27248                      59.01722
                       6.58835                     -11.52384                      60.31208
        </DataArray>
        <DataArray type="Float32" Name="RotationalVelocity" NumberOfComponents="3" format="ascii">
                       0.97443                       0.00113                      -0.09092
                       0.97448                       0.00115                      -0.09100
                       0.97462                       0.00121                      -0.09129
                       0.97481                       0.00131                      -0.09172
                       0.97510                       0.00146                      -0.09245
                       0.97550                       0.00170                      -0.09362
                       0.97593                       0.00199                      -0.09513
                       0.97634                       0.00234                      -0.09699
                       0.97673                       0.00275                      -0.09924
                       0.97706                       0.00322                      -0.10191
                       0.97732                       0.00376                      -0.10500
                       0.97749                       0.00438                      -0.10848
                       0.97756                       0.00505                      -0.11228
                       0.97753                       0.00578                      -0.11629
                       0.97740                       0.00654                      -0.12034
                       0.97722                       0.00717                      -0.12358
                       0.97705                       0.00766                      -0.12594
                       0.97684                       0.00810                      -0.12798
                       0.97673                       0.00831                      -0.12884
        </DataArray>
        <DataArray type="Float32" Name="TranslationalAcceleration" NumberOfComponents="3" format="ascii">
                      -0.02574                      -1.46445                      -0.11107
                      -0.01471                      -1.74720                      -0.14009
                      -0.04671                      -4.98897                      -0.48145
                      -0.07709                      -7.96854                      -0.84317
                      -0.11100                     -11.44855                      -1.29261
                      -0.13194                     -15.41279                      -1.66667
                      -0.13542                     -19.28266                      -1.89353
                      -0.13458                     -23.14751                      -2.10534
                      -0.12989                     -27.05806                      -2.30582
                      -0.12140                     -31.02956                      -2.49976
                      -0.10868                     -35.05184                      -2.69178
                      -0.09020                     -39.09999                      -2.88040
                      -0.06412                     -43.14401                      -3.06519
                      -0.02825                     -47.15891                      -3.24595
                       0.01987                     -51.13437                      -3.42325
                       0.07141                     -54.42609                      -3.57012
                       0.12228                     -57.06259                      -3.67958
                       0.19004                     -59.72886                      -3.73687
                       0.22090                     -61.07931                      -3.80667
        </DataArray>
        <DataArray type="Float32" Name="OrientationX" NumberOfComponents="3" format="ascii">
                       0.98976                      -0.00063                       0.14272
                       0.98978                      -0.00104                       0.14263
                       0.98982                      -0.00237                       0.14232
                       0.98988                      -0.00435                       0.14182
                       0.98999                      -0.00765                       0.14093
                       0.99409                      -0.00705                       0.10833
                       0.99644                      -0.00972                       0.08379
                       0.99800                      -0.01470                       0.06148
                       0.99907                      -0.02145                       0.03739
                       0.99947                      -0.03018                       0.01205
                       0.99907                      -0.04125                      -0.01275
                       0.99780                      -0.05433                      -0.03789
                       0.99569                      -0.06936                      -0.06149
                       0.99300                      -0.08617                      -0.08076
                       0.98968                      -0.10303                      -0.09956
                       0.98658                      -0.11617                      -0.11476
                       0.98410                      -0.12547                      -0.12572
                       0.98219                      -0.13365                      -0.13207
                       0.98161                      -0.13727                      -0.13267
        </DataArray>
        <DataArray type="Float32" Name="OrientationY" NumberOfComponents="3" format="ascii">
                       0.14027                       0.18895                      -0.97192
                       0.14027                       0.18866                      -0.97197
                       0.14022                       0.18790                      -0.97213
                       0.14012                       0.18695                      -0.97232
                       0.13989                       0.18558                      -0.97262
                       0.10777                       0.18409                      -0.97698
                       0.08415                       0.18263                      -0.97957
                       0.06313                       0.18135                      -0.98139
                       0.04066                       0.18038                      -0.98276
                       0.01729                       0.17982                      -0.98355
                      -0.00513                       0.17969                      -0.98371
                      -0.02753                       0.18007                      -0.98327
                      -0.04806                       0.18090                      -0.98233
                      -0.06402                       0.18187                      -0.98124
                      -0.07950                       0.18317                      -0.97986
                      -0.09211                       0.18443                      -0.97852
                      -0.10123                       0.18541                      -0.97743
                      -0.10607                       0.18580                      -0.97685
                      -0.10607                       0.18562                      -0.97688
        </DataArray>
        <DataArray type="Float32" Name="OrientationZ" NumberOfComponents="3" format="ascii">
                      -0.02636                       0.98199                       0.18710
                      -0.02590                       0.98204                       0.18688
                      -0.02444                       0.98218                       0.18632
                      -0.02229                       0.98236                       0.18567
                      -0.01871                       0.98260                       0.18480
                      -0.01305                       0.98288                       0.18376
                      -0.00578                       0.98313                       0.18279
                       0.00328                       0.98331                       0.18191
                       0.01433                       0.98336                       0.18108
                       0.02752                       0.98324                       0.18024
                       0.04287                       0.98286                       0.17931
                       0.06024                       0.98215                       0.17818
                       0.07926                       0.98105                       0.17679
                       0.09924                       0.97954                       0.17508
                       0.11919                       0.97767                       0.17308
                       0.13484                       0.97596                       0.17126
                       0.14594                       0.97462                       0.16976
                       0.15510                       0.97346                       0.16832
                       0.15872                       0.97299                       0.16764
        </DataArray>
        <DataArray type="Float32" Name="Force" NumberOfComponents="3" format="ascii">
                      -0.01442                       0.02906                      -0.15453
                     152.45088                      10.70337                     -35.09834
                     171.87000                      19.41850                     -79.60258
                     139.29348                      21.83144                     -98.26997
                    1313.12050                     -35.79268                     319.30529
                    1439.22313                     -42.09144                     321.87308
                    1875.39359                     -69.95570                     427.16208
                    2058.19615                     -87.87526                     428.95358
                    2448.10825                    -124.97657                     475.45197
                    2916.90312                    -172.04377                     484.61048
                    3510.58503                    -249.18973                     519.55073
                    4096.78036                    -339.03370                     479.52147
                    4863.00792                    -478.33817                     472.98804
                    5223.52440                    -597.04014                     380.60932
                    5494.99418                    -717.51396                     271.31909
                    5617.04587                    -804.38336                     163.59470
                    5432.66015                    -823.84779                      60.39952
                    3896.36964                    -617.02615                     -21.99629
                    1692.34596                    -237.65385                    -222.67069
        </DataArray>
        <DataArray type="Float32" Name="Moment" NumberOfComponents="3" format="ascii">
                       0.00000                       0.00000                       0.00000
                       0.00000                       0.00000                       0.00000
                       0.00000                       0.00000                       0.00000
                       0.00000                       0.00000                       0.00000
                      10.23822                    -541.91082                    -102.84970
                       8.38906                    -641.45283                    -121.39381
                       3.64058                    -644.85410                    -121.59023
                      -2.50259                    -699.52926                    -131.29742
                     -11.37361                    -768.42196                    -143.42335
                     -24.82133                    -880.81852                    -163.30212
                     -42.66577                    -975.00668                    -179.34693
                     -66.11417                   -1076.45132                    -196.23321
                     -97.26435                   -1203.64757                    -217.24281
                    -122.12104                   -1205.69928                    -215.30903
                    -142.80845                   -1171.96955                    -207.03642
                    -154.45063                   -1118.37212                    -195.87220
                    -149.40773                    -997.96714                    -173.70331
                     -80.37056                    -504.40681                     -87.34258
                     -76.78441                    -470.59347                     -81.31937
        </DataArray>
      </PointData>
      <Lines>
        <DataArray type="Int32" Name="connectivity" format="ascii">
      0      1
      1      2
      2      3
      3      4
      4      5
      5      6
      6      7
      7      8
      8      9
      9     10
     10     11
     11     12
     12     13
     13     14
     14     15
     15     16
     16     17
     17     18
        </DataArray>
        <DataArray type="Int32" Name="offsets" format="ascii">
      2
      4
      6
      8
     10
     12
     14
     16
     18
     20
     22
     24
     26
     28
     30
     32
     34
     36
        </DataArray>
      </Lines>
    </Piece>
  </PolyData>
</VTKFile>
