<?xml version="1.0"?>
<VTKFile type="PolyData" version="0.1" byte_order="LittleEndian">
  <PolyData>
    <Piece NumberOfPoints="     22" NumberOfVerts="  0" NumberOfLines="     21"
           NumberOfStrips="  0" NumberOfPolys="      0">
      <Points>
        <DataArray type="Float32" NumberOfComponents="3" format="ascii">
                       0.00001                      -0.00000                       2.19000
                       0.00013                      -0.00000                       6.57000
                       0.00037                      -0.00000                      10.95000
                       0.00076                      -0.00000                      15.33000
                       0.00128                      -0.00000                      19.71000
                       0.00192                      -0.00001                      24.09000
                       0.00267                      -0.00001                      28.47000
                       0.00352                      -0.00002                      32.85000
                       0.00446                      -0.00003                      37.23000
                       0.00547                      -0.00004                      41.61000
                       0.00655                      -0.00005                      45.99000
                       0.00768                      -0.00007                      50.37000
                       0.00888                      -0.00009                      54.75000
                       0.01013                      -0.00011                      59.13000
                       0.01144                      -0.00014                      63.51000
                       0.01279                      -0.00018                      67.89000
                       0.01419                      -0.00022                      72.27000
                       0.01559                      -0.00026                      76.65000
                       0.01698                      -0.00031                      81.03000
                       0.01831                      -0.00036                      85.41000
                       0.01892                      -0.00038                      87.60000
                       0.00000                       0.00000                       0.00000
        </DataArray>
      </Points>
      <PointData>
        <DataArray type="Float32" Name="TranslationalVelocity" NumberOfComponents="3" format="ascii">
                       0.00002                      -0.00000                      -0.00000
                       0.00021                      -0.00001                      -0.00000
                       0.00063                      -0.00003                      -0.00000
                       0.00130                      -0.00006                      -0.00000
                       0.00223                      -0.00009                      -0.00000
                       0.00341                      -0.00013                      -0.00000
                       0.00484                      -0.00016                      -0.00000
                       0.00652                      -0.00021                      -0.00000
                       0.00843                      -0.00025                      -0.00000
                       0.01060                      -0.00029                      -0.00000
                       0.01302                      -0.00033                      -0.00000
                       0.01571                      -0.00036                      -0.00000
                       0.01869                      -0.00039                      -0.00000
                       0.02197                      -0.00041                      -0.00000
                       0.02556                      -0.00042                      -0.00001
                       0.02946                      -0.00043                      -0.00001
                       0.03362                      -0.00042                      -0.00001
                       0.03800                      -0.00040                      -0.00001
                       0.04248                      -0.00037                      -0.00001
                       0.04692                      -0.00034                      -0.00001
                       0.04905                      -0.00032                      -0.00001
                       0.00000                      -0.00000                       0.00000
        </DataArray>
        <DataArray type="Float32" Name="RotationalVelocity" NumberOfComponents="3" format="ascii">
                       0.00000                       0.00002                       0.00000
                       0.00000                       0.00007                       0.00000
                       0.00001                       0.00012                       0.00000
                       0.00001                       0.00018                       0.00000
                       0.00001                       0.00024                       0.00000
                       0.00001                       0.00030                       0.00000
                       0.00001                       0.00035                       0.00000
                       0.00001                       0.00041                       0.00000
                       0.00001                       0.00047                       0.00000
                       0.00001                       0.00052                       0.00000
                       0.00001                       0.00058                       0.00000
                       0.00001                       0.00065                       0.00000
                       0.00001                       0.00071                       0.00000
                       0.00000                       0.00078                       0.00000
                       0.00000                       0.00085                       0.00000
                      -0.00000                       0.00092                       0.00000
                      -0.00000                       0.00098                       0.00000
                      -0.00001                       0.00102                       0.00000
                      -0.00001                       0.00103                       0.00000
                      -0.00001                       0.00099                       0.00000
                      -0.00001                       0.00095                       0.00000
                       0.00000                      -0.00000                       0.00000
        </DataArray>
        <DataArray type="Float32" Name="TranslationalAcceleration" NumberOfComponents="3" format="ascii">
                       0.00018                      -0.00002                      -0.00000
                       0.00173                      -0.00013                      -0.00000
                       0.00492                      -0.00034                      -0.00000
                       0.00968                      -0.00062                      -0.00000
                       0.01586                      -0.00095                      -0.00000
                       0.02319                      -0.00133                      -0.00000
                       0.03135                      -0.00174                      -0.00001
                       0.03999                      -0.00216                      -0.00001
                       0.04874                      -0.00258                      -0.00001
                       0.05723                      -0.00298                      -0.00001
                       0.06513                      -0.00334                      -0.00002
                       0.07214                      -0.00363                      -0.00002
                       0.07798                      -0.00385                      -0.00002
                       0.08245                      -0.00396                      -0.00003
                       0.08540                      -0.00396                      -0.00003
                       0.08673                      -0.00384                      -0.00003
                       0.08640                      -0.00358                      -0.00004
                       0.08441                      -0.00318                      -0.00004
                       0.08083                      -0.00266                      -0.00005
                       0.07573                      -0.00205                      -0.00005
                       0.07265                      -0.00172                      -0.00005
                       0.00000                      -0.00000                       0.00000
        </DataArray>
        <DataArray type="Float32" Name="RotationalAcceleration" NumberOfComponents="3" format="ascii">
                       0.00001                       0.00017                       0.00000
                       0.00004                       0.00054                       0.00000
                       0.00006                       0.00091                       0.00000
                       0.00007                       0.00126                       0.00000
                       0.00008                       0.00155                       0.00000
                       0.00009                       0.00178                       0.00000
                       0.00010                       0.00193                       0.00000
                       0.00010                       0.00200                       0.00000
                       0.00009                       0.00198                       0.00000
                       0.00009                       0.00188                       0.00000
                       0.00008                       0.00171                       0.00000
                       0.00006                       0.00148                       0.00000
                       0.00004                       0.00118                       0.00000
                       0.00001                       0.00085                       0.00000
                      -0.00001                       0.00049                       0.00000
                      -0.00004                       0.00011                       0.00000
                      -0.00008                      -0.00027                       0.00000
                      -0.00010                      -0.00064                       0.00000
                      -0.00013                      -0.00099                       0.00000
                      -0.00015                      -0.00133                       0.00000
                      -0.00015                      -0.00149                       0.00000
                       0.00000                      -0.00000                       0.00000
        </DataArray>
        <DataArray type="Float32" Name="OrientationX" NumberOfComponents="3" format="ascii">
                       1.00000                       0.00000                      -0.00001
                       1.00000                       0.00000                      -0.00004
                       1.00000                       0.00000                      -0.00007
                       1.00000                       0.00000                      -0.00010
                       1.00000                       0.00000                      -0.00013
                       1.00000                       0.00000                      -0.00016
                       1.00000                       0.00000                      -0.00018
                       1.00000                       0.00000                      -0.00020
                       1.00000                       0.00000                      -0.00022
                       1.00000                       0.00000                      -0.00024
                       1.00000                       0.00000                      -0.00025
                       1.00000                       0.00000                      -0.00027
                       1.00000                       0.00000                      -0.00028
                       1.00000                       0.00000                      -0.00029
                       1.00000                       0.00000                      -0.00030
                       1.00000                       0.00000                      -0.00031
                       1.00000                       0.00000                      -0.00032
                       1.00000                       0.00000                      -0.00032
                       1.00000                       0.00000                      -0.00031
                       1.00000                       0.00000                      -0.00029
                       1.00000                       0.00000                      -0.00027
                       1.00000                      -0.00000                       0.00000
        </DataArray>
        <DataArray type="Float32" Name="OrientationY" NumberOfComponents="3" format="ascii">
                       0.00000                       1.00000                       0.00000
                       0.00000                       1.00000                       0.00000
                       0.00000                       1.00000                       0.00000
                       0.00000                       1.00000                       0.00000
                       0.00000                       1.00000                       0.00000
                       0.00000                       1.00000                       0.00000
                       0.00000                       1.00000                       0.00000
                       0.00000                       1.00000                       0.00000
                       0.00000                       1.00000                       0.00000
                       0.00000                       1.00000                       0.00000
                       0.00000                       1.00000                       0.00000
                       0.00000                       1.00000                       0.00000
                       0.00000                       1.00000                       0.00001
                       0.00000                       1.00000                       0.00001
                       0.00000                       1.00000                       0.00001
                       0.00000                       1.00000                       0.00001
                       0.00000                       1.00000                       0.00001
                       0.00000                       1.00000                       0.00001
                       0.00000                       1.00000                       0.00001
                       0.00000                       1.00000                       0.00001
                       0.00000                       1.00000                       0.00001
                      -0.00000                       1.00000                      -0.00000
        </DataArray>
        <DataArray type="Float32" Name="OrientationZ" NumberOfComponents="3" format="ascii">
                       0.00001                      -0.00000                       1.00000
                       0.00004                      -0.00000                       1.00000
                       0.00007                      -0.00000                       1.00000
                       0.00010                      -0.00000                       1.00000
                       0.00013                      -0.00000                       1.00000
                       0.00016                      -0.00000                       1.00000
                       0.00018                      -0.00000                       1.00000
                       0.00020                      -0.00000                       1.00000
                       0.00022                      -0.00000                       1.00000
                       0.00024                      -0.00000                       1.00000
                       0.00025                      -0.00000                       1.00000
                       0.00027                      -0.00000                       1.00000
                       0.00028                      -0.00001                       1.00000
                       0.00029                      -0.00001                       1.00000
                       0.00030                      -0.00001                       1.00000
                       0.00031                      -0.00001                       1.00000
                       0.00032                      -0.00001                       1.00000
                       0.00032                      -0.00001                       1.00000
                       0.00031                      -0.00001                       1.00000
                       0.00029                      -0.00001                       1.00000
                       0.00027                      -0.00001                       1.00000
                       0.00000                      -0.00000                       1.00000
        </DataArray>
      </PointData>
      <Lines>
        <DataArray type="Int32" Name="connectivity" format="ascii">
      0      1
      1      2
      2      3
      3      4
      4      5
      5      6
      6      7
      7      8
      8      9
      9     10
     10     11
     11     12
     12     13
     13     14
     14     15
     15     16
     16     17
     17     18
     18     19
     19     20
     21      0
        </DataArray>
        <DataArray type="Int32" Name="offsets" format="ascii">
      2
      4
      6
      8
     10
     12
     14
     16
     18
     20
     22
     24
     26
     28
     30
     32
     34
     36
     38
     40
     42
        </DataArray>
      </Lines>
    </Piece>
  </PolyData>
</VTKFile>
