<?xml version="1.0"?>
<VTKFile type="PolyData" version="0.1" byte_order="LittleEndian">
  <PolyData>
    <Piece NumberOfPoints="     19" NumberOfVerts="  0" NumberOfLines="     18"
           NumberOfStrips="  0" NumberOfPolys="      0">
      <Points>
        <DataArray type="Float32" NumberOfComponents="3" format="ascii">
                      -5.13104                      -0.86427                      88.78911
                      -5.28934                      -1.64823                      87.68083
                      -5.63237                      -3.13760                      85.41232
                      -5.98729                      -4.58919                      83.11873
                      -6.43690                      -6.38020                      80.23600
                      -6.91371                      -8.64542                      76.85045
                      -7.35607                     -11.01511                      73.53412
                      -7.79570                     -13.38441                      70.21708
                      -8.22940                     -15.75500                      66.90009
                      -8.65742                     -18.12553                      63.58225
                      -9.08068                     -20.49328                      60.26177
                      -9.49794                     -22.85980                      56.93960
                      -9.90953                     -25.22539                      53.61603
                     -10.31605                     -27.59029                      50.29132
                     -10.71585                     -29.95464                      46.96540
                     -11.04390                     -31.92460                      44.19292
                     -11.30313                     -33.50682                      41.97902
                     -11.55800                     -35.13399                      39.79607
                     -11.68732                     -35.91320                      38.68085
        </DataArray>
      </Points>
      <PointData>
        <DataArray type="Float32" Name="TranslationalVelocity" NumberOfComponents="3" format="ascii">
                       0.01701                       0.25743                      -0.17734
                       0.00191                       0.49184                      -0.34100
                      -0.02685                       0.97183                      -0.65180
                      -0.05492                       1.45702                      -0.95455
                      -0.08957                       2.06648                      -1.32786
                      -0.13324                       2.78065                      -1.79969
                      -0.17879                       3.47908                      -2.29284
                      -0.22437                       4.17696                      -2.78542
                      -0.27002                       4.87411                      -3.27782
                      -0.31575                       5.57081                      -3.76981
                      -0.36151                       6.26753                      -4.26088
                      -0.40736                       6.96412                      -4.75141
                      -0.45329                       7.66064                      -5.24154
                      -0.49932                       8.35709                      -5.73136
                      -0.54544                       9.05352                      -6.22095
                      -0.58393                       9.63386                      -6.62878
                      -0.61487                      10.09717                      -6.95629
                      -0.64663                      10.55392                      -7.29306
                      -0.66190                      10.78721                      -7.45429
        </DataArray>
        <DataArray type="Float32" Name="RotationalVelocity" NumberOfComponents="3" format="ascii">
                       0.20891                       0.00060                      -0.01842
                       0.20888                       0.00060                      -0.01841
                       0.20879                       0.00060                      -0.01840
                       0.20868                       0.00060                      -0.01839
                       0.20853                       0.00061                      -0.01838
                       0.20832                       0.00062                      -0.01836
                       0.20812                       0.00063                      -0.01836
                       0.20794                       0.00064                      -0.01836
                       0.20777                       0.00065                      -0.01837
                       0.20762                       0.00067                      -0.01838
                       0.20750                       0.00068                      -0.01840
                       0.20740                       0.00070                      -0.01842
                       0.20732                       0.00071                      -0.01845
                       0.20725                       0.00073                      -0.01847
                       0.20720                       0.00074                      -0.01849
                       0.20716                       0.00075                      -0.01850
                       0.20714                       0.00075                      -0.01851
                       0.20713                       0.00075                      -0.01852
                       0.20712                       0.00075                      -0.01852
        </DataArray>
        <DataArray type="Float32" Name="TranslationalAcceleration" NumberOfComponents="3" format="ascii">
                       0.04096                       0.04768                       0.04894
                       0.01492                       0.05927                       0.05625
                       0.03808                       0.16723                       0.16312
                       0.05397                       0.26518                       0.26300
                       0.06689                       0.37875                       0.38039
                       0.07572                       0.51141                       0.50853
                       0.08125                       0.64399                       0.62824
                       0.08645                       0.77586                       0.74734
                       0.09269                       0.90883                       0.86754
                       0.10038                       1.04341                       0.98946
                       0.10924                       1.17927                       1.11290
                       0.11857                       1.31572                       1.23697
                       0.12752                       1.45186                       1.36071
                       0.13540                       1.58696                       1.48335
                       0.14187                       1.72074                       1.60465
                       0.14642                       1.83151                       1.70516
                       0.14992                       1.92052                       1.78548
                       0.15383                       2.01215                       1.86505
                       0.15635                       2.05738                       1.90689
        </DataArray>
        <DataArray type="Float32" Name="OrientationX" NumberOfComponents="3" format="ascii">
                       0.95377                       0.16365                      -0.25208
                       0.95378                       0.16371                      -0.25200
                       0.95382                       0.16390                      -0.25174
                       0.95387                       0.16418                      -0.25137
                       0.95394                       0.16464                      -0.25077
                       0.96242                       0.13965                      -0.23291
                       0.96797                       0.12184                      -0.21953
                       0.97242                       0.10645                      -0.20754
                       0.97670                       0.09018                      -0.19475
                       0.98065                       0.07347                      -0.18145
                       0.98398                       0.05778                      -0.16866
                       0.98688                       0.04229                      -0.15583
                       0.98917                       0.02840                      -0.14398
                       0.99073                       0.01819                      -0.13462
                       0.99207                       0.00810                      -0.12543
                       0.99303                      -0.00045                      -0.11784
                       0.99365                      -0.00686                      -0.11226
                       0.99398                      -0.01013                      -0.10911
                       0.99400                      -0.00994                      -0.10891
        </DataArray>
        <DataArray type="Float32" Name="OrientationY" NumberOfComponents="3" format="ascii">
                       0.27761                      -0.80106                       0.53032
                       0.27760                      -0.80111                       0.53024
                       0.27758                      -0.80125                       0.53004
                       0.27756                      -0.80142                       0.52980
                       0.27754                      -0.80166                       0.52945
                       0.24696                      -0.80681                       0.53672
                       0.22478                      -0.81012                       0.54146
                       0.20534                      -0.81269                       0.54531
                       0.18475                      -0.81503                       0.54917
                       0.16352                      -0.81703                       0.55292
                       0.14341                      -0.81856                       0.55623
                       0.12344                      -0.81974                       0.55928
                       0.10534                      -0.82052                       0.56183
                       0.09165                      -0.82095                       0.56360
                       0.07816                      -0.82122                       0.56524
                       0.06686                      -0.82132                       0.56653
                       0.05844                      -0.82133                       0.56746
                       0.05397                      -0.82131                       0.56793
                       0.05401                      -0.82131                       0.56792
        </DataArray>
        <DataArray type="Float32" Name="OrientationZ" NumberOfComponents="3" format="ascii">
                      -0.11514                      -0.57578                      -0.80946
                      -0.11507                      -0.57569                      -0.80953
                      -0.11483                      -0.57544                      -0.80974
                      -0.11447                      -0.57512                      -0.81002
                      -0.11387                      -0.57467                      -0.81043
                      -0.11296                      -0.57407                      -0.81098
                      -0.11187                      -0.57346                      -0.81156
                      -0.11062                      -0.57288                      -0.81214
                      -0.10920                      -0.57236                      -0.81270
                      -0.10763                      -0.57190                      -0.81323
                      -0.10592                      -0.57150                      -0.81373
                      -0.10409                      -0.57118                      -0.81420
                      -0.10218                      -0.57092                      -0.81462
                      -0.10026                      -0.57071                      -0.81501
                      -0.09843                      -0.57056                      -0.81534
                      -0.09704                      -0.57047                      -0.81557
                      -0.09610                      -0.57042                      -0.81571
                      -0.09536                      -0.57040                      -0.81582
                      -0.09509                      -0.57039                      -0.81585
        </DataArray>
        <DataArray type="Float32" Name="Force" NumberOfComponents="3" format="ascii">
                     130.36510                     -13.35890                      -9.04190
                     125.16241                     -20.40076                      -3.28074
                     152.59053                     -31.20086                       0.55151
                     122.63228                     -28.60142                       3.00981
                     857.95217                     227.61626                    -282.47175
                     784.30244                     174.14475                    -233.14826
                     787.20044                     159.20564                    -221.80111
                     670.41493                     117.93089                    -175.24187
                     582.14710                      82.59244                    -137.01480
                     570.81403                      71.10009                    -126.16556
                     516.52814                      45.81244                     -99.86839
                     503.94183                      36.71997                     -90.59340
                     423.46901                      19.92783                     -67.34103
                     401.19475                      14.40232                     -59.64821
                     378.76249                       9.59177                     -52.59361
                     362.12564                       6.19513                     -47.54063
                     337.40361                       3.54585                     -42.31541
                     237.40682                       1.69051                     -28.98482
                     229.75450                       1.80384                     -28.09218
        </DataArray>
        <DataArray type="Float32" Name="Moment" NumberOfComponents="3" format="ascii">
                       0.00000                       0.00000                       0.00000
                       0.00000                       0.00000                       0.00000
                       0.00000                       0.00000                       0.00000
                       0.00000                       0.00000                       0.00000
                      70.57105                     357.09143                     502.09056
                      72.49914                     369.92890                     520.19444
                      66.44866                     342.49000                     481.66915
                      61.23419                     319.32510                     449.15411
                      54.05809                     285.67456                     401.88592
                      47.58090                     255.21321                     359.09587
                      37.64607                     205.26305                     288.86872
                      32.86829                     182.42210                     256.77632
                      28.02266                     158.47469                     223.11489
                      23.62710                     136.20632                     191.80384
                      19.71561                     115.80314                     163.10518
                      16.87183                     100.53094                     141.61624
                      13.90860                      83.69664                     117.91420
                       6.52666                      39.58048                      55.76658
                       6.22167                      37.83881                      53.31423
        </DataArray>
      </PointData>
      <Lines>
        <DataArray type="Int32" Name="connectivity" format="ascii">
      0      1
      1      2
      2      3
      3      4
      4      5
      5      6
      6      7
      7      8
      8      9
      9     10
     10     11
     11     12
     12     13
     13     14
     14     15
     15     16
     16     17
     17     18
        </DataArray>
        <DataArray type="Int32" Name="offsets" format="ascii">
      2
      4
      6
      8
     10
     12
     14
     16
     18
     20
     22
     24
     26
     28
     30
     32
     34
     36
        </DataArray>
      </Lines>
    </Piece>
  </PolyData>
</VTKFile>
