<?xml version="1.0"?>
<VTKFile type="PolyData" version="0.1" byte_order="LittleEndian">
  <PolyData>
    <Piece NumberOfPoints="     22" NumberOfVerts="  0" NumberOfLines="     21"
           NumberOfStrips="  0" NumberOfPolys="      0">
      <Points>
        <DataArray type="Float32" NumberOfComponents="3" format="ascii">
                       0.00007                      -0.00000                       2.19000
                       0.00065                      -0.00002                       6.57000
                       0.00195                      -0.00005                      10.95000
                       0.00400                      -0.00010                      15.33000
                       0.00681                      -0.00017                      19.71000
                       0.01036                      -0.00025                      24.09000
                       0.01462                      -0.00035                      28.46999
                       0.01953                      -0.00048                      32.84999
                       0.02509                      -0.00062                      37.22999
                       0.03127                      -0.00079                      41.60998
                       0.03808                      -0.00099                      45.98998
                       0.04554                      -0.00123                      50.36997
                       0.05367                      -0.00149                      54.74996
                       0.06250                      -0.00179                      59.12996
                       0.07204                      -0.00213                      63.50995
                       0.08226                      -0.00250                      67.88993
                       0.09309                      -0.00291                      72.26992
                       0.10435                      -0.00335                      76.64991
                       0.11580                      -0.00382                      81.02989
                       0.12703                      -0.00430                      85.40988
                       0.13238                      -0.00455                      87.59987
                       0.00000                       0.00000                       0.00000
        </DataArray>
      </Points>
      <PointData>
        <DataArray type="Float32" Name="TranslationalVelocity" NumberOfComponents="3" format="ascii">
                       0.00000                      -0.00000                      -0.00000
                       0.00003                      -0.00001                      -0.00000
                       0.00008                      -0.00002                      -0.00000
                       0.00017                      -0.00003                      -0.00000
                       0.00030                      -0.00005                      -0.00000
                       0.00046                      -0.00008                      -0.00000
                       0.00066                      -0.00011                      -0.00000
                       0.00090                      -0.00015                      -0.00000
                       0.00117                      -0.00019                      -0.00000
                       0.00149                      -0.00024                      -0.00000
                       0.00185                      -0.00030                      -0.00000
                       0.00226                      -0.00037                      -0.00000
                       0.00272                      -0.00044                      -0.00000
                       0.00324                      -0.00052                      -0.00000
                       0.00381                      -0.00061                      -0.00001
                       0.00443                      -0.00072                      -0.00001
                       0.00511                      -0.00082                      -0.00001
                       0.00583                      -0.00094                      -0.00001
                       0.00657                      -0.00106                      -0.00001
                       0.00732                      -0.00119                      -0.00001
                       0.00767                      -0.00126                      -0.00002
                       0.00000                      -0.00000                       0.00000
        </DataArray>
        <DataArray type="Float32" Name="RotationalVelocity" NumberOfComponents="3" format="ascii">
                       0.00000                       0.00000                       0.00000
                       0.00000                       0.00001                       0.00000
                       0.00000                       0.00002                       0.00000
                       0.00000                       0.00002                       0.00000
                       0.00001                       0.00003                       0.00000
                       0.00001                       0.00004                       0.00000
                       0.00001                       0.00005                       0.00000
                       0.00001                       0.00006                       0.00000
                       0.00001                       0.00007                       0.00000
                       0.00001                       0.00008                       0.00000
                       0.00001                       0.00009                       0.00000
                       0.00002                       0.00010                       0.00000
                       0.00002                       0.00011                       0.00000
                       0.00002                       0.00012                       0.00000
                       0.00002                       0.00014                       0.00000
                       0.00002                       0.00015                       0.00000
                       0.00003                       0.00016                       0.00000
                       0.00003                       0.00017                       0.00000
                       0.00003                       0.00017                       0.00000
                       0.00003                       0.00017                       0.00000
                       0.00003                       0.00016                       0.00000
                       0.00000                      -0.00000                       0.00000
        </DataArray>
        <DataArray type="Float32" Name="TranslationalAcceleration" NumberOfComponents="3" format="ascii">
                      -0.00001                       0.00000                       0.00000
                      -0.00009                       0.00003                       0.00000
                      -0.00026                       0.00008                       0.00000
                      -0.00053                       0.00015                       0.00000
                      -0.00089                       0.00024                       0.00000
                      -0.00133                       0.00035                       0.00000
                      -0.00184                       0.00048                       0.00000
                      -0.00241                       0.00064                       0.00000
                      -0.00304                       0.00083                       0.00000
                      -0.00371                       0.00104                       0.00000
                      -0.00442                       0.00129                       0.00000
                      -0.00515                       0.00157                       0.00001
                      -0.00591                       0.00189                       0.00001
                      -0.00670                       0.00225                       0.00001
                      -0.00750                       0.00264                       0.00001
                      -0.00832                       0.00306                       0.00001
                      -0.00915                       0.00353                       0.00001
                      -0.00997                       0.00402                       0.00002
                      -0.01078                       0.00454                       0.00002
                      -0.01153                       0.00508                       0.00002
                      -0.01187                       0.00535                       0.00002
                       0.00000                      -0.00000                       0.00000
        </DataArray>
        <DataArray type="Float32" Name="RotationalAcceleration" NumberOfComponents="3" format="ascii">
                      -0.00000                      -0.00001                       0.00000
                      -0.00001                      -0.00003                       0.00000
                      -0.00001                      -0.00005                       0.00000
                      -0.00002                      -0.00007                       0.00000
                      -0.00002                      -0.00009                       0.00000
                      -0.00003                      -0.00011                       0.00000
                      -0.00003                      -0.00012                       0.00000
                      -0.00004                      -0.00014                       0.00000
                      -0.00005                      -0.00015                       0.00000
                      -0.00005                      -0.00016                       0.00000
                      -0.00006                      -0.00016                       0.00000
                      -0.00007                      -0.00017                       0.00000
                      -0.00008                      -0.00018                       0.00000
                      -0.00009                      -0.00018                       0.00000
                      -0.00009                      -0.00019                       0.00000
                      -0.00010                      -0.00019                       0.00000
                      -0.00011                      -0.00019                       0.00000
                      -0.00012                      -0.00019                       0.00000
                      -0.00012                      -0.00018                       0.00000
                      -0.00013                      -0.00016                       0.00000
                      -0.00013                      -0.00015                       0.00000
                       0.00000                      -0.00000                       0.00000
        </DataArray>
        <DataArray type="Float32" Name="OrientationX" NumberOfComponents="3" format="ascii">
                       1.00000                       0.00000                      -0.00006
                       1.00000                       0.00000                      -0.00021
                       1.00000                       0.00000                      -0.00038
                       1.00000                       0.00000                      -0.00056
                       1.00000                       0.00000                      -0.00073
                       1.00000                       0.00000                      -0.00089
                       1.00000                       0.00000                      -0.00105
                       1.00000                       0.00000                      -0.00120
                       1.00000                       0.00000                      -0.00134
                       1.00000                       0.00000                      -0.00148
                       1.00000                       0.00000                      -0.00163
                       1.00000                       0.00000                      -0.00178
                       1.00000                       0.00000                      -0.00194
                       1.00000                       0.00000                      -0.00210
                       1.00000                       0.00000                      -0.00226
                       1.00000                       0.00000                      -0.00241
                       1.00000                       0.00000                      -0.00253
                       1.00000                       0.00000                      -0.00261
                       1.00000                       0.00000                      -0.00261
                       1.00000                       0.00000                      -0.00250
                       1.00000                       0.00000                      -0.00239
                       1.00000                      -0.00000                       0.00000
        </DataArray>
        <DataArray type="Float32" Name="OrientationY" NumberOfComponents="3" format="ascii">
                       0.00000                       1.00000                       0.00000
                       0.00000                       1.00000                       0.00001
                       0.00000                       1.00000                       0.00001
                       0.00000                       1.00000                       0.00001
                       0.00000                       1.00000                       0.00002
                       0.00000                       1.00000                       0.00002
                       0.00000                       1.00000                       0.00003
                       0.00000                       1.00000                       0.00003
                       0.00000                       1.00000                       0.00004
                       0.00000                       1.00000                       0.00004
                       0.00000                       1.00000                       0.00005
                       0.00000                       1.00000                       0.00006
                       0.00000                       1.00000                       0.00006
                       0.00000                       1.00000                       0.00007
                       0.00000                       1.00000                       0.00008
                       0.00000                       1.00000                       0.00009
                       0.00000                       1.00000                       0.00010
                       0.00000                       1.00000                       0.00010
                       0.00000                       1.00000                       0.00011
                       0.00000                       1.00000                       0.00011
                       0.00000                       1.00000                       0.00011
                      -0.00000                       1.00000                      -0.00000
        </DataArray>
        <DataArray type="Float32" Name="OrientationZ" NumberOfComponents="3" format="ascii">
                       0.00006                      -0.00000                       1.00000
                       0.00021                      -0.00001                       1.00000
                       0.00038                      -0.00001                       1.00000
                       0.00056                      -0.00001                       1.00000
                       0.00073                      -0.00002                       1.00000
                       0.00089                      -0.00002                       1.00000
                       0.00105                      -0.00003                       1.00000
                       0.00120                      -0.00003                       1.00000
                       0.00134                      -0.00004                       1.00000
                       0.00148                      -0.00004                       1.00000
                       0.00163                      -0.00005                       1.00000
                       0.00178                      -0.00006                       1.00000
                       0.00194                      -0.00006                       1.00000
                       0.00210                      -0.00007                       1.00000
                       0.00226                      -0.00008                       1.00000
                       0.00241                      -0.00009                       1.00000
                       0.00253                      -0.00010                       1.00000
                       0.00261                      -0.00010                       1.00000
                       0.00261                      -0.00011                       1.00000
                       0.00250                      -0.00011                       1.00000
                       0.00239                      -0.00011                       1.00000
                       0.00000                      -0.00000                       1.00000
        </DataArray>
      </PointData>
      <Lines>
        <DataArray type="Int32" Name="connectivity" format="ascii">
      0      1
      1      2
      2      3
      3      4
      4      5
      5      6
      6      7
      7      8
      8      9
      9     10
     10     11
     11     12
     12     13
     13     14
     14     15
     15     16
     16     17
     17     18
     18     19
     19     20
     21      0
        </DataArray>
        <DataArray type="Int32" Name="offsets" format="ascii">
      2
      4
      6
      8
     10
     12
     14
     16
     18
     20
     22
     24
     26
     28
     30
     32
     34
     36
     38
     40
     42
        </DataArray>
      </Lines>
    </Piece>
  </PolyData>
</VTKFile>
