<?xml version="1.0"?>
<VTKFile type="PolyData" version="0.1" byte_order="LittleEndian">
  <PolyData>
    <Piece NumberOfPoints="     19" NumberOfVerts="  0" NumberOfLines="     18"
           NumberOfStrips="  0" NumberOfPolys="      0">
      <Points>
        <DataArray type="Float32" NumberOfComponents="3" format="ascii">
                      -4.94456                       1.09590                      91.02451
                      -4.92304                       2.09369                      91.95822
                      -4.89585                       4.02464                      93.89532
                      -4.87577                       5.92571                      95.86491
                      -4.85428                       8.28528                      98.34553
                      -4.78316                      11.21800                     101.21245
                      -4.69403                      14.24217                     103.98028
                      -4.60437                      17.27028                     106.74372
                      -4.51126                      20.30340                     109.50147
                      -4.41477                      23.33995                     112.25524
                      -4.31533                      26.37713                     115.00810
                      -4.21173                      29.41565                     117.75921
                      -4.10410                      32.45524                     120.50892
                      -3.99277                      35.49561                     123.25755
                      -3.87575                      38.53657                     126.00525
                      -3.77365                      41.07117                     128.29432
                      -3.68983                      43.10443                     130.11931
                      -3.60796                      45.17518                     131.90349
                      -3.56413                      46.18249                     132.82599
        </DataArray>
      </Points>
      <PointData>
        <DataArray type="Float32" Name="TranslationalVelocity" NumberOfComponents="3" format="ascii">
                      -0.02564                      -0.14601                       0.15435
                      -0.01368                      -0.28055                       0.29786
                       0.00935                      -0.55955                       0.57564
                       0.03192                      -0.84326                       0.84922
                       0.05982                      -1.20074                       1.18897
                       0.09449                      -1.61478                       1.61155
                       0.13018                      -2.01509                       2.04767
                       0.16565                      -2.41508                       2.48470
                       0.20084                      -2.81455                       2.92278
                       0.23566                      -3.21373                       3.36164
                       0.27001                      -3.61301                       3.80085
                       0.30382                      -4.01225                       4.24046
                       0.33704                      -4.41146                       4.68040
                       0.36962                      -4.81065                       5.12060
                       0.40152                      -5.20984                       5.56100
                       0.42758                      -5.54251                       5.92817
                       0.44818                      -5.80780                       6.22277
                       0.46900                      -6.06720                       6.52286
                       0.47892                      -6.20135                       6.66888
        </DataArray>
        <DataArray type="Float32" Name="RotationalVelocity" NumberOfComponents="3" format="ascii">
                       0.14379                      -0.00070                      -0.01265
                       0.14381                      -0.00070                      -0.01265
                       0.14386                      -0.00071                      -0.01264
                       0.14392                      -0.00073                      -0.01262
                       0.14401                      -0.00075                      -0.01260
                       0.14412                      -0.00079                      -0.01257
                       0.14423                      -0.00083                      -0.01253
                       0.14434                      -0.00089                      -0.01248
                       0.14443                      -0.00096                      -0.01242
                       0.14451                      -0.00104                      -0.01235
                       0.14458                      -0.00113                      -0.01227
                       0.14463                      -0.00124                      -0.01217
                       0.14468                      -0.00135                      -0.01207
                       0.14472                      -0.00147                      -0.01195
                       0.14476                      -0.00159                      -0.01183
                       0.14479                      -0.00169                      -0.01174
                       0.14480                      -0.00175                      -0.01167
                       0.14482                      -0.00180                      -0.01161
                       0.14482                      -0.00182                      -0.01159
        </DataArray>
        <DataArray type="Float32" Name="TranslationalAcceleration" NumberOfComponents="3" format="ascii">
                       0.05573                      -0.02976                      -0.00869
                       0.01606                      -0.03750                      -0.01355
                       0.03880                      -0.10710                      -0.04057
                       0.05151                      -0.17130                      -0.06725
                       0.05827                      -0.24687                      -0.09953
                       0.05885                      -0.33428                      -0.13338
                       0.05676                      -0.42091                      -0.16300
                       0.05543                      -0.50796                      -0.19194
                       0.05663                      -0.59660                      -0.22050
                       0.06065                      -0.68716                      -0.24880
                       0.06668                      -0.77939                      -0.27680
                       0.07315                      -0.87273                      -0.30428
                       0.07814                      -0.96652                      -0.33103
                       0.07967                      -1.06017                      -0.35693
                       0.07610                      -1.15340                      -0.38196
                       0.06842                      -1.23091                      -0.40231
                       0.05925                      -1.29319                      -0.41818
                       0.04778                      -1.35655                      -0.43276
                       0.04125                      -1.38841                      -0.44105
        </DataArray>
        <DataArray type="Float32" Name="OrientationX" NumberOfComponents="3" format="ascii">
                       0.98579                      -0.12563                       0.11153
                       0.98579                      -0.12566                       0.11151
                       0.98578                      -0.12573                       0.11145
                       0.98578                      -0.12584                       0.11137
                       0.98577                      -0.12603                       0.11122
                       0.99059                      -0.10496                       0.08781
                       0.99343                      -0.08994                       0.07071
                       0.99548                      -0.07698                       0.05560
                       0.99721                      -0.06338                       0.03954
                       0.99851                      -0.04951                       0.02291
                       0.99931                      -0.03660                       0.00703
                       0.99967                      -0.02395                      -0.00882
                       0.99965                      -0.01272                      -0.02332
                       0.99939                      -0.00461                      -0.03456
                       0.99895                       0.00333                      -0.04561
                       0.99845                       0.01003                      -0.05480
                       0.99799                       0.01503                      -0.06159
                       0.99771                       0.01747                      -0.06535
                       0.99771                       0.01719                      -0.06549
        </DataArray>
        <DataArray type="Float32" Name="OrientationY" NumberOfComponents="3" format="ascii">
                       0.16722                       0.66993                      -0.72334
                       0.16722                       0.66982                      -0.72345
                       0.16722                       0.66952                      -0.72373
                       0.16722                       0.66915                      -0.72407
                       0.16723                       0.66861                      -0.72456
                       0.13573                       0.67161                      -0.72837
                       0.11296                       0.67317                      -0.73081
                       0.09306                       0.67420                      -0.73266
                       0.07202                       0.67511                      -0.73419
                       0.05038                       0.67584                      -0.73533
                       0.02994                       0.67630                      -0.73602
                       0.00971                       0.67657                      -0.73632
                      -0.00857                       0.67663                      -0.73628
                      -0.02233                       0.67653                      -0.73608
                      -0.03585                       0.67637                      -0.73569
                      -0.04714                       0.67618                      -0.73523
                      -0.05553                       0.67600                      -0.73481
                      -0.05995                       0.67587                      -0.73458
                      -0.05987                       0.67585                      -0.73460
        </DataArray>
        <DataArray type="Float32" Name="OrientationZ" NumberOfComponents="3" format="ascii">
                       0.01615                       0.73171                       0.68142
                       0.01621                       0.73181                       0.68131
                       0.01637                       0.73207                       0.68103
                       0.01660                       0.73240                       0.68067
                       0.01695                       0.73286                       0.68017
                       0.01748                       0.73343                       0.67954
                       0.01813                       0.73400                       0.67891
                       0.01891                       0.73453                       0.67832
                       0.01984                       0.73499                       0.67779
                       0.02093                       0.73539                       0.67733
                       0.02218                       0.73572                       0.67693
                       0.02360                       0.73599                       0.67658
                       0.02514                       0.73622                       0.67628
                       0.02677                       0.73640                       0.67601
                       0.02840                       0.73656                       0.67578
                       0.02968                       0.73667                       0.67560
                       0.03059                       0.73675                       0.67547
                       0.03134                       0.73681                       0.67537
                       0.03163                       0.73684                       0.67533
        </DataArray>
        <DataArray type="Float32" Name="Force" NumberOfComponents="3" format="ascii">
                     157.54366                       0.03032                      -3.76747
                     157.93880                       1.77604                      -5.66676
                     172.90206                       5.74612                     -10.33380
                     131.80216                       7.25965                     -11.01874
                     791.95144                    -157.68192                     149.51656
                     753.79964                    -123.87838                     113.53401
                     754.62122                    -111.98373                      99.97134
                     668.84549                     -86.23473                      73.81844
                     601.44865                     -61.84473                      48.66461
                     584.15611                     -51.92848                      37.56410
                     544.60527                     -33.83975                      18.33899
                     525.20257                     -25.84666                       9.28578
                     459.01147                     -14.40438                      -1.73581
                     436.31962                      -9.99846                      -6.67333
                     412.37056                      -6.13257                     -10.86836
                     390.85393                      -3.09658                     -13.96405
                     361.34386                      -0.90014                     -15.50859
                     251.71296                       0.07554                     -11.83890
                     254.58727                       0.03802                     -12.04427
        </DataArray>
        <DataArray type="Float32" Name="Moment" NumberOfComponents="3" format="ascii">
                       0.00000                       0.00000                       0.00000
                       0.00000                       0.00000                       0.00000
                       0.00000                       0.00000                       0.00000
                       0.00000                       0.00000                       0.00000
                     -12.24415                    -525.31976                    -489.15421
                     -13.07074                    -542.29561                    -504.92345
                     -12.64111                    -504.44712                    -469.64081
                     -12.36789                    -472.23819                    -439.60730
                     -11.69563                    -425.07461                    -395.65312
                     -11.05442                    -380.53728                    -354.14704
                      -9.59647                    -311.54496                    -289.89128
                      -9.06720                    -276.74041                    -257.45805
                      -8.40581                    -240.86294                    -224.03517
                      -7.75844                    -208.90593                    -194.26966
                      -7.03705                    -178.71622                    -166.15991
                      -6.37054                    -154.87287                    -143.96779
                      -5.45491                    -128.70361                    -119.62705
                      -2.63547                     -60.70818                     -56.42137
                      -2.68198                     -61.20826                     -56.88395
        </DataArray>
      </PointData>
      <Lines>
        <DataArray type="Int32" Name="connectivity" format="ascii">
      0      1
      1      2
      2      3
      3      4
      4      5
      5      6
      6      7
      7      8
      8      9
      9     10
     10     11
     11     12
     12     13
     13     14
     14     15
     15     16
     16     17
     17     18
        </DataArray>
        <DataArray type="Int32" Name="offsets" format="ascii">
      2
      4
      6
      8
     10
     12
     14
     16
     18
     20
     22
     24
     26
     28
     30
     32
     34
     36
        </DataArray>
      </Lines>
    </Piece>
  </PolyData>
</VTKFile>
