<?xml version="1.0"?>
<VTKFile type="PolyData" version="0.1" byte_order="LittleEndian">
  <PolyData>
    <Piece NumberOfPoints="     22" NumberOfVerts="  0" NumberOfLines="     21"
           NumberOfStrips="  0" NumberOfPolys="      0">
      <Points>
        <DataArray type="Float32" NumberOfComponents="3" format="ascii">
                       0.00001                       0.00000                       2.19000
                       0.00009                       0.00000                       6.57000
                       0.00025                       0.00000                      10.95000
                       0.00050                      -0.00000                      15.33000
                       0.00083                      -0.00000                      19.71000
                       0.00124                      -0.00000                      24.09000
                       0.00170                      -0.00000                      28.47000
                       0.00221                      -0.00001                      32.85000
                       0.00276                      -0.00001                      37.23000
                       0.00333                      -0.00002                      41.61000
                       0.00391                      -0.00003                      45.99000
                       0.00450                      -0.00004                      50.37000
                       0.00508                      -0.00005                      54.75000
                       0.00566                      -0.00007                      59.13000
                       0.00622                      -0.00008                      63.51000
                       0.00676                      -0.00011                      67.89000
                       0.00728                      -0.00013                      72.27000
                       0.00778                      -0.00016                      76.65000
                       0.00823                      -0.00019                      81.03000
                       0.00862                      -0.00023                      85.41000
                       0.00878                      -0.00025                      87.60000
                       0.00000                       0.00000                       0.00000
        </DataArray>
      </Points>
      <PointData>
        <DataArray type="Float32" Name="TranslationalVelocity" NumberOfComponents="3" format="ascii">
                       0.00000                      -0.00000                      -0.00000
                       0.00003                      -0.00001                      -0.00000
                       0.00013                      -0.00004                      -0.00000
                       0.00033                      -0.00007                      -0.00000
                       0.00064                      -0.00011                      -0.00000
                       0.00109                      -0.00015                      -0.00000
                       0.00170                      -0.00020                      -0.00000
                       0.00251                      -0.00025                      -0.00000
                       0.00355                      -0.00030                      -0.00000
                       0.00487                      -0.00035                      -0.00000
                       0.00650                      -0.00040                      -0.00000
                       0.00850                      -0.00044                      -0.00000
                       0.01090                      -0.00047                      -0.00000
                       0.01374                      -0.00050                      -0.00000
                       0.01705                      -0.00051                      -0.00000
                       0.02082                      -0.00051                      -0.00000
                       0.02503                      -0.00050                      -0.00000
                       0.02962                      -0.00048                      -0.00000
                       0.03448                      -0.00044                      -0.00000
                       0.03945                      -0.00040                      -0.00000
                       0.04190                      -0.00037                      -0.00000
                       0.00000                      -0.00000                       0.00000
        </DataArray>
        <DataArray type="Float32" Name="RotationalVelocity" NumberOfComponents="3" format="ascii">
                       0.00000                       0.00000                       0.00000
                       0.00000                       0.00001                       0.00000
                       0.00001                       0.00003                       0.00000
                       0.00001                       0.00006                       0.00000
                       0.00001                       0.00009                       0.00000
                       0.00001                       0.00012                       0.00000
                       0.00001                       0.00016                       0.00000
                       0.00001                       0.00021                       0.00000
                       0.00001                       0.00027                       0.00000
                       0.00001                       0.00033                       0.00000
                       0.00001                       0.00041                       0.00000
                       0.00001                       0.00050                       0.00000
                       0.00001                       0.00060                       0.00000
                       0.00000                       0.00070                       0.00000
                       0.00000                       0.00081                       0.00000
                      -0.00000                       0.00091                       0.00000
                      -0.00000                       0.00101                       0.00000
                      -0.00001                       0.00108                       0.00000
                      -0.00001                       0.00113                       0.00000
                      -0.00001                       0.00113                       0.00000
                      -0.00001                       0.00111                       0.00000
                       0.00000                      -0.00000                       0.00000
        </DataArray>
        <DataArray type="Float32" Name="TranslationalAcceleration" NumberOfComponents="3" format="ascii">
                      -0.00004                       0.00002                       0.00000
                      -0.00030                       0.00014                       0.00000
                      -0.00072                       0.00036                       0.00000
                      -0.00118                       0.00066                       0.00000
                      -0.00157                       0.00102                       0.00000
                      -0.00174                       0.00141                       0.00000
                      -0.00151                       0.00182                      -0.00000
                      -0.00068                       0.00221                      -0.00000
                       0.00097                       0.00258                      -0.00000
                       0.00366                       0.00289                      -0.00000
                       0.00766                       0.00312                      -0.00000
                       0.01319                       0.00323                      -0.00000
                       0.02048                       0.00320                      -0.00001
                       0.02971                       0.00301                      -0.00001
                       0.04099                       0.00263                      -0.00001
                       0.05435                       0.00205                      -0.00002
                       0.06973                       0.00125                      -0.00002
                       0.08688                       0.00025                      -0.00003
                       0.10541                      -0.00093                      -0.00004
                       0.12468                      -0.00226                      -0.00005
                       0.13433                      -0.00296                      -0.00005
                       0.00000                      -0.00000                       0.00000
        </DataArray>
        <DataArray type="Float32" Name="RotationalAcceleration" NumberOfComponents="3" format="ascii">
                      -0.00002                      -0.00003                       0.00000
                      -0.00004                      -0.00008                       0.00000
                      -0.00006                      -0.00011                       0.00000
                      -0.00008                      -0.00010                       0.00000
                      -0.00009                      -0.00007                       0.00000
                      -0.00009                       0.00000                       0.00000
                      -0.00009                       0.00011                       0.00000
                      -0.00009                       0.00027                       0.00000
                      -0.00008                       0.00049                       0.00000
                      -0.00006                       0.00075                       0.00000
                      -0.00004                       0.00108                       0.00000
                      -0.00001                       0.00146                       0.00000
                       0.00002                       0.00188                       0.00000
                       0.00006                       0.00234                       0.00000
                       0.00011                       0.00281                       0.00000
                       0.00016                       0.00329                       0.00000
                       0.00021                       0.00373                       0.00000
                       0.00025                       0.00409                       0.00000
                       0.00029                       0.00434                       0.00000
                       0.00032                       0.00442                       0.00000
                       0.00032                       0.00438                       0.00000
                       0.00000                      -0.00000                       0.00000
        </DataArray>
        <DataArray type="Float32" Name="OrientationX" NumberOfComponents="3" format="ascii">
                       1.00000                      -0.00000                      -0.00001
                       1.00000                      -0.00000                      -0.00003
                       1.00000                       0.00000                      -0.00005
                       1.00000                       0.00000                      -0.00007
                       1.00000                       0.00000                      -0.00008
                       1.00000                       0.00000                      -0.00010
                       1.00000                       0.00000                      -0.00011
                       1.00000                       0.00000                      -0.00012
                       1.00000                       0.00000                      -0.00013
                       1.00000                       0.00000                      -0.00013
                       1.00000                       0.00000                      -0.00013
                       1.00000                       0.00000                      -0.00013
                       1.00000                       0.00000                      -0.00013
                       1.00000                       0.00000                      -0.00013
                       1.00000                       0.00000                      -0.00013
                       1.00000                       0.00000                      -0.00012
                       1.00000                       0.00000                      -0.00012
                       1.00000                       0.00000                      -0.00011
                       1.00000                       0.00000                      -0.00010
                       1.00000                       0.00000                      -0.00008
                       1.00000                       0.00000                      -0.00007
                       1.00000                      -0.00000                       0.00000
        </DataArray>
        <DataArray type="Float32" Name="OrientationY" NumberOfComponents="3" format="ascii">
                      -0.00000                       1.00000                      -0.00000
                      -0.00000                       1.00000                      -0.00000
                       0.00000                       1.00000                       0.00000
                       0.00000                       1.00000                       0.00000
                       0.00000                       1.00000                       0.00000
                       0.00000                       1.00000                       0.00000
                       0.00000                       1.00000                       0.00000
                       0.00000                       1.00000                       0.00000
                       0.00000                       1.00000                       0.00000
                       0.00000                       1.00000                       0.00000
                       0.00000                       1.00000                       0.00000
                       0.00000                       1.00000                       0.00000
                       0.00000                       1.00000                       0.00000
                       0.00000                       1.00000                       0.00000
                       0.00000                       1.00000                       0.00000
                       0.00000                       1.00000                       0.00001
                       0.00000                       1.00000                       0.00001
                       0.00000                       1.00000                       0.00001
                       0.00000                       1.00000                       0.00001
                       0.00000                       1.00000                       0.00001
                       0.00000                       1.00000                       0.00001
                      -0.00000                       1.00000                      -0.00000
        </DataArray>
        <DataArray type="Float32" Name="OrientationZ" NumberOfComponents="3" format="ascii">
                       0.00001                       0.00000                       1.00000
                       0.00003                       0.00000                       1.00000
                       0.00005                      -0.00000                       1.00000
                       0.00007                      -0.00000                       1.00000
                       0.00008                      -0.00000                       1.00000
                       0.00010                      -0.00000                       1.00000
                       0.00011                      -0.00000                       1.00000
                       0.00012                      -0.00000                       1.00000
                       0.00013                      -0.00000                       1.00000
                       0.00013                      -0.00000                       1.00000
                       0.00013                      -0.00000                       1.00000
                       0.00013                      -0.00000                       1.00000
                       0.00013                      -0.00000                       1.00000
                       0.00013                      -0.00000                       1.00000
                       0.00013                      -0.00000                       1.00000
                       0.00012                      -0.00001                       1.00000
                       0.00012                      -0.00001                       1.00000
                       0.00011                      -0.00001                       1.00000
                       0.00010                      -0.00001                       1.00000
                       0.00008                      -0.00001                       1.00000
                       0.00007                      -0.00001                       1.00000
                       0.00000                      -0.00000                       1.00000
        </DataArray>
      </PointData>
      <Lines>
        <DataArray type="Int32" Name="connectivity" format="ascii">
      0      1
      1      2
      2      3
      3      4
      4      5
      5      6
      6      7
      7      8
      8      9
      9     10
     10     11
     11     12
     12     13
     13     14
     14     15
     15     16
     16     17
     17     18
     18     19
     19     20
     21      0
        </DataArray>
        <DataArray type="Int32" Name="offsets" format="ascii">
      2
      4
      6
      8
     10
     12
     14
     16
     18
     20
     22
     24
     26
     28
     30
     32
     34
     36
     38
     40
     42
        </DataArray>
      </Lines>
    </Piece>
  </PolyData>
</VTKFile>
