<?xml version="1.0"?>
<VTKFile type="PolyData" version="0.1" byte_order="LittleEndian">
  <PolyData>
    <Piece NumberOfPoints="     19" NumberOfVerts="  0" NumberOfLines="     18"
           NumberOfStrips="  0" NumberOfPolys="      0">
      <Points>
        <DataArray type="Float32" NumberOfComponents="3" format="ascii">
                      -4.91142                      -0.00261                      91.50049
                      -4.85204                      -0.00793                      92.86587
                      -4.75504                      -0.11329                      95.59737
                      -4.66766                      -0.26354                      98.32923
                      -4.56308                      -0.47830                     101.74432
                      -4.38168                      -0.59325                     105.84008
                      -4.17200                      -0.57866                     109.93471
                      -3.95925                      -0.56206                     114.02917
                      -3.73990                      -0.54176                     118.12327
                      -3.51363                      -0.51972                     122.21699
                      -3.28069                      -0.49966                     126.31031
                      -3.03933                      -0.48008                     130.40313
                      -2.78935                      -0.46097                     134.49543
                      -2.53082                      -0.44231                     138.58719
                      -2.26163                      -0.42412                     142.67829
                      -2.02883                      -0.40922                     146.08702
                      -1.83758                      -0.38950                     148.81364
                      -1.64263                      -0.31478                     151.54018
                      -1.54424                      -0.31907                     152.90320
        </DataArray>
      </Points>
      <PointData>
        <DataArray type="Float32" Name="TranslationalVelocity" NumberOfComponents="3" format="ascii">
                       0.08303                      -0.00824                       0.00941
                       0.08573                      -0.01459                       0.00926
                       0.09166                      -0.02733                       0.00856
                       0.09862                      -0.04010                       0.00766
                       0.10901                      -0.05616                       0.00636
                       0.12359                      -0.07554                       0.00519
                       0.13940                      -0.09507                       0.00443
                       0.15528                      -0.11486                       0.00363
                       0.17014                      -0.13503                       0.00288
                       0.18344                      -0.15570                       0.00220
                       0.19566                      -0.17706                       0.00157
                       0.20860                      -0.19926                       0.00086
                       0.22583                      -0.22252                      -0.00017
                       0.25318                      -0.24705                      -0.00193
                       0.29910                      -0.27303                      -0.00499
                       0.36052                      -0.29591                      -0.00919
                       0.42976                      -0.31508                      -0.01391
                       0.52019                      -0.33511                      -0.01971
                       0.57828                      -0.34547                      -0.02377
        </DataArray>
        <DataArray type="Float32" Name="RotationalVelocity" NumberOfComponents="3" format="ascii">
                       0.00466                       0.00191                      -0.00043
                       0.00466                       0.00197                      -0.00041
                       0.00466                       0.00223                      -0.00031
                       0.00469                       0.00259                      -0.00012
                       0.00474                       0.00304                       0.00027
                       0.00482                       0.00343                       0.00108
                       0.00492                       0.00355                       0.00239
                       0.00508                       0.00340                       0.00437
                       0.00532                       0.00306                       0.00718
                       0.00565                       0.00274                       0.01091
                       0.00611                       0.00272                       0.01559
                       0.00670                       0.00335                       0.02114
                       0.00742                       0.00509                       0.02734
                       0.00821                       0.00844                       0.03379
                       0.00903                       0.01399                       0.03991
                       0.00966                       0.02069                       0.04420
                       0.01007                       0.02776                       0.04665
                       0.01034                       0.03657                       0.04782
                       0.01040                       0.04170                       0.04778
        </DataArray>
        <DataArray type="Float32" Name="TranslationalAcceleration" NumberOfComponents="3" format="ascii">
                       0.04985                      -0.01681                      -0.09532
                      -0.01112                      -0.01793                      -0.02723
                      -0.05079                      -0.04723                      -0.06657
                      -0.10958                      -0.07112                      -0.08969
                      -0.20293                      -0.10045                      -0.10284
                      -0.32625                      -0.14130                      -0.10017
                      -0.44227                      -0.19191                      -0.08781
                      -0.53214                      -0.25102                      -0.07533
                      -0.58745                      -0.31287                      -0.06650
                      -0.61526                      -0.36807                      -0.06203
                      -0.64394                      -0.40435                      -0.05963
                      -0.72928                      -0.40719                      -0.05410
                      -0.96031                      -0.36066                      -0.03781
                      -1.46520                      -0.24811                      -0.00093
                      -2.41736                      -0.05291                       0.06881
                      -3.72786                       0.18485                       0.16352
                      -5.21238                       0.42860                       0.26823
                      -7.18622                       0.72444                       0.39964
                      -8.39473                       0.89305                       0.48191
        </DataArray>
        <DataArray type="Float32" Name="OrientationX" NumberOfComponents="3" format="ascii">
                       0.97218                      -0.23024                      -0.04314
                       0.97217                      -0.23024                      -0.04322
                       0.97216                      -0.23025                      -0.04348
                       0.97214                      -0.23027                      -0.04386
                       0.97210                      -0.23031                      -0.04447
                       0.97889                      -0.19922                      -0.04568
                       0.98313                      -0.17674                      -0.04701
                       0.98639                      -0.15708                      -0.04855
                       0.98939                      -0.13628                      -0.05033
                       0.99200                      -0.11487                      -0.05238
                       0.99401                      -0.09462                      -0.05468
                       0.99557                      -0.07455                      -0.05722
                       0.99661                      -0.05640                      -0.05995
                       0.99711                      -0.04272                      -0.06280
                       0.99742                      -0.02927                      -0.06562
                       0.99753                      -0.01800                      -0.06784
                       0.99754                      -0.00961                      -0.06941
                       0.99748                      -0.00519                      -0.07071
                       0.99745                      -0.00526                      -0.07124
        </DataArray>
        <DataArray type="Float32" Name="OrientationY" NumberOfComponents="3" format="ascii">
                       0.23008                       0.97313                      -0.00880
                       0.23008                       0.97313                      -0.00881
                       0.23009                       0.97313                      -0.00886
                       0.23010                       0.97313                      -0.00892
                       0.23014                       0.97312                      -0.00900
                       0.19908                       0.97995                      -0.00767
                       0.17662                       0.98426                      -0.00670
                       0.15698                       0.98758                      -0.00583
                       0.13621                       0.99067                      -0.00486
                       0.11482                       0.99338                      -0.00381
                       0.09461                       0.99551                      -0.00277
                       0.07458                       0.99721                      -0.00166
                       0.05646                       0.99840                      -0.00060
                       0.04283                       0.99908                       0.00025
                       0.02941                       0.99957                       0.00113
                       0.01817                       0.99983                       0.00189
                       0.00981                       0.99995                       0.00247
                       0.00540                       0.99998                       0.00276
                       0.00547                       0.99998                       0.00274
        </DataArray>
        <DataArray type="Float32" Name="OrientationZ" NumberOfComponents="3" format="ascii">
                       0.04401                      -0.00137                       0.99903
                       0.04409                      -0.00138                       0.99903
                       0.04435                      -0.00139                       0.99902
                       0.04473                      -0.00142                       0.99900
                       0.04535                      -0.00148                       0.99897
                       0.04629                      -0.00159                       0.99893
                       0.04746                      -0.00172                       0.99887
                       0.04886                      -0.00187                       0.99880
                       0.05053                      -0.00205                       0.99872
                       0.05247                      -0.00223                       0.99862
                       0.05470                      -0.00242                       0.99850
                       0.05719                      -0.00261                       0.99836
                       0.05989                      -0.00279                       0.99820
                       0.06273                      -0.00294                       0.99803
                       0.06556                      -0.00306                       0.99784
                       0.06779                      -0.00312                       0.99769
                       0.06938                      -0.00315                       0.99759
                       0.07069                      -0.00314                       0.99749
                       0.07122                      -0.00312                       0.99746
        </DataArray>
        <DataArray type="Float32" Name="Force" NumberOfComponents="3" format="ascii">
                     154.63857                       0.11592                      -6.81152
                     155.49186                       0.19871                      -6.86193
                     171.00021                       0.39831                      -7.59086
                     130.74149                       0.44116                      -5.85317
                     712.95705                    -244.46930                     -32.69818
                     670.53271                    -192.93565                     -31.33570
                     644.70819                    -168.60151                     -30.86054
                     582.49590                    -134.86573                     -28.68002
                     538.22746                    -103.62817                     -27.37141
                     509.07157                     -86.54633                     -26.86618
                     491.69573                     -64.88137                     -27.02236
                     463.46725                     -51.67384                     -26.61738
                     430.31783                     -39.63936                     -25.87278
                     399.05280                     -31.29312                     -25.12348
                     365.89134                     -23.78281                     -24.07062
                     336.60033                     -18.10865                     -22.89227
                     302.88554                     -13.77529                     -21.07916
                     204.71911                      -8.41126                     -14.51667
                     203.55552                      -8.37604                     -14.54130
        </DataArray>
        <DataArray type="Float32" Name="Moment" NumberOfComponents="3" format="ascii">
                       0.00000                       0.00000                       0.00000
                       0.00000                       0.00000                       0.00000
                       0.00000                       0.00000                       0.00000
                       0.00000                       0.00000                       0.00000
                     -33.10965                       1.00239                    -729.42320
                     -35.38577                       1.04953                    -763.65965
                     -34.05638                       0.98530                    -716.85558
                     -32.94114                       0.92567                    -673.39273
                     -30.69490                       0.83417                    -606.73826
                     -28.43319                       0.74414                    -541.16103
                     -24.43016                       0.61340                    -446.00131
                     -22.49159                       0.54018                    -392.67683
                     -20.28325                       0.46516                    -338.06510
                     -18.13265                       0.39707                    -288.50743
                     -15.86585                       0.33246                    -241.50116
                     -13.88905                       0.28150                    -204.44272
                     -11.55092                       0.22877                    -166.12414
                      -5.41441                       0.10525                     -76.41683
                      -5.42236                       0.10463                     -75.96483
        </DataArray>
      </PointData>
      <Lines>
        <DataArray type="Int32" Name="connectivity" format="ascii">
      0      1
      1      2
      2      3
      3      4
      4      5
      5      6
      6      7
      7      8
      8      9
      9     10
     10     11
     11     12
     12     13
     13     14
     14     15
     15     16
     16     17
     17     18
        </DataArray>
        <DataArray type="Int32" Name="offsets" format="ascii">
      2
      4
      6
      8
     10
     12
     14
     16
     18
     20
     22
     24
     26
     28
     30
     32
     34
     36
        </DataArray>
      </Lines>
    </Piece>
  </PolyData>
</VTKFile>
