<?xml version="1.0"?>
<VTKFile type="PolyData" version="0.1" byte_order="LittleEndian">
  <PolyData>
    <Piece NumberOfPoints="     19" NumberOfVerts="  0" NumberOfLines="     18"
           NumberOfStrips="  0" NumberOfPolys="      0">
      <Points>
        <DataArray type="Float32" NumberOfComponents="3" format="ascii">
                      -5.10406                      -1.06006                      88.95362
                      -5.24951                      -2.02199                      87.99369
                      -5.56809                      -3.87747                      86.00934
                      -5.89926                      -5.69995                      83.99380
                      -6.31982                      -7.95736                      81.45474
                      -6.76065                     -10.76685                      78.49973
                      -7.16626                     -13.66673                      75.63018
                      -7.57007                     -16.56591                      72.75960
                      -7.96906                     -19.46593                      69.88906
                      -8.36370                     -22.36566                      67.01752
                      -8.75519                     -25.26278                      64.14286
                      -9.14243                     -28.15870                      61.26635
                      -9.52596                     -31.05372                      58.38838
                      -9.90650                     -33.94808                      55.50932
                     -10.28249                     -36.84192                      52.62913
                     -10.59245                     -39.25316                      50.22818
                     -10.83819                     -41.18753                      48.31255
                     -11.07989                     -43.16091                      46.43499
                     -11.20344                     -44.11770                      45.46706
        </DataArray>
      </Points>
      <PointData>
        <DataArray type="Float32" Name="TranslationalVelocity" NumberOfComponents="3" format="ascii">
                      -0.06390                       0.06903                      -0.07257
                      -0.06846                       0.13135                      -0.13432
                      -0.07724                       0.26023                      -0.25343
                      -0.08595                       0.39110                      -0.37034
                      -0.09692                       0.55588                      -0.51503
                      -0.11114                       0.74720                      -0.69484
                      -0.12656                       0.93268                      -0.88013
                      -0.14285                       1.11808                      -1.06510
                      -0.16034                       1.30333                      -1.24983
                      -0.17939                       1.48854                      -1.43423
                      -0.20038                       1.67389                      -1.61817
                      -0.22374                       1.85933                      -1.80171
                      -0.24989                       2.04487                      -1.98485
                      -0.27924                       2.23053                      -2.16761
                      -0.31217                       2.41631                      -2.34995
                      -0.34265                       2.57120                      -2.50157
                      -0.36908                       2.69481                      -2.62300
                      -0.39766                       2.81599                      -2.74669
                      -0.41248                       2.87845                      -2.80655
        </DataArray>
        <DataArray type="Float32" Name="RotationalVelocity" NumberOfComponents="3" format="ascii">
                       0.06407                      -0.00093                      -0.00567
                       0.06406                      -0.00092                      -0.00567
                       0.06403                      -0.00089                      -0.00570
                       0.06399                      -0.00085                      -0.00573
                       0.06393                      -0.00079                      -0.00579
                       0.06386                      -0.00069                      -0.00588
                       0.06379                      -0.00056                      -0.00601
                       0.06371                      -0.00039                      -0.00618
                       0.06365                      -0.00016                      -0.00641
                       0.06358                       0.00013                      -0.00671
                       0.06352                       0.00049                      -0.00708
                       0.06346                       0.00093                      -0.00754
                       0.06339                       0.00145                      -0.00807
                       0.06333                       0.00204                      -0.00867
                       0.06327                       0.00267                      -0.00931
                       0.06322                       0.00322                      -0.00985
                       0.06319                       0.00364                      -0.01028
                       0.06315                       0.00404                      -0.01068
                       0.06314                       0.00423                      -0.01086
        </DataArray>
        <DataArray type="Float32" Name="TranslationalAcceleration" NumberOfComponents="3" format="ascii">
                      -0.07234                       0.01495                      -0.02814
                      -0.01747                       0.01615                      -0.01273
                      -0.03956                       0.04663                      -0.03348
                      -0.04816                       0.07488                      -0.04865
                      -0.04662                       0.10821                      -0.06270
                      -0.03551                       0.14531                      -0.07632
                      -0.02141                       0.18070                      -0.08903
                      -0.00821                       0.21577                      -0.10121
                       0.00234                       0.25099                      -0.11368
                       0.01067                       0.28643                      -0.12673
                       0.01895                       0.32191                      -0.14034
                       0.03069                       0.35710                      -0.15436
                       0.05030                       0.39165                      -0.16868
                       0.08269                       0.42535                      -0.18339
                       0.13284                       0.45818                      -0.19893
                       0.19196                       0.48508                      -0.21326
                       0.25176                       0.50662                      -0.22639
                       0.32341                       0.52842                      -0.24220
                       0.36429                       0.53969                      -0.25093
        </DataArray>
        <DataArray type="Float32" Name="OrientationX" NumberOfComponents="3" format="ascii">
                       0.95148                       0.13295                      -0.27750
                       0.95149                       0.13301                      -0.27744
                       0.95152                       0.13323                      -0.27723
                       0.95156                       0.13354                      -0.27695
                       0.95162                       0.13404                      -0.27650
                       0.96043                       0.11247                      -0.25479
                       0.96621                       0.09715                      -0.23874
                       0.97085                       0.08392                      -0.22450
                       0.97533                       0.06992                      -0.20937
                       0.97949                       0.05552                      -0.19371
                       0.98300                       0.04199                      -0.17875
                       0.98607                       0.02861                      -0.16383
                       0.98852                       0.01659                      -0.15018
                       0.99018                       0.00774                      -0.13961
                       0.99161                      -0.00103                      -0.12924
                       0.99266                      -0.00847                      -0.12064
                       0.99335                      -0.01406                      -0.11429
                       0.99370                      -0.01693                      -0.11081
                       0.99371                      -0.01678                      -0.11073
        </DataArray>
        <DataArray type="Float32" Name="OrientationY" NumberOfComponents="3" format="ascii">
                       0.28898                      -0.69590                       0.65743
                       0.28896                      -0.69598                       0.65735
                       0.28894                      -0.69620                       0.65713
                       0.28891                      -0.69648                       0.65685
                       0.28889                      -0.69686                       0.65645
                       0.25838                      -0.70128                       0.66442
                       0.23625                      -0.70417                       0.66957
                       0.21685                      -0.70645                       0.67372
                       0.19630                      -0.70849                       0.67787
                       0.17510                      -0.71021                       0.68187
                       0.15502                      -0.71151                       0.68536
                       0.13507                      -0.71248                       0.68857
                       0.11698                      -0.71311                       0.69123
                       0.10330                      -0.71345                       0.69305
                       0.08981                      -0.71363                       0.69474
                       0.07851                      -0.71367                       0.69607
                       0.07009                      -0.71363                       0.69701
                       0.06562                      -0.71359                       0.69748
                       0.06567                      -0.71360                       0.69746
        </DataArray>
        <DataArray type="Float32" Name="OrientationZ" NumberOfComponents="3" format="ascii">
                      -0.10571                      -0.70573                      -0.70055
                      -0.10565                      -0.70563                      -0.70066
                      -0.10546                      -0.70537                      -0.70095
                      -0.10517                      -0.70505                      -0.70132
                      -0.10468                      -0.70457                      -0.70187
                      -0.10395                      -0.70396                      -0.70259
                      -0.10307                      -0.70335                      -0.70333
                      -0.10206                      -0.70277                      -0.70406
                      -0.10094                      -0.70225                      -0.70474
                      -0.09971                      -0.70180                      -0.70536
                      -0.09840                      -0.70142                      -0.70592
                      -0.09703                      -0.70111                      -0.70642
                      -0.09563                      -0.70086                      -0.70686
                      -0.09424                      -0.70067                      -0.70724
                      -0.09295                      -0.70052                      -0.70755
                      -0.09199                      -0.70043                      -0.70777
                      -0.09136                      -0.70038                      -0.70790
                      -0.09088                      -0.70035                      -0.70799
                      -0.09072                      -0.70035                      -0.70801
        </DataArray>
        <DataArray type="Float32" Name="Force" NumberOfComponents="3" format="ascii">
                     146.86687                     -12.81550                      -9.25117
                     132.62578                     -16.61125                      -3.26653
                     159.36012                     -21.65467                      -2.16840
                     125.79291                     -16.99559                      -1.75187
                     766.04162                     169.12407                    -284.68311
                     685.85585                     124.37327                    -226.83894
                     653.77058                     106.95648                    -203.64417
                     554.64075                      78.56764                    -159.64550
                     482.27195                      54.42852                    -124.00547
                     450.06283                      43.87852                    -107.92895
                     408.42286                      28.20272                     -85.44926
                     379.09974                      20.93635                     -73.26493
                     325.50069                      12.18462                     -56.40400
                     297.67713                       8.41830                     -48.23571
                     270.29076                       5.21587                     -40.84224
                     247.77367                       2.90972                     -35.21123
                     223.11847                       1.35960                     -30.23390
                     151.38113                       0.48465                     -19.96869
                     151.02977                       0.50948                     -19.91274
        </DataArray>
        <DataArray type="Float32" Name="Moment" NumberOfComponents="3" format="ascii">
                       0.00000                       0.00000                       0.00000
                       0.00000                       0.00000                       0.00000
                       0.00000                       0.00000                       0.00000
                       0.00000                       0.00000                       0.00000
                      68.75423                     463.98697                     460.65243
                      69.68814                     473.89400                     470.53547
                      62.92948                     431.84756                     428.83789
                      56.84462                     394.17063                     391.47609
                      49.16552                     344.90202                     342.59501
                      42.13481                     299.36237                     297.40762
                      33.02806                     237.89575                     236.38262
                      27.95501                     204.29171                     203.02835
                      23.14599                     171.69371                     170.66273
                      19.06933                     143.57718                     142.74034
                      15.48781                     118.27110                     117.60124
                      12.86112                      99.25287                      98.70276
                      10.34278                      80.38084                      79.94178
                       4.73200                      36.96993                      36.77021
                       4.70196                      36.80205                      36.60399
        </DataArray>
      </PointData>
      <Lines>
        <DataArray type="Int32" Name="connectivity" format="ascii">
      0      1
      1      2
      2      3
      3      4
      4      5
      5      6
      6      7
      7      8
      8      9
      9     10
     10     11
     11     12
     12     13
     13     14
     14     15
     15     16
     16     17
     17     18
        </DataArray>
        <DataArray type="Int32" Name="offsets" format="ascii">
      2
      4
      6
      8
     10
     12
     14
     16
     18
     20
     22
     24
     26
     28
     30
     32
     34
     36
        </DataArray>
      </Lines>
    </Piece>
  </PolyData>
</VTKFile>
