<?xml version="1.0"?>
<VTKFile type="PolyData" version="0.1" byte_order="LittleEndian">
  <PolyData>
    <Piece NumberOfPoints="     22" NumberOfVerts="  0" NumberOfLines="     21"
           NumberOfStrips="  0" NumberOfPolys="      0">
      <Points>
        <DataArray type="Float32" NumberOfComponents="3" format="ascii">
                       0.00003                      -0.00000                       2.19000
                       0.00030                      -0.00000                       6.57000
                       0.00088                      -0.00000                      10.95000
                       0.00179                      -0.00001                      15.33000
                       0.00303                      -0.00001                      19.71000
                       0.00460                      -0.00001                      24.09000
                       0.00646                      -0.00002                      28.47000
                       0.00859                      -0.00003                      32.85000
                       0.01098                      -0.00004                      37.23000
                       0.01362                      -0.00006                      41.61000
                       0.01649                      -0.00008                      45.99000
                       0.01961                      -0.00010                      50.36999
                       0.02297                      -0.00013                      54.74999
                       0.02659                      -0.00016                      59.12999
                       0.03046                      -0.00020                      63.50999
                       0.03457                      -0.00025                      67.88999
                       0.03888                      -0.00030                      72.26999
                       0.04334                      -0.00035                      76.64998
                       0.04784                      -0.00041                      81.02998
                       0.05223                      -0.00047                      85.40998
                       0.05430                      -0.00051                      87.59998
                       0.00000                       0.00000                       0.00000
        </DataArray>
      </Points>
      <PointData>
        <DataArray type="Float32" Name="TranslationalVelocity" NumberOfComponents="3" format="ascii">
                       0.00002                      -0.00000                      -0.00000
                       0.00016                      -0.00000                      -0.00000
                       0.00049                      -0.00000                      -0.00000
                       0.00100                      -0.00001                      -0.00000
                       0.00172                      -0.00001                      -0.00000
                       0.00262                      -0.00002                      -0.00000
                       0.00370                      -0.00003                      -0.00000
                       0.00496                      -0.00004                      -0.00000
                       0.00639                      -0.00005                      -0.00000
                       0.00799                      -0.00006                      -0.00000
                       0.00977                      -0.00008                      -0.00000
                       0.01173                      -0.00009                      -0.00001
                       0.01387                      -0.00011                      -0.00001
                       0.01622                      -0.00013                      -0.00001
                       0.01877                      -0.00015                      -0.00001
                       0.02151                      -0.00018                      -0.00001
                       0.02443                      -0.00020                      -0.00002
                       0.02748                      -0.00023                      -0.00002
                       0.03059                      -0.00026                      -0.00002
                       0.03366                      -0.00029                      -0.00003
                       0.03512                      -0.00030                      -0.00003
                       0.00000                      -0.00000                       0.00000
        </DataArray>
        <DataArray type="Float32" Name="RotationalVelocity" NumberOfComponents="3" format="ascii">
                       0.00000                       0.00002                       0.00000
                       0.00000                       0.00005                       0.00000
                       0.00000                       0.00010                       0.00000
                       0.00000                       0.00014                       0.00000
                       0.00000                       0.00018                       0.00000
                       0.00000                       0.00023                       0.00000
                       0.00000                       0.00027                       0.00000
                       0.00000                       0.00031                       0.00000
                       0.00000                       0.00035                       0.00000
                       0.00000                       0.00039                       0.00000
                       0.00000                       0.00043                       0.00000
                       0.00000                       0.00047                       0.00000
                       0.00000                       0.00051                       0.00000
                       0.00000                       0.00056                       0.00000
                       0.00001                       0.00060                       0.00000
                       0.00001                       0.00065                       0.00000
                       0.00001                       0.00068                       0.00000
                       0.00001                       0.00071                       0.00000
                       0.00001                       0.00071                       0.00000
                       0.00001                       0.00068                       0.00000
                       0.00001                       0.00065                       0.00000
                       0.00000                      -0.00000                       0.00000
        </DataArray>
        <DataArray type="Float32" Name="TranslationalAcceleration" NumberOfComponents="3" format="ascii">
                      -0.00001                      -0.00000                      -0.00000
                      -0.00009                      -0.00002                      -0.00000
                      -0.00026                      -0.00005                      -0.00000
                      -0.00055                      -0.00010                      -0.00000
                      -0.00094                      -0.00015                      -0.00000
                      -0.00145                      -0.00022                      -0.00000
                      -0.00207                      -0.00030                      -0.00000
                      -0.00279                      -0.00039                      -0.00000
                      -0.00363                      -0.00050                      -0.00000
                      -0.00459                      -0.00061                      -0.00000
                      -0.00566                      -0.00073                      -0.00000
                      -0.00687                      -0.00087                      -0.00000
                      -0.00822                      -0.00102                      -0.00000
                      -0.00971                      -0.00118                      -0.00000
                      -0.01136                      -0.00134                      -0.00000
                      -0.01315                      -0.00152                      -0.00000
                      -0.01508                      -0.00170                      -0.00000
                      -0.01711                      -0.00189                      -0.00000
                      -0.01921                      -0.00208                      -0.00000
                      -0.02129                      -0.00228                      -0.00000
                      -0.02230                      -0.00238                      -0.00000
                       0.00000                      -0.00000                       0.00000
        </DataArray>
        <DataArray type="Float32" Name="RotationalAcceleration" NumberOfComponents="3" format="ascii">
                       0.00000                      -0.00001                       0.00000
                       0.00001                      -0.00003                       0.00000
                       0.00001                      -0.00005                       0.00000
                       0.00001                      -0.00008                       0.00000
                       0.00001                      -0.00010                       0.00000
                       0.00002                      -0.00013                       0.00000
                       0.00002                      -0.00015                       0.00000
                       0.00002                      -0.00018                       0.00000
                       0.00002                      -0.00020                       0.00000
                       0.00003                      -0.00023                       0.00000
                       0.00003                      -0.00026                       0.00000
                       0.00003                      -0.00029                       0.00000
                       0.00003                      -0.00032                       0.00000
                       0.00004                      -0.00036                       0.00000
                       0.00004                      -0.00039                       0.00000
                       0.00004                      -0.00043                       0.00000
                       0.00004                      -0.00045                       0.00000
                       0.00004                      -0.00047                       0.00000
                       0.00004                      -0.00048                       0.00000
                       0.00005                      -0.00047                       0.00000
                       0.00005                      -0.00045                       0.00000
                       0.00000                      -0.00000                       0.00000
        </DataArray>
        <DataArray type="Float32" Name="OrientationX" NumberOfComponents="3" format="ascii">
                       1.00000                       0.00000                      -0.00003
                       1.00000                       0.00000                      -0.00010
                       1.00000                       0.00000                      -0.00017
                       1.00000                       0.00000                      -0.00025
                       1.00000                       0.00000                      -0.00032
                       1.00000                       0.00000                      -0.00039
                       1.00000                       0.00000                      -0.00046
                       1.00000                       0.00000                      -0.00052
                       1.00000                       0.00000                      -0.00057
                       1.00000                       0.00000                      -0.00063
                       1.00000                       0.00000                      -0.00068
                       1.00000                       0.00000                      -0.00074
                       1.00000                       0.00000                      -0.00080
                       1.00000                       0.00000                      -0.00085
                       1.00000                       0.00000                      -0.00091
                       1.00000                       0.00000                      -0.00096
                       1.00000                       0.00000                      -0.00101
                       1.00000                       0.00000                      -0.00103
                       1.00000                       0.00000                      -0.00102
                       1.00000                       0.00000                      -0.00097
                       1.00000                       0.00000                      -0.00092
                       1.00000                      -0.00000                       0.00000
        </DataArray>
        <DataArray type="Float32" Name="OrientationY" NumberOfComponents="3" format="ascii">
                       0.00000                       1.00000                       0.00000
                       0.00000                       1.00000                       0.00000
                       0.00000                       1.00000                       0.00000
                       0.00000                       1.00000                       0.00000
                       0.00000                       1.00000                       0.00000
                       0.00000                       1.00000                       0.00000
                       0.00000                       1.00000                       0.00000
                       0.00000                       1.00000                       0.00000
                       0.00000                       1.00000                       0.00000
                       0.00000                       1.00000                       0.00000
                       0.00000                       1.00000                       0.00000
                       0.00000                       1.00000                       0.00001
                       0.00000                       1.00000                       0.00001
                       0.00000                       1.00000                       0.00001
                       0.00000                       1.00000                       0.00001
                       0.00000                       1.00000                       0.00001
                       0.00000                       1.00000                       0.00001
                       0.00000                       1.00000                       0.00001
                       0.00000                       1.00000                       0.00001
                       0.00000                       1.00000                       0.00001
                       0.00000                       1.00000                       0.00001
                      -0.00000                       1.00000                      -0.00000
        </DataArray>
        <DataArray type="Float32" Name="OrientationZ" NumberOfComponents="3" format="ascii">
                       0.00003                      -0.00000                       1.00000
                       0.00010                      -0.00000                       1.00000
                       0.00017                      -0.00000                       1.00000
                       0.00025                      -0.00000                       1.00000
                       0.00032                      -0.00000                       1.00000
                       0.00039                      -0.00000                       1.00000
                       0.00046                      -0.00000                       1.00000
                       0.00052                      -0.00000                       1.00000
                       0.00057                      -0.00000                       1.00000
                       0.00063                      -0.00000                       1.00000
                       0.00068                      -0.00000                       1.00000
                       0.00074                      -0.00001                       1.00000
                       0.00080                      -0.00001                       1.00000
                       0.00085                      -0.00001                       1.00000
                       0.00091                      -0.00001                       1.00000
                       0.00096                      -0.00001                       1.00000
                       0.00101                      -0.00001                       1.00000
                       0.00103                      -0.00001                       1.00000
                       0.00102                      -0.00001                       1.00000
                       0.00097                      -0.00001                       1.00000
                       0.00092                      -0.00001                       1.00000
                       0.00000                      -0.00000                       1.00000
        </DataArray>
      </PointData>
      <Lines>
        <DataArray type="Int32" Name="connectivity" format="ascii">
      0      1
      1      2
      2      3
      3      4
      4      5
      5      6
      6      7
      7      8
      8      9
      9     10
     10     11
     11     12
     12     13
     13     14
     14     15
     15     16
     16     17
     17     18
     18     19
     19     20
     21      0
        </DataArray>
        <DataArray type="Int32" Name="offsets" format="ascii">
      2
      4
      6
      8
     10
     12
     14
     16
     18
     20
     22
     24
     26
     28
     30
     32
     34
     36
     38
     40
     42
        </DataArray>
      </Lines>
    </Piece>
  </PolyData>
</VTKFile>
