<?xml version="1.0"?>
<VTKFile type="PolyData" version="0.1" byte_order="LittleEndian">
  <PolyData>
    <Piece NumberOfPoints="     19" NumberOfVerts="  0" NumberOfLines="     18"
           NumberOfStrips="  0" NumberOfPolys="      0">
      <Points>
        <DataArray type="Float32" NumberOfComponents="3" format="ascii">
                      -5.04940                      -1.29303                      89.25477
                      -5.17115                      -2.46758                      88.56664
                      -5.44380                      -4.76715                      87.11078
                      -5.72992                      -7.04270                      85.61632
                      -6.09494                      -9.87188                      83.72380
                      -6.46782                     -13.33951                      81.56624
                      -6.80466                     -16.87216                      79.51345
                      -7.14089                     -20.40400                      77.45905
                      -7.47368                     -23.93624                      75.40456
                      -7.80370                     -27.46810                      73.34880
                      -8.13232                     -30.99793                      71.28923
                      -8.45853                     -34.52681                      69.22752
                      -8.78283                     -38.05497                      67.16421
                      -9.10588                     -41.58262                      65.09975
                      -9.42592                     -45.10989                      63.03413
                      -9.69023                     -48.04906                      61.31196
                      -9.89977                     -50.40425                      59.94049
                     -10.10469                     -52.78758                      58.61553
                     -10.21049                     -53.95760                      57.91733
        </DataArray>
      </Points>
      <PointData>
        <DataArray type="Float32" Name="TranslationalVelocity" NumberOfComponents="3" format="ascii">
                      -0.00720                       0.00818                      -0.01735
                      -0.00796                       0.01623                      -0.03097
                      -0.00899                       0.03333                      -0.05780
                      -0.00919                       0.05097                      -0.08464
                      -0.00777                       0.07341                      -0.11850
                      -0.00321                       0.09906                      -0.16065
                       0.00504                       0.12348                      -0.20420
                       0.01751                       0.14773                      -0.24818
                       0.03425                       0.17164                      -0.29229
                       0.05510                       0.19501                      -0.33613
                       0.07960                       0.21772                      -0.37931
                       0.10703                       0.23960                      -0.42146
                       0.13639                       0.26059                      -0.46231
                       0.16646                       0.28068                      -0.50165
                       0.19572                       0.29999                      -0.53941
                       0.21818                       0.31565                      -0.56973
                       0.23406                       0.32798                      -0.59342
                       0.24696                       0.33993                      -0.61696
                       0.25264                       0.34629                      -0.62848
        </DataArray>
        <DataArray type="Float32" Name="RotationalVelocity" NumberOfComponents="3" format="ascii">
                       0.01149                      -0.00049                      -0.00100
                       0.01152                      -0.00053                      -0.00095
                       0.01159                      -0.00066                      -0.00077
                       0.01169                      -0.00087                      -0.00050
                       0.01182                      -0.00121                      -0.00005
                       0.01197                      -0.00176                       0.00060
                       0.01206                      -0.00244                       0.00132
                       0.01207                      -0.00324                       0.00202
                       0.01199                      -0.00416                       0.00265
                       0.01181                      -0.00518                       0.00314
                       0.01153                      -0.00627                       0.00343
                       0.01117                      -0.00740                       0.00346
                       0.01073                      -0.00850                       0.00322
                       0.01027                      -0.00948                       0.00268
                       0.00982                      -0.01024                       0.00187
                       0.00950                      -0.01061                       0.00102
                       0.00932                      -0.01066                       0.00025
                       0.00922                      -0.01040                      -0.00057
                       0.00921                      -0.01015                      -0.00098
        </DataArray>
        <DataArray type="Float32" Name="TranslationalAcceleration" NumberOfComponents="3" format="ascii">
                      -0.19177                       0.01255                       0.06307
                      -0.06613                       0.00925                       0.01134
                      -0.16649                       0.02553                       0.02496
                      -0.22649                       0.03886                       0.02846
                      -0.25037                       0.05213                       0.02068
                      -0.20606                       0.06377                      -0.00526
                      -0.08818                       0.07355                      -0.04574
                       0.09903                       0.08427                      -0.09870
                       0.34942                       0.09776                      -0.16360
                       0.65134                       0.11532                      -0.24001
                       0.98430                       0.13790                      -0.32685
                       1.31524                       0.16620                      -0.42132
                       1.59546                       0.20074                      -0.51841
                       1.75743                       0.24212                      -0.61006
                       1.71171                       0.29075                      -0.68376
                       1.42614                       0.33730                      -0.71870
                       0.98330                       0.37850                      -0.72124
                       0.28132                       0.42341                      -0.69163
                      -0.16368                       0.44794                      -0.66353
        </DataArray>
        <DataArray type="Float32" Name="OrientationX" NumberOfComponents="3" format="ascii">
                       0.94895                       0.08027                      -0.30504
                       0.94896                       0.08034                      -0.30500
                       0.94898                       0.08057                      -0.30488
                       0.94901                       0.08090                      -0.30470
                       0.94904                       0.08142                      -0.30444
                       0.95827                       0.06603                      -0.27815
                       0.96432                       0.05515                      -0.25892
                       0.96920                       0.04577                      -0.24199
                       0.97392                       0.03583                      -0.22405
                       0.97832                       0.02558                      -0.20552
                       0.98206                       0.01595                      -0.18791
                       0.98535                       0.00642                      -0.17040
                       0.98800                      -0.00211                      -0.15445
                       0.98979                      -0.00834                      -0.14228
                       0.99137                      -0.01449                      -0.13027
                       0.99255                      -0.01969                      -0.12024
                       0.99334                      -0.02358                      -0.11276
                       0.99375                      -0.02549                      -0.10871
                       0.99376                      -0.02529                      -0.10865
        </DataArray>
        <DataArray type="Float32" Name="OrientationY" NumberOfComponents="3" format="ascii">
                       0.30281                      -0.50259                       0.80976
                       0.30280                      -0.50273                       0.80968
                       0.30277                      -0.50307                       0.80948
                       0.30274                      -0.50350                       0.80922
                       0.30272                      -0.50410                       0.80885
                       0.27229                      -0.50723                       0.81767
                       0.25020                      -0.50939                       0.82336
                       0.23086                      -0.51113                       0.82792
                       0.21036                      -0.51264                       0.83244
                       0.18921                      -0.51387                       0.83674
                       0.16918                      -0.51476                       0.84047
                       0.14929                      -0.51538                       0.84386
                       0.13125                      -0.51573                       0.84664
                       0.11762                      -0.51592                       0.84853
                       0.10419                      -0.51597                       0.85025
                       0.09292                      -0.51591                       0.85159
                       0.08453                      -0.51581                       0.85252
                       0.08008                      -0.51576                       0.85298
                       0.08013                      -0.51577                       0.85297
        </DataArray>
        <DataArray type="Float32" Name="OrientationZ" NumberOfComponents="3" format="ascii">
                      -0.08832                      -0.86079                      -0.50124
                      -0.08828                      -0.86070                      -0.50139
                      -0.08815                      -0.86048                      -0.50180
                      -0.08795                      -0.86020                      -0.50232
                      -0.08761                      -0.85980                      -0.50307
                      -0.08709                      -0.85928                      -0.50404
                      -0.08648                      -0.85876                      -0.50502
                      -0.08579                      -0.85828                      -0.50595
                      -0.08503                      -0.85786                      -0.50681
                      -0.08421                      -0.85749                      -0.50756
                      -0.08332                      -0.85718                      -0.50822
                      -0.08240                      -0.85694                      -0.50879
                      -0.08144                      -0.85675                      -0.50927
                      -0.08048                      -0.85660                      -0.50967
                      -0.07954                      -0.85649                      -0.51000
                      -0.07880                      -0.85642                      -0.51023
                      -0.07827                      -0.85638                      -0.51038
                      -0.07781                      -0.85636                      -0.51049
                      -0.07761                      -0.85635                      -0.51053
        </DataArray>
        <DataArray type="Float32" Name="Force" NumberOfComponents="3" format="ascii">
                     152.20316                     -11.91742                      -6.35133
                     143.79404                     -12.87395                      -3.21394
                     164.54097                     -15.98333                      -1.47423
                     127.87826                     -11.70119                      -2.32007
                     732.20727                     104.29716                    -306.81566
                     651.50746                      74.47919                    -240.73601
                     611.55759                      61.94081                    -211.41662
                     524.53558                      44.77804                    -166.17409
                     461.63919                      30.17448                    -129.61378
                     425.83622                      23.15077                    -110.75431
                     393.01516                      13.61988                     -88.18084
                     360.95215                       8.98719                     -74.23543
                     319.61555                       4.62929                     -59.38210
                     289.61168                       2.42340                     -50.18787
                     260.05392                       0.58533                     -41.83182
                     236.01691                      -0.68145                     -35.52831
                     210.79149                      -1.41435                     -30.11953
                     141.89299                      -1.21787                     -19.68577
                     141.01273                      -1.18370                     -19.55310
        </DataArray>
        <DataArray type="Float32" Name="Moment" NumberOfComponents="3" format="ascii">
                       0.00000                       0.00000                       0.00000
                       0.00000                       0.00000                       0.00000
                       0.00000                       0.00000                       0.00000
                       0.00000                       0.00000                       0.00000
                      58.90730                     579.80682                     337.67688
                      59.60790                     590.74291                     344.08248
                      53.97308                     539.20441                     314.10210
                      48.89860                     492.90670                     287.17146
                      42.42729                     431.88100                     251.65446
                      36.41233                     374.57666                     218.29781
                      28.73182                     298.89646                     174.22125
                      24.30815                     255.87344                     149.16951
                      20.11354                     214.31913                     124.96604
                      16.52226                     178.24379                     103.94936
                      13.35406                     145.82557                      85.05800
                      11.02900                     121.59505                      70.93411
                       8.82314                      97.95521                      57.14897
                       4.01511                      44.84583                      26.16609
                       3.97873                      44.55380                      25.99660
        </DataArray>
      </PointData>
      <Lines>
        <DataArray type="Int32" Name="connectivity" format="ascii">
      0      1
      1      2
      2      3
      3      4
      4      5
      5      6
      6      7
      7      8
      8      9
      9     10
     10     11
     11     12
     12     13
     13     14
     14     15
     15     16
     16     17
     17     18
        </DataArray>
        <DataArray type="Int32" Name="offsets" format="ascii">
      2
      4
      6
      8
     10
     12
     14
     16
     18
     20
     22
     24
     26
     28
     30
     32
     34
     36
        </DataArray>
      </Lines>
    </Piece>
  </PolyData>
</VTKFile>
