<?xml version="1.0"?>
<VTKFile type="PolyData" version="0.1" byte_order="LittleEndian">
  <PolyData>
    <Piece NumberOfPoints="     19" NumberOfVerts="  0" NumberOfLines="     18"
           NumberOfStrips="  0" NumberOfPolys="      0">
      <Points>
        <DataArray type="Float32" NumberOfComponents="3" format="ascii">
                      -5.11743                       0.82256                      88.76289
                      -5.27794                       1.57500                      87.63328
                      -5.61585                       3.15796                      85.42824
                      -5.96107                       4.77750                      83.24830
                      -6.39578                       6.82321                      80.53752
                      -6.86865                       9.15808                      77.19822
                      -7.31949                      11.38297                      73.78323
                      -7.76711                      13.60402                      70.36535
                      -8.20804                      15.82003                      66.94335
                      -8.64182                      18.03289                      63.51844
                      -9.06843                      20.24598                      60.09285
                      -9.48614                      22.45838                      56.66577
                      -9.89466                      24.67035                      53.23735
                     -10.29400                      26.88210                      49.80774
                     -10.68197                      29.09384                      46.37687
                     -10.99620                      30.93692                      43.51678
                     -11.24258                      32.40461                      41.22385
                     -11.48768                      33.82596                      38.90050
                     -11.60704                      34.57139                      37.76135
        </DataArray>
      </Points>
      <PointData>
        <DataArray type="Float32" Name="TranslationalVelocity" NumberOfComponents="3" format="ascii">
                       0.04022                       0.43672                       0.28604
                       0.06294                       0.83234                       0.54634
                       0.11073                       1.60508                       1.09375
                       0.15955                       2.36893                       1.65349
                       0.22106                       3.31828                       2.35997
                       0.29086                       4.48474                       3.16550
                       0.35684                       5.67535                       3.93226
                       0.42214                       6.86554                       4.69694
                       0.48662                       8.05570                       5.45919
                       0.55022                       9.24553                       6.21976
                       0.61290                      10.43440                       6.97992
                       0.67452                      11.62270                       7.73946
                       0.73496                      12.81054                       8.49858
                       0.79410                      13.99800                       9.25745
                       0.85184                      15.18515                      10.01621
                       0.89876                      16.17428                      10.64845
                       0.93531                      16.96694                      11.15189
                       0.96966                      17.76984                      11.63943
                       0.98763                      18.16341                      11.89508
        </DataArray>
        <DataArray type="Float32" Name="RotationalVelocity" NumberOfComponents="3" format="ascii">
                       0.34594                       0.00027                      -0.03060
                       0.34588                       0.00027                      -0.03059
                       0.34573                       0.00028                      -0.03057
                       0.34553                       0.00030                      -0.03053
                       0.34524                       0.00034                      -0.03047
                       0.34487                       0.00041                      -0.03040
                       0.34450                       0.00050                      -0.03031
                       0.34415                       0.00063                      -0.03023
                       0.34384                       0.00078                      -0.03014
                       0.34356                       0.00097                      -0.03005
                       0.34332                       0.00119                      -0.02995
                       0.34312                       0.00144                      -0.02984
                       0.34296                       0.00172                      -0.02973
                       0.34282                       0.00204                      -0.02960
                       0.34272                       0.00237                      -0.02947
                       0.34266                       0.00265                      -0.02936
                       0.34262                       0.00288                      -0.02928
                       0.34260                       0.00310                      -0.02920
                       0.34260                       0.00321                      -0.02917
        </DataArray>
        <DataArray type="Float32" Name="TranslationalAcceleration" NumberOfComponents="3" format="ascii">
                       0.04986                      -0.08385                       0.16586
                       0.02745                      -0.09865                       0.19754
                       0.07408                      -0.29080                       0.55988
                       0.11223                      -0.47263                       0.89004
                       0.15259                      -0.68740                       1.27328
                       0.19639                      -0.91473                       1.71436
                       0.24095                      -1.11925                       2.14929
                       0.29055                      -1.32060                       2.58232
                       0.34852                      -1.52150                       3.01929
                       0.41700                      -1.72309                       3.46184
                       0.49718                      -1.92535                       3.90871
                       0.58945                      -2.12692                       4.35722
                       0.69365                      -2.32639                       4.80408
                       0.80922                      -2.52275                       5.24662
                       0.93542                      -2.71599                       5.68391
                       1.04834                      -2.87566                       6.04548
                       1.14316                      -3.00274                       6.33535
                       1.24202                      -3.12556                       6.63098
                       1.29290                      -3.19279                       6.77902
        </DataArray>
        <DataArray type="Float32" Name="OrientationX" NumberOfComponents="3" format="ascii">
                       0.97645                       0.21569                       0.00490
                       0.97646                       0.21565                       0.00496
                       0.97649                       0.21552                       0.00516
                       0.97652                       0.21534                       0.00544
                       0.97659                       0.21503                       0.00591
                       0.98198                       0.18864                      -0.01120
                       0.98531                       0.16922                      -0.02310
                       0.98783                       0.15196                      -0.03312
                       0.99009                       0.13355                      -0.04350
                       0.99197                       0.11440                      -0.05392
                       0.99336                       0.09602                      -0.06337
                       0.99435                       0.07758                      -0.07245
                       0.99493                       0.06058                      -0.08022
                       0.99523                       0.04723                      -0.08537
                       0.99533                       0.03406                      -0.09037
                       0.99524                       0.02310                      -0.09466
                       0.99508                       0.01499                      -0.09790
                       0.99501                       0.01037                      -0.09920
                       0.99506                       0.01006                      -0.09872
        </DataArray>
        <DataArray type="Float32" Name="OrientationY" NumberOfComponents="3" format="ascii">
                       0.18126                      -0.80782                      -0.56086
                       0.18127                      -0.80789                      -0.56076
                       0.18131                      -0.80808                      -0.56048
                       0.18136                      -0.80830                      -0.56014
                       0.18144                      -0.80863                      -0.55964
                       0.15028                      -0.81548                      -0.55893
                       0.12775                      -0.82000                      -0.55792
                       0.10803                      -0.82360                      -0.55678
                       0.08714                      -0.82697                      -0.55546
                       0.06561                      -0.82996                      -0.55396
                       0.04521                      -0.83236                      -0.55238
                       0.02497                      -0.83433                      -0.55071
                       0.00662                      -0.83575                      -0.54907
                      -0.00728                      -0.83661                      -0.54775
                      -0.02097                      -0.83725                      -0.54641
                      -0.03242                      -0.83763                      -0.54527
                      -0.04094                      -0.83783                      -0.54439
                      -0.04549                      -0.83793                      -0.54388
                      -0.04548                      -0.83794                      -0.54386
        </DataArray>
        <DataArray type="Float32" Name="OrientationZ" NumberOfComponents="3" format="ascii">
                      -0.11701                       0.54854                      -0.82790
                      -0.11692                       0.54846                      -0.82797
                      -0.11663                       0.54824                      -0.82815
                      -0.11622                       0.54797                      -0.82838
                      -0.11556                       0.54761                      -0.82871
                      -0.11457                       0.54717                      -0.82914
                      -0.11335                       0.54677                      -0.82957
                      -0.11189                       0.54643                      -0.83000
                      -0.11015                       0.54616                      -0.83041
                      -0.10812                       0.54597                      -0.83080
                      -0.10579                       0.54585                      -0.83118
                      -0.10317                       0.54579                      -0.83155
                      -0.10031                       0.54576                      -0.83191
                      -0.09729                       0.54576                      -0.83227
                      -0.09427                       0.54576                      -0.83262
                      -0.09189                       0.54574                      -0.83290
                      -0.09018                       0.54572                      -0.83310
                      -0.08876                       0.54568                      -0.83328
                      -0.08819                       0.54566                      -0.83335
        </DataArray>
        <DataArray type="Float32" Name="Force" NumberOfComponents="3" format="ascii">
                       0.42452                       0.11182                       0.01409
                     122.00038                       4.64024                     -14.15375
                     147.70936                      -3.65182                     -23.22308
                     118.75797                     -12.01684                     -24.62532
                     881.87883                     273.70348                      58.30869
                     838.61411                     224.55778                      32.81828
                     880.30304                     217.75297                      23.87287
                     770.65063                     169.86112                       8.53142
                     708.70332                     129.76727                      -8.15490
                     723.39239                     118.26511                     -15.92561
                     662.19366                      83.20991                     -29.27441
                     664.43730                      72.08005                     -34.80377
                     600.15414                      63.42186                     -30.46266
                     643.11792                      77.08895                     -24.25745
                     696.84108                      91.24276                     -18.63578
                     744.55075                     100.54226                     -15.74594
                     755.15869                     103.31669                     -13.52451
                     568.67598                      81.31761                      -6.88482
                     242.18315                       5.18098                     -22.21720
        </DataArray>
        <DataArray type="Float32" Name="Moment" NumberOfComponents="3" format="ascii">
                       0.00000                       0.00000                       0.00000
                       0.00000                       0.00000                       0.00000
                       0.00000                       0.00000                       0.00000
                       0.00000                       0.00000                       0.00000
                      69.43013                    -329.74488                     497.75367
                      71.65789                    -343.36525                     518.37038
                      66.44761                    -321.91254                     486.04858
                      63.01551                    -309.36210                     467.17338
                      61.10302                    -304.77588                     460.33418
                      55.48432                    -282.01013                     426.04200
                      43.63389                    -226.71486                     342.59152
                      38.01954                    -202.59973                     306.23693
                      32.97231                    -180.74730                     273.28989
                      28.57954                    -161.54274                     244.33125
                      24.56934                    -143.34542                     216.87800
                      21.96636                    -131.50168                     199.00939
                      18.57035                    -113.28700                     171.47528
                       8.32334                     -51.59437                      78.10696
                       5.32687                     -33.23493                      50.31630
        </DataArray>
      </PointData>
      <Lines>
        <DataArray type="Int32" Name="connectivity" format="ascii">
      0      1
      1      2
      2      3
      3      4
      4      5
      5      6
      6      7
      7      8
      8      9
      9     10
     10     11
     11     12
     12     13
     13     14
     14     15
     15     16
     16     17
     17     18
        </DataArray>
        <DataArray type="Int32" Name="offsets" format="ascii">
      2
      4
      6
      8
     10
     12
     14
     16
     18
     20
     22
     24
     26
     28
     30
     32
     34
     36
        </DataArray>
      </Lines>
    </Piece>
  </PolyData>
</VTKFile>
