<?xml version="1.0"?>
<VTKFile type="PolyData" version="0.1" byte_order="LittleEndian">
  <PolyData>
    <Piece NumberOfPoints="     19" NumberOfVerts="  0" NumberOfLines="     18"
           NumberOfStrips="  0" NumberOfPolys="      0">
      <Points>
        <DataArray type="Float32" NumberOfComponents="3" format="ascii">
                      -5.05592                       1.35503                      89.37691
                      -5.16699                       2.59239                      88.80725
                      -5.40337                       5.10602                      87.75472
                      -5.64610                       7.63783                      86.74220
                      -5.95267                      10.81313                      85.49883
                      -6.27764                      14.56325                      83.86849
                      -6.58662                      18.25709                      82.11444
                      -6.89501                      21.94804                      80.35434
                      -7.19993                      25.63557                      78.58662
                      -7.50141                      29.32070                      76.81345
                      -7.79983                      33.00523                      75.03872
                      -8.09401                      36.68879                      73.26146
                      -8.38408                      40.37164                      71.48218
                      -8.67037                      44.05396                      69.70133
                      -8.95090                      47.73602                      67.91911
                      -9.18004                      50.80424                      66.43288
                      -9.36129                      53.25521                      65.23619
                      -9.54532                      55.68217                      63.98948
                      -9.63377                      56.91352                      63.40334
        </DataArray>
      </Points>
      <PointData>
        <DataArray type="Float32" Name="TranslationalVelocity" NumberOfComponents="3" format="ascii">
                       0.00042                       0.12193                       0.25890
                       0.02172                       0.23338                       0.49683
                       0.06495                       0.43979                       0.98008
                       0.10846                       0.63856                       1.46669
                       0.16298                       0.88272                       2.07674
                       0.22739                       1.20141                       2.79688
                       0.29085                       1.54342                       3.50584
                       0.35423                       1.88638                       4.21387
                       0.41757                       2.23058                       4.92090
                       0.48093                       2.57561                       5.62715
                       0.54437                       2.92075                       6.33302
                       0.60796                       3.26621                       7.03849
                       0.67174                       3.61190                       7.74364
                       0.73576                       3.95778                       8.44856
                       0.80006                       4.30378                       9.15330
                       0.85389                       4.59222                       9.74048
                       0.89706                       4.82439                      10.20947
                       0.93998                       5.06618                      10.67381
                       0.96178                       5.17988                      10.90938
        </DataArray>
        <DataArray type="Float32" Name="RotationalVelocity" NumberOfComponents="3" format="ascii">
                       0.19234                      -0.00040                      -0.01704
                       0.19233                      -0.00040                      -0.01703
                       0.19228                      -0.00040                      -0.01703
                       0.19222                      -0.00040                      -0.01702
                       0.19215                      -0.00040                      -0.01701
                       0.19204                      -0.00041                      -0.01700
                       0.19194                      -0.00041                      -0.01698
                       0.19184                      -0.00041                      -0.01698
                       0.19176                      -0.00042                      -0.01698
                       0.19168                      -0.00044                      -0.01699
                       0.19162                      -0.00046                      -0.01702
                       0.19157                      -0.00048                      -0.01705
                       0.19152                      -0.00052                      -0.01710
                       0.19149                      -0.00056                      -0.01715
                       0.19145                      -0.00061                      -0.01721
                       0.19143                      -0.00065                      -0.01726
                       0.19142                      -0.00068                      -0.01729
                       0.19141                      -0.00071                      -0.01733
                       0.19141                      -0.00072                      -0.01734
        </DataArray>
        <DataArray type="Float32" Name="TranslationalAcceleration" NumberOfComponents="3" format="ascii">
                      -0.06088                      -0.04244                       0.03095
                      -0.01480                      -0.05336                       0.04207
                      -0.03451                      -0.15477                       0.11866
                      -0.04346                      -0.24999                       0.18829
                      -0.04442                      -0.36248                       0.26946
                      -0.03586                      -0.48699                       0.36598
                      -0.02266                      -0.60467                       0.46379
                      -0.00933                      -0.72184                       0.56114
                       0.00202                      -0.84007                       0.65920
                       0.01065                      -0.95992                       0.75828
                       0.01682                      -1.08119                       0.85808
                       0.02143                      -1.20313                       0.95817
                       0.02558                      -1.32489                       1.05796
                       0.03016                      -1.44579                       1.15697
                       0.03550                      -1.56558                       1.25504
                       0.04006                      -1.66494                       1.33625
                       0.04315                      -1.74439                       1.40157
                       0.04489                      -1.82341                       1.46919
                       0.04463                      -1.86451                       1.50224
        </DataArray>
        <DataArray type="Float32" Name="OrientationX" NumberOfComponents="3" format="ascii">
                       0.98522                       0.13623                       0.10382
                       0.98523                       0.13620                       0.10383
                       0.98523                       0.13612                       0.10387
                       0.98524                       0.13599                       0.10394
                       0.98526                       0.13578                       0.10405
                       0.98961                       0.12239                       0.07546
                       0.99214                       0.11240                       0.05493
                       0.99395                       0.10341                       0.03711
                       0.99543                       0.09373                       0.01835
                       0.99650                       0.08358                      -0.00086
                       0.99710                       0.07372                      -0.01888
                       0.99729                       0.06375                      -0.03662
                       0.99713                       0.05446                      -0.05253
                       0.99682                       0.04701                      -0.06431
                       0.99633                       0.03965                      -0.07585
                       0.99577                       0.03356                      -0.08553
                       0.99527                       0.02907                      -0.09272
                       0.99499                       0.02645                      -0.09640
                       0.99502                       0.02621                      -0.09621
        </DataArray>
        <DataArray type="Float32" Name="OrientationY" NumberOfComponents="3" format="ascii">
                       0.15097                      -0.40439                      -0.90204
                       0.15098                      -0.40456                      -0.90196
                       0.15103                      -0.40501                      -0.90175
                       0.15108                      -0.40557                      -0.90149
                       0.15117                      -0.40637                      -0.90112
                       0.11978                      -0.41150                      -0.90350
                       0.09712                      -0.41521                      -0.90453
                       0.07731                      -0.41831                      -0.90501
                       0.05635                      -0.42125                      -0.90519
                       0.03477                      -0.42391                      -0.90504
                       0.01438                      -0.42614                      -0.90454
                      -0.00583                      -0.42804                      -0.90374
                      -0.02410                      -0.42953                      -0.90273
                      -0.03787                      -0.43055                      -0.90177
                      -0.05141                      -0.43140                      -0.90070
                      -0.06271                      -0.43198                      -0.89970
                      -0.07111                      -0.43235                      -0.89890
                      -0.07554                      -0.43256                      -0.89844
                      -0.07547                      -0.43258                      -0.89843
        </DataArray>
        <DataArray type="Float32" Name="OrientationZ" NumberOfComponents="3" format="ascii">
                      -0.08091                       0.90438                      -0.41898
                      -0.08084                       0.90431                      -0.41915
                      -0.08067                       0.90412                      -0.41958
                      -0.08044                       0.90389                      -0.42013
                      -0.08007                       0.90356                      -0.42090
                      -0.07953                       0.90315                      -0.42189
                      -0.07886                       0.90276                      -0.42286
                      -0.07806                       0.90240                      -0.42378
                      -0.07711                       0.90209                      -0.42460
                      -0.07600                       0.90184                      -0.42533
                      -0.07473                       0.90165                      -0.42596
                      -0.07329                       0.90151                      -0.42651
                      -0.07173                       0.90141                      -0.42699
                      -0.07008                       0.90134                      -0.42741
                      -0.06844                       0.90129                      -0.42778
                      -0.06714                       0.90126                      -0.42805
                      -0.06622                       0.90124                      -0.42824
                      -0.06546                       0.90122                      -0.42839
                      -0.06516                       0.90121                      -0.42845
        </DataArray>
        <DataArray type="Float32" Name="Force" NumberOfComponents="3" format="ascii">
                     153.33837                       9.77687                      -8.50599
                     147.63257                       8.67616                      -9.75356
                     165.27875                       7.75395                     -15.06521
                     127.84032                       3.02262                     -17.98732
                     783.07571                     141.66994                     156.41713
                     735.15852                     117.00245                     113.40962
                     732.43436                     108.99229                      97.93424
                     637.07043                      86.17970                      67.89940
                     561.74797                      66.17556                      40.05049
                     545.93367                      58.70639                      28.34312
                     499.14041                      44.27879                       7.22744
                     484.50563                      38.29967                      -1.37373
                     412.65678                      26.51600                     -12.74933
                     394.61776                      22.40216                     -16.97995
                     375.33119                      18.51295                     -20.67029
                     357.73336                      15.38595                     -23.44252
                     332.73174                      12.82885                     -24.25169
                     233.21384                       8.43408                     -17.77041
                     235.99292                       8.44886                     -17.99595
        </DataArray>
        <DataArray type="Float32" Name="Moment" NumberOfComponents="3" format="ascii">
                       0.00000                       0.00000                       0.00000
                       0.00000                       0.00000                       0.00000
                       0.00000                       0.00000                       0.00000
                       0.00000                       0.00000                       0.00000
                      54.63541                    -618.34669                     286.52537
                      54.37818                    -620.32614                     287.48087
                      48.95838                    -563.82703                     261.33857
                      44.55809                    -518.93305                     240.57431
                      39.06900                    -461.02732                     213.77535
                      34.14203                    -409.10946                     189.74808
                      27.10285                    -330.55331                     153.35595
                      23.52578                    -292.73740                     135.85395
                      19.97408                    -254.12395                     117.97390
                      16.91421                    -220.37505                     102.34246
                      14.13625                    -188.71266                      87.66921
                      12.03260                    -163.79534                      76.11451
                       9.87946                    -136.39513                      63.39426
                       4.61169                     -64.42174                      29.94702
                       4.62020                     -64.84310                      30.14481
        </DataArray>
      </PointData>
      <Lines>
        <DataArray type="Int32" Name="connectivity" format="ascii">
      0      1
      1      2
      2      3
      3      4
      4      5
      5      6
      6      7
      7      8
      8      9
      9     10
     10     11
     11     12
     12     13
     13     14
     14     15
     15     16
     16     17
     17     18
        </DataArray>
        <DataArray type="Int32" Name="offsets" format="ascii">
      2
      4
      6
      8
     10
     12
     14
     16
     18
     20
     22
     24
     26
     28
     30
     32
     34
     36
        </DataArray>
      </Lines>
    </Piece>
  </PolyData>
</VTKFile>
