<?xml version="1.0"?>
<VTKFile type="PolyData" version="0.1" byte_order="LittleEndian">
  <PolyData>
    <Piece NumberOfPoints="     19" NumberOfVerts="  0" NumberOfLines="     18"
           NumberOfStrips="  0" NumberOfPolys="      0">
      <Points>
        <DataArray type="Float32" NumberOfComponents="3" format="ascii">
                      -5.10901                       1.09400                      88.99023
                      -5.25087                       2.09383                      88.06928
                      -5.55020                       4.15683                      86.29825
                      -5.85641                       6.24942                      84.56000
                      -6.24245                       8.88222                      82.40554
                      -6.66005                      11.94362                      79.70737
                      -7.05895                      14.91465                      76.90916
                      -7.45636                      17.88175                      74.10663
                      -7.84925                      20.84397                      71.29835
                      -8.23753                      23.80290                      68.48604
                      -8.62155                      26.76134                      65.67274
                      -8.99999                      29.71864                      62.85756
                      -9.37289                      32.67507                      60.04081
                      -9.74053                      35.63091                      57.22281
                     -10.10087                      38.58642                      54.40359
                     -10.39534                      41.04915                      52.05329
                     -10.62800                      43.01367                      50.16682
                     -10.86193                      44.94010                      48.24005
                     -10.97573                      45.93179                      47.30666
        </DataArray>
      </Points>
      <PointData>
        <DataArray type="Float32" Name="TranslationalVelocity" NumberOfComponents="3" format="ascii">
                       0.04529                       0.27713                       0.29687
                       0.06875                       0.52867                       0.56634
                       0.11717                       1.01288                       1.12221
                       0.16627                       1.48822                       1.68579
                       0.22797                       2.07721                       2.39443
                       0.29950                       2.81274                       3.21777
                       0.36867                       3.57408                       4.01613
                       0.43754                       4.33590                       4.81278
                       0.50609                       5.09854                       5.60753
                       0.57438                       5.86160                       6.40087
                       0.64249                       6.62437                       7.19363
                       0.71044                       7.38713                       7.98572
                       0.77828                       8.14989                       8.77731
                       0.84606                       8.91264                       9.56852
                       0.91384                       9.67538                      10.35948
                       0.97036                      10.31101                      11.01844
                       1.01549                      10.82105                      11.54402
                       1.05977                      11.34184                      12.05932
                       1.08262                      11.59410                      12.32455
        </DataArray>
        <DataArray type="Float32" Name="RotationalVelocity" NumberOfComponents="3" format="ascii">
                       0.26951                       0.00035                      -0.02378
                       0.26947                       0.00035                      -0.02378
                       0.26937                       0.00035                      -0.02376
                       0.26925                       0.00035                      -0.02374
                       0.26908                       0.00035                      -0.02371
                       0.26885                       0.00037                      -0.02367
                       0.26863                       0.00039                      -0.02362
                       0.26842                       0.00041                      -0.02357
                       0.26823                       0.00044                      -0.02353
                       0.26806                       0.00046                      -0.02349
                       0.26793                       0.00048                      -0.02346
                       0.26781                       0.00050                      -0.02344
                       0.26772                       0.00051                      -0.02342
                       0.26764                       0.00051                      -0.02342
                       0.26758                       0.00050                      -0.02342
                       0.26755                       0.00048                      -0.02342
                       0.26752                       0.00046                      -0.02343
                       0.26750                       0.00044                      -0.02344
                       0.26750                       0.00043                      -0.02344
        </DataArray>
        <DataArray type="Float32" Name="TranslationalAcceleration" NumberOfComponents="3" format="ascii">
                       0.05261                      -0.07002                       0.09044
                       0.02209                      -0.08406                       0.10548
                       0.05727                      -0.24507                       0.29727
                       0.08302                      -0.39619                       0.47079
                       0.10656                      -0.57428                       0.67134
                       0.12789                      -0.76801                       0.90417
                       0.14692                      -0.94792                       1.13596
                       0.16700                      -1.12630                       1.36692
                       0.19029                      -1.30555                       1.60030
                       0.21771                      -1.48659                       1.83698
                       0.24930                      -1.66926                       2.07624
                       0.28452                      -1.85236                       2.31668
                       0.32262                      -2.03460                       2.55649
                       0.36296                      -2.21494                       2.79422
                       0.40530                      -2.39314                       3.02930
                       0.44252                      -2.54062                       3.22377
                       0.47405                      -2.65830                       3.37990
                       0.50805                      -2.77413                       3.54020
                       0.52615                      -2.83542                       3.61974
        </DataArray>
        <DataArray type="Float32" Name="OrientationX" NumberOfComponents="3" format="ascii">
                       0.98069                       0.18818                       0.05321
                       0.98070                       0.18814                       0.05324
                       0.98071                       0.18804                       0.05335
                       0.98073                       0.18788                       0.05350
                       0.98077                       0.18763                       0.05375
                       0.98563                       0.16611                       0.03071
                       0.98855                       0.15024                       0.01434
                       0.99069                       0.13611                       0.00026
                       0.99254                       0.12102                      -0.01450
                       0.99400                       0.10530                      -0.02951
                       0.99497                       0.09020                      -0.04347
                       0.99554                       0.07505                      -0.05711
                       0.99573                       0.06108                      -0.06920
                       0.99570                       0.05011                      -0.07790
                       0.99548                       0.03929                      -0.08641
                       0.99515                       0.03031                      -0.09358
                       0.99481                       0.02366                      -0.09894
                       0.99463                       0.01988                      -0.10154
                       0.99467                       0.01964                      -0.10125
        </DataArray>
        <DataArray type="Float32" Name="OrientationY" NumberOfComponents="3" format="ascii">
                       0.16598                      -0.65709                      -0.73531
                       0.16600                      -0.65720                      -0.73520
                       0.16604                      -0.65751                      -0.73492
                       0.16610                      -0.65789                      -0.73457
                       0.16619                      -0.65843                      -0.73407
                       0.13493                      -0.66476                      -0.73477
                       0.11235                      -0.66907                      -0.73465
                       0.09260                      -0.67258                      -0.73421
                       0.07169                      -0.67587                      -0.73352
                       0.05016                      -0.67883                      -0.73258
                       0.02980                      -0.68125                      -0.73144
                       0.00962                      -0.68327                      -0.73010
                      -0.00863                      -0.68479                      -0.72869
                      -0.02240                      -0.68577                      -0.72747
                      -0.03594                      -0.68655                      -0.72619
                      -0.04726                      -0.68705                      -0.72507
                      -0.05568                      -0.68735                      -0.72419
                      -0.06014                      -0.68750                      -0.72369
                      -0.06009                      -0.68752                      -0.72367
        </DataArray>
        <DataArray type="Float32" Name="OrientationZ" NumberOfComponents="3" format="ascii">
                      -0.10340                       0.72995                      -0.67564
                      -0.10333                       0.72985                      -0.67575
                      -0.10312                       0.72961                      -0.67605
                      -0.10282                       0.72930                      -0.67642
                      -0.10234                       0.72888                      -0.67695
                      -0.10164                       0.72836                      -0.67762
                      -0.10078                       0.72785                      -0.67829
                      -0.09976                       0.72740                      -0.67893
                      -0.09857                       0.72701                      -0.67951
                      -0.09718                       0.72671                      -0.68004
                      -0.09559                       0.72647                      -0.68052
                      -0.09382                       0.72630                      -0.68095
                      -0.09190                       0.72618                      -0.68134
                      -0.08988                       0.72609                      -0.68170
                      -0.08786                       0.72602                      -0.68204
                      -0.08627                       0.72597                      -0.68229
                      -0.08514                       0.72594                      -0.68247
                      -0.08420                       0.72591                      -0.68262
                      -0.08382                       0.72590                      -0.68268
        </DataArray>
        <DataArray type="Float32" Name="Force" NumberOfComponents="3" format="ascii">
                      52.05734                       3.85710                      -3.80007
                     130.91906                       8.17954                     -11.18351
                     156.43505                       3.40949                     -20.18261
                     123.31371                      -3.86718                     -22.92974
                     836.69762                     219.70704                     110.74314
                     785.16970                     179.37707                      75.84984
                     802.21700                     170.08556                      64.32811
                     697.22013                     132.54215                      40.50092
                     615.16851                      99.43804                      17.95725
                     613.16517                      89.22305                       8.51126
                     563.79502                      64.93341                      -9.28957
                     558.84814                      55.52755                     -17.25587
                     475.02989                      35.85994                     -25.52995
                     465.64228                      30.04506                     -29.12505
                     454.67520                      24.52434                     -32.25678
                     443.84021                      20.43342                     -34.21375
                     426.22447                      19.62837                     -32.12723
                     307.02863                      15.96631                     -20.74237
                     350.73091                      49.06028                       9.71334
        </DataArray>
        <DataArray type="Float32" Name="Moment" NumberOfComponents="3" format="ascii">
                       0.00000                       0.00000                       0.00000
                       0.00000                       0.00000                       0.00000
                       0.00000                       0.00000                       0.00000
                       0.00000                       0.00000                       0.00000
                      65.77236                    -469.60210                     434.72953
                      66.17868                    -476.04338                     440.73624
                      60.23588                    -437.22053                     404.84094
                      55.80830                    -409.43343                     379.16457
                      49.81908                    -370.10917                     342.80301
                      44.41353                    -334.80951                     310.16542
                      35.63264                    -273.17414                     253.12016
                      31.54979                    -246.52465                     228.48056
                      27.33483                    -218.13306                     202.21837
                      23.63154                    -192.87273                     178.84846
                      20.23781                    -169.01230                     156.76447
                      17.63935                    -150.05541                     139.21032
                      14.70212                    -126.75259                     117.60914
                       6.78829                     -59.18540                      54.92276
                       3.58809                     -31.42513                      29.16327
        </DataArray>
      </PointData>
      <Lines>
        <DataArray type="Int32" Name="connectivity" format="ascii">
      0      1
      1      2
      2      3
      3      4
      4      5
      5      6
      6      7
      7      8
      8      9
      9     10
     10     11
     11     12
     12     13
     13     14
     14     15
     15     16
     16     17
     17     18
        </DataArray>
        <DataArray type="Int32" Name="offsets" format="ascii">
      2
      4
      6
      8
     10
     12
     14
     16
     18
     20
     22
     24
     26
     28
     30
     32
     34
     36
        </DataArray>
      </Lines>
    </Piece>
  </PolyData>
</VTKFile>
