<?xml version="1.0"?>
<VTKFile type="PolyData" version="0.1" byte_order="LittleEndian">
  <PolyData>
    <Piece NumberOfPoints="     22" NumberOfVerts="  0" NumberOfLines="     21"
           NumberOfStrips="  0" NumberOfPolys="      0">
      <Points>
        <DataArray type="Float32" NumberOfComponents="3" format="ascii">
                       0.00004                      -0.00000                       2.19000
                       0.00037                      -0.00001                       6.57000
                       0.00111                      -0.00002                      10.95000
                       0.00227                      -0.00004                      15.33000
                       0.00385                      -0.00006                      19.71000
                       0.00583                      -0.00009                      24.09000
                       0.00819                      -0.00013                      28.47000
                       0.01090                      -0.00017                      32.85000
                       0.01394                      -0.00022                      37.23000
                       0.01730                      -0.00028                      41.61000
                       0.02096                      -0.00034                      45.98999
                       0.02494                      -0.00042                      50.36999
                       0.02923                      -0.00051                      54.74999
                       0.03385                      -0.00060                      59.12999
                       0.03879                      -0.00071                      63.50998
                       0.04404                      -0.00083                      67.88998
                       0.04957                      -0.00096                      72.26998
                       0.05528                      -0.00110                      76.64997
                       0.06105                      -0.00125                      81.02997
                       0.06667                      -0.00140                      85.40997
                       0.06934                      -0.00148                      87.59997
                       0.00000                       0.00000                       0.00000
        </DataArray>
      </Points>
      <PointData>
        <DataArray type="Float32" Name="TranslationalVelocity" NumberOfComponents="3" format="ascii">
                      -0.00001                      -0.00000                       0.00000
                      -0.00009                      -0.00000                       0.00000
                      -0.00027                      -0.00001                       0.00000
                      -0.00054                      -0.00002                       0.00000
                      -0.00091                      -0.00003                       0.00000
                      -0.00136                      -0.00004                       0.00000
                      -0.00188                      -0.00005                       0.00000
                      -0.00246                      -0.00007                       0.00000
                      -0.00310                      -0.00008                       0.00000
                      -0.00377                      -0.00010                       0.00000
                      -0.00448                      -0.00012                       0.00000
                      -0.00521                      -0.00014                       0.00000
                      -0.00596                      -0.00016                       0.00000
                      -0.00672                      -0.00019                       0.00000
                      -0.00751                      -0.00021                       0.00001
                      -0.00830                      -0.00024                       0.00001
                      -0.00909                      -0.00027                       0.00001
                      -0.00987                      -0.00029                       0.00001
                      -0.01063                      -0.00032                       0.00001
                      -0.01133                      -0.00035                       0.00001
                      -0.01165                      -0.00036                       0.00001
                       0.00000                      -0.00000                       0.00000
        </DataArray>
        <DataArray type="Float32" Name="RotationalVelocity" NumberOfComponents="3" format="ascii">
                       0.00000                      -0.00001                       0.00000
                       0.00000                      -0.00003                       0.00000
                       0.00000                      -0.00005                       0.00000
                       0.00000                      -0.00007                       0.00000
                       0.00000                      -0.00009                       0.00000
                       0.00000                      -0.00011                       0.00000
                       0.00000                      -0.00013                       0.00000
                       0.00000                      -0.00014                       0.00000
                       0.00000                      -0.00015                       0.00000
                       0.00000                      -0.00016                       0.00000
                       0.00000                      -0.00016                       0.00000
                       0.00001                      -0.00017                       0.00000
                       0.00001                      -0.00017                       0.00000
                       0.00001                      -0.00018                       0.00000
                       0.00001                      -0.00018                       0.00000
                       0.00001                      -0.00018                       0.00000
                       0.00001                      -0.00018                       0.00000
                       0.00001                      -0.00018                       0.00000
                       0.00001                      -0.00017                       0.00000
                       0.00001                      -0.00015                       0.00000
                       0.00001                      -0.00014                       0.00000
                       0.00000                      -0.00000                       0.00000
        </DataArray>
        <DataArray type="Float32" Name="TranslationalAcceleration" NumberOfComponents="3" format="ascii">
                      -0.00029                      -0.00003                       0.00000
                      -0.00270                      -0.00027                       0.00000
                      -0.00766                      -0.00069                       0.00000
                      -0.01509                      -0.00126                       0.00000
                      -0.02472                      -0.00194                       0.00001
                      -0.03615                      -0.00270                       0.00001
                      -0.04890                      -0.00349                       0.00002
                      -0.06240                      -0.00429                       0.00003
                      -0.07609                      -0.00505                       0.00004
                      -0.08941                      -0.00572                       0.00005
                      -0.10184                      -0.00627                       0.00006
                      -0.11290                      -0.00663                       0.00007
                      -0.12218                      -0.00677                       0.00008
                      -0.12938                      -0.00663                       0.00008
                      -0.13424                      -0.00619                       0.00009
                      -0.13662                      -0.00541                       0.00009
                      -0.13646                      -0.00427                       0.00009
                      -0.13376                      -0.00279                       0.00009
                      -0.12860                      -0.00100                       0.00008
                      -0.12109                       0.00104                       0.00007
                      -0.11650                       0.00211                       0.00006
                       0.00000                      -0.00000                       0.00000
        </DataArray>
        <DataArray type="Float32" Name="RotationalAcceleration" NumberOfComponents="3" format="ascii">
                       0.00003                      -0.00027                       0.00000
                       0.00008                      -0.00084                       0.00000
                       0.00011                      -0.00142                       0.00000
                       0.00014                      -0.00196                       0.00000
                       0.00017                      -0.00242                       0.00000
                       0.00018                      -0.00278                       0.00000
                       0.00018                      -0.00302                       0.00000
                       0.00018                      -0.00313                       0.00000
                       0.00017                      -0.00310                       0.00000
                       0.00014                      -0.00296                       0.00000
                       0.00011                      -0.00270                       0.00000
                       0.00006                      -0.00234                       0.00000
                       0.00000                      -0.00189                       0.00000
                      -0.00006                      -0.00138                       0.00000
                      -0.00014                      -0.00083                       0.00000
                      -0.00022                      -0.00025                       0.00000
                      -0.00030                       0.00033                       0.00000
                      -0.00038                       0.00090                       0.00000
                      -0.00044                       0.00145                       0.00000
                      -0.00049                       0.00197                       0.00000
                      -0.00050                       0.00222                       0.00000
                       0.00000                      -0.00000                       0.00000
        </DataArray>
        <DataArray type="Float32" Name="OrientationX" NumberOfComponents="3" format="ascii">
                       1.00000                       0.00000                      -0.00004
                       1.00000                       0.00000                      -0.00012
                       1.00000                       0.00000                      -0.00022
                       1.00000                       0.00000                      -0.00031
                       1.00000                       0.00000                      -0.00041
                       1.00000                       0.00000                      -0.00050
                       1.00000                       0.00000                      -0.00058
                       1.00000                       0.00000                      -0.00066
                       1.00000                       0.00000                      -0.00073
                       1.00000                       0.00000                      -0.00080
                       1.00000                       0.00000                      -0.00087
                       1.00000                       0.00000                      -0.00094
                       1.00000                       0.00000                      -0.00102
                       1.00000                       0.00000                      -0.00109
                       1.00000                       0.00000                      -0.00117
                       1.00000                       0.00000                      -0.00123
                       1.00000                       0.00000                      -0.00129
                       1.00000                       0.00000                      -0.00132
                       1.00000                       0.00000                      -0.00131
                       1.00000                       0.00000                      -0.00125
                       1.00000                       0.00000                      -0.00119
                       1.00000                      -0.00000                       0.00000
        </DataArray>
        <DataArray type="Float32" Name="OrientationY" NumberOfComponents="3" format="ascii">
                       0.00000                       1.00000                       0.00000
                       0.00000                       1.00000                       0.00000
                       0.00000                       1.00000                       0.00000
                       0.00000                       1.00000                       0.00000
                       0.00000                       1.00000                       0.00001
                       0.00000                       1.00000                       0.00001
                       0.00000                       1.00000                       0.00001
                       0.00000                       1.00000                       0.00001
                       0.00000                       1.00000                       0.00001
                       0.00000                       1.00000                       0.00001
                       0.00000                       1.00000                       0.00002
                       0.00000                       1.00000                       0.00002
                       0.00000                       1.00000                       0.00002
                       0.00000                       1.00000                       0.00002
                       0.00000                       1.00000                       0.00003
                       0.00000                       1.00000                       0.00003
                       0.00000                       1.00000                       0.00003
                       0.00000                       1.00000                       0.00003
                       0.00000                       1.00000                       0.00003
                       0.00000                       1.00000                       0.00004
                       0.00000                       1.00000                       0.00004
                      -0.00000                       1.00000                      -0.00000
        </DataArray>
        <DataArray type="Float32" Name="OrientationZ" NumberOfComponents="3" format="ascii">
                       0.00004                      -0.00000                       1.00000
                       0.00012                      -0.00000                       1.00000
                       0.00022                      -0.00000                       1.00000
                       0.00031                      -0.00000                       1.00000
                       0.00041                      -0.00001                       1.00000
                       0.00050                      -0.00001                       1.00000
                       0.00058                      -0.00001                       1.00000
                       0.00066                      -0.00001                       1.00000
                       0.00073                      -0.00001                       1.00000
                       0.00080                      -0.00001                       1.00000
                       0.00087                      -0.00002                       1.00000
                       0.00094                      -0.00002                       1.00000
                       0.00102                      -0.00002                       1.00000
                       0.00109                      -0.00002                       1.00000
                       0.00117                      -0.00003                       1.00000
                       0.00123                      -0.00003                       1.00000
                       0.00129                      -0.00003                       1.00000
                       0.00132                      -0.00003                       1.00000
                       0.00131                      -0.00003                       1.00000
                       0.00125                      -0.00004                       1.00000
                       0.00119                      -0.00004                       1.00000
                       0.00000                      -0.00000                       1.00000
        </DataArray>
      </PointData>
      <Lines>
        <DataArray type="Int32" Name="connectivity" format="ascii">
      0      1
      1      2
      2      3
      3      4
      4      5
      5      6
      6      7
      7      8
      8      9
      9     10
     10     11
     11     12
     12     13
     13     14
     14     15
     15     16
     16     17
     17     18
     18     19
     19     20
     21      0
        </DataArray>
        <DataArray type="Int32" Name="offsets" format="ascii">
      2
      4
      6
      8
     10
     12
     14
     16
     18
     20
     22
     24
     26
     28
     30
     32
     34
     36
     38
     40
     42
        </DataArray>
      </Lines>
    </Piece>
  </PolyData>
</VTKFile>
