<?xml version="1.0"?>
<VTKFile type="PolyData" version="0.1" byte_order="LittleEndian">
  <PolyData>
    <Piece NumberOfPoints="     19" NumberOfVerts="  0" NumberOfLines="     18"
           NumberOfStrips="  0" NumberOfPolys="      0">
      <Points>
        <DataArray type="Float32" NumberOfComponents="3" format="ascii">
                      -5.10238                       0.23310                      88.53946
                      -5.28214                       0.45026                      87.20212
                      -5.66141                       0.97781                      84.54504
                      -6.04897                       1.54944                      81.89605
                      -6.53653                       2.29029                      78.58921
                      -7.06608                       3.03831                      74.59112
                      -7.56644                       3.65823                      70.56877
                      -8.05986                       4.27601                      66.54523
                      -8.54186                       4.89014                      62.51974
                      -9.01105                       5.50272                      58.49250
                      -9.46660                       6.11755                      54.46407
                      -9.90589                       6.73327                      50.43399
                     -10.32798                       7.34991                      46.40221
                     -10.73244                       7.96745                      42.36876
                     -11.11693                       8.58579                      38.33349
                     -11.42171                       9.10145                      34.96938
                     -11.65644                       9.50621                      32.27616
                     -11.88503                       9.85647                      29.57375
                     -11.99633                      10.07262                      28.22901
        </DataArray>
      </Points>
      <PointData>
        <DataArray type="Float32" Name="TranslationalVelocity" NumberOfComponents="3" format="ascii">
                       0.01579                       0.63820                       0.10178
                       0.02402                       1.22201                       0.19548
                       0.04423                       2.38234                       0.42297
                       0.06639                       3.53886                       0.66926
                       0.09555                       4.98170                       0.98809
                       0.12593                       6.72228                       1.30947
                       0.15246                       8.47043                       1.57532
                       0.18018                      10.21713                       1.83986
                       0.20919                      11.96271                       2.10247
                       0.23974                      13.70721                       2.36410
                       0.27212                      15.45062                       2.62639
                       0.30635                      17.19326                       2.88879
                       0.34251                      18.93532                       3.15137
                       0.38059                      20.67696                       3.41413
                       0.42053                      22.41824                       3.67709
                       0.45517                      23.86903                       3.89629
                       0.48333                      25.02992                       4.06829
                       0.50997                      26.19425                       4.21693
                       0.52509                      26.77341                       4.30879
        </DataArray>
        <DataArray type="Float32" Name="RotationalVelocity" NumberOfComponents="3" format="ascii">
                       0.43146                       0.00011                      -0.03844
                       0.43138                       0.00008                      -0.03843
                       0.43118                       0.00000                      -0.03842
                       0.43093                      -0.00010                      -0.03841
                       0.43058                      -0.00027                      -0.03841
                       0.43014                      -0.00050                      -0.03843
                       0.42971                      -0.00078                      -0.03847
                       0.42931                      -0.00109                      -0.03855
                       0.42896                      -0.00144                      -0.03865
                       0.42866                      -0.00182                      -0.03879
                       0.42841                      -0.00223                      -0.03895
                       0.42821                      -0.00267                      -0.03912
                       0.42804                      -0.00313                      -0.03930
                       0.42790                      -0.00358                      -0.03947
                       0.42779                      -0.00401                      -0.03962
                       0.42771                      -0.00433                      -0.03970
                       0.42766                      -0.00453                      -0.03974
                       0.42762                      -0.00469                      -0.03974
                       0.42761                      -0.00474                      -0.03972
        </DataArray>
        <DataArray type="Float32" Name="TranslationalAcceleration" NumberOfComponents="3" format="ascii">
                      -0.00668                      -0.00361                       0.27856
                       0.02218                      -0.00652                       0.34031
                       0.06878                      -0.03489                       0.97298
                       0.11859                      -0.07143                       1.55524
                       0.18576                      -0.12049                       2.23472
                       0.27416                      -0.15089                       3.00462
                       0.37247                      -0.15496                       3.75110
                       0.48267                      -0.15735                       4.49253
                       0.60664                      -0.15786                       5.23877
                       0.74617                      -0.15689                       5.99299
                       0.90274                      -0.15509                       6.75357
                       1.07739                      -0.15217                       7.51619
                       1.27055                      -0.14819                       8.27566
                       1.48185                      -0.14333                       9.02781
                       1.71001                      -0.13791                       9.77147
                       1.91158                      -0.13345                      10.38703
                       2.07853                      -0.12839                      10.88027
                       2.24986                      -0.11322                      11.37907
                       2.33607                      -0.11354                      11.63244
        </DataArray>
        <DataArray type="Float32" Name="OrientationX" NumberOfComponents="3" format="ascii">
                       0.96786                       0.23400                      -0.09214
                       0.96788                       0.23398                      -0.09201
                       0.96793                       0.23391                      -0.09160
                       0.96801                       0.23381                      -0.09101
                       0.96814                       0.23364                      -0.09004
                       0.97470                       0.20266                      -0.09425
                       0.97892                       0.18005                      -0.09638
                       0.98227                       0.16010                      -0.09751
                       0.98542                       0.13886                      -0.09829
                       0.98824                       0.11683                      -0.09861
                       0.99055                       0.09575                      -0.09816
                       0.99247                       0.07465                      -0.09715
                       0.99390                       0.05527                      -0.09539
                       0.99489                       0.04019                      -0.09266
                       0.99563                       0.02529                      -0.08991
                       0.99605                       0.01288                      -0.08788
                       0.99624                       0.00369                      -0.08653
                       0.99637                      -0.00143                      -0.08507
                       0.99645                      -0.00165                      -0.08422
        </DataArray>
        <DataArray type="Float32" Name="OrientationY" NumberOfComponents="3" format="ascii">
                       0.21466                      -0.95957                      -0.18206
                       0.21467                      -0.95958                      -0.18201
                       0.21468                      -0.95960                      -0.18186
                       0.21470                      -0.95963                      -0.18168
                       0.21473                      -0.95968                      -0.18141
                       0.18377                      -0.96669                      -0.17814
                       0.16133                      -0.97115                      -0.17564
                       0.14164                      -0.97461                      -0.17341
                       0.12073                      -0.97783                      -0.17109
                       0.09909                      -0.98067                      -0.16873
                       0.07851                      -0.98291                      -0.16653
                       0.05797                      -0.98469                      -0.16442
                       0.03922                      -0.98592                      -0.16256
                       0.02484                      -0.98661                      -0.16119
                       0.01064                      -0.98708                      -0.15989
                      -0.00124                      -0.98731                      -0.15883
                      -0.01007                      -0.98738                      -0.15804
                      -0.01487                      -0.98739                      -0.15758
                      -0.01495                      -0.98740                      -0.15753
        </DataArray>
        <DataArray type="Float32" Name="OrientationZ" NumberOfComponents="3" format="ascii">
                      -0.13101                       0.15644                      -0.97896
                      -0.13087                       0.15641                      -0.97898
                      -0.13044                       0.15636                      -0.97905
                      -0.12981                       0.15632                      -0.97914
                      -0.12879                       0.15630                      -0.97928
                      -0.12721                       0.15631                      -0.97948
                      -0.12522                       0.15639                      -0.97973
                      -0.12280                       0.15653                      -0.98001
                      -0.11987                       0.15673                      -0.98034
                      -0.11642                       0.15698                      -0.98072
                      -0.11243                       0.15726                      -0.98114
                      -0.10794                       0.15755                      -0.98160
                      -0.10303                       0.15782                      -0.98208
                      -0.09790                       0.15806                      -0.98256
                      -0.09279                       0.15823                      -0.98303
                      -0.08881                       0.15831                      -0.98339
                      -0.08602                       0.15832                      -0.98363
                      -0.08377                       0.15827                      -0.98384
                      -0.08290                       0.15823                      -0.98392
        </DataArray>
        <DataArray type="Float32" Name="Force" NumberOfComponents="3" format="ascii">
                      -0.00258                      -0.18376                      -0.02902
                     114.65629                      -8.51849                     -16.68863
                     130.99768                     -22.01624                     -20.97069
                     104.15708                     -27.70454                     -18.23563
                     835.47819                     293.26310                     -63.02659
                     814.11924                     244.56542                     -66.66808
                     904.80693                     249.84151                     -75.74714
                     812.21647                     197.32007                     -70.26332
                     742.65888                     150.21439                     -66.82970
                     799.12274                     155.59507                     -70.03154
                     810.06382                     155.76533                     -67.97576
                     912.80185                     190.04032                     -70.06541
                    1062.84439                     232.29943                     -74.48037
                    1212.13636                     266.88197                     -78.25292
                    1306.67627                     273.28324                     -79.82735
                    1354.41750                     265.59380                     -80.04848
                    1330.58581                     246.35076                     -77.16210
                     963.81164                     169.35367                     -55.11996
                     276.18268                      -4.17808                     -23.93671
        </DataArray>
        <DataArray type="Float32" Name="Moment" NumberOfComponents="3" format="ascii">
                       0.00000                       0.00000                       0.00000
                       0.00000                       0.00000                       0.00000
                       0.00000                       0.00000                       0.00000
                       0.00000                       0.00000                       0.00000
                      64.51762                     -78.37483                     490.56460
                      69.74776                     -85.78590                     537.02957
                      70.18346                     -87.69689                     549.09216
                      68.71094                     -87.56228                     548.37095
                      63.79956                     -83.29225                     521.76828
                      58.50519                     -78.65125                     492.85056
                      46.52373                     -64.76853                     406.00497
                      40.91333                     -59.33281                     372.08284
                      37.20427                     -56.52280                     354.61869
                      29.62219                     -47.36569                     297.30631
                      25.18578                     -42.48722                     266.80844
                      21.32936                     -37.59327                     236.16082
                      18.36612                     -33.42112                     210.00445
                       8.97533                     -16.77188                     105.40907
                       7.42815                     -14.02536                      88.15441
        </DataArray>
      </PointData>
      <Lines>
        <DataArray type="Int32" Name="connectivity" format="ascii">
      0      1
      1      2
      2      3
      3      4
      4      5
      5      6
      6      7
      7      8
      8      9
      9     10
     10     11
     11     12
     12     13
     13     14
     14     15
     15     16
     16     17
     17     18
        </DataArray>
        <DataArray type="Int32" Name="offsets" format="ascii">
      2
      4
      6
      8
     10
     12
     14
     16
     18
     20
     22
     24
     26
     28
     30
     32
     34
     36
        </DataArray>
      </Lines>
    </Piece>
  </PolyData>
</VTKFile>
