<?xml version="1.0"?>
<VTKFile type="PolyData" version="0.1" byte_order="LittleEndian">
  <PolyData>
    <Piece NumberOfPoints="     19" NumberOfVerts="  0" NumberOfLines="     18"
           NumberOfStrips="  0" NumberOfPolys="      0">
      <Points>
        <DataArray type="Float32" NumberOfComponents="3" format="ascii">
                      -5.05754                       1.47131                      89.73035
                      -5.13967                       2.81342                      89.48561
                      -5.31766                       5.51409                      89.08979
                      -5.50177                       8.22257                      88.73712
                      -5.73498                      11.61290                      88.32024
                      -5.97291                      15.65624                      87.67063
                      -6.19583                      19.67528                      86.88678
                      -6.41835                      23.69291                      86.09596
                      -6.63757                      27.70897                      85.29653
                      -6.85348                      31.72389                      84.49091
                      -7.06639                      35.73848                      83.68333
                      -7.27508                      39.75262                      82.87284
                      -7.47963                      43.76643                      82.06003
                      -7.68030                      47.78002                      81.24543
                      -7.87507                      51.79354                      80.42930
                      -8.03259                      55.13815                      79.74806
                      -8.15651                      57.81219                      79.19466
                      -8.28343                      60.47540                      78.58680
                      -8.34303                      61.81505                      78.32332
        </DataArray>
      </Points>
      <PointData>
        <DataArray type="Float32" Name="TranslationalVelocity" NumberOfComponents="3" format="ascii">
                       0.03080                       0.05856                       0.30138
                       0.05492                       0.11006                       0.57576
                       0.10347                       0.19417                       1.12783
                       0.15216                       0.26955                       1.68142
                       0.21308                       0.35893                       2.37425
                       0.28570                       0.49593                       3.20034
                       0.35785                       0.66004                       4.02125
                       0.42996                       0.82553                       4.84167
                       0.50206                       0.99267                       5.66157
                       0.57418                       1.16098                       6.48106
                       0.64636                       1.32960                       7.30034
                       0.71865                       1.49872                       8.11940
                       0.79108                       1.66822                       8.93830
                       0.86368                       1.83801                       9.75707
                       0.93649                       2.00800                      10.57576
                       0.99733                       2.14980                      11.25796
                       1.04609                       2.26492                      11.80336
                       1.09476                       2.39121                      12.34651
                       1.11928                       2.44603                      12.61971
        </DataArray>
        <DataArray type="Float32" Name="RotationalVelocity" NumberOfComponents="3" format="ascii">
                       0.20444                       0.00007                      -0.01799
                       0.20443                       0.00007                      -0.01799
                       0.20441                       0.00007                      -0.01799
                       0.20438                       0.00007                      -0.01798
                       0.20434                       0.00007                      -0.01798
                       0.20429                       0.00007                      -0.01797
                       0.20424                       0.00007                      -0.01796
                       0.20419                       0.00007                      -0.01796
                       0.20415                       0.00006                      -0.01797
                       0.20411                       0.00006                      -0.01798
                       0.20407                       0.00005                      -0.01800
                       0.20405                       0.00004                      -0.01803
                       0.20402                       0.00002                      -0.01807
                       0.20400                       0.00000                      -0.01811
                       0.20399                      -0.00002                      -0.01816
                       0.20398                      -0.00004                      -0.01820
                       0.20397                      -0.00005                      -0.01823
                       0.20396                      -0.00006                      -0.01826
                       0.20396                      -0.00007                      -0.01827
        </DataArray>
        <DataArray type="Float32" Name="TranslationalAcceleration" NumberOfComponents="3" format="ascii">
                       0.08051                      -0.05967                       0.03314
                       0.02573                      -0.07191                       0.03319
                       0.06357                      -0.20696                       0.09101
                       0.08685                      -0.33237                       0.14122
                       0.10230                      -0.47950                       0.19790
                       0.10889                      -0.64378                       0.26678
                       0.11017                      -0.80069                       0.33901
                       0.11114                      -0.95674                       0.41167
                       0.11455                      -1.11409                       0.48595
                       0.12126                      -1.27347                       0.56209
                       0.13079                      -1.43457                       0.63970
                       0.14185                      -1.59638                       0.71823
                       0.15287                      -1.75774                       0.79695
                       0.16255                      -1.91771                       0.87525
                       0.17039                      -2.07599                       0.95285
                       0.17604                      -2.20709                       1.01712
                       0.18092                      -2.31202                       1.06903
                       0.18757                      -2.41712                       1.12385
                       0.19195                      -2.47130                       1.15013
        </DataArray>
        <DataArray type="Float32" Name="OrientationX" NumberOfComponents="3" format="ascii">
                       0.98761                       0.08455                       0.13221
                       0.98761                       0.08452                       0.13222
                       0.98761                       0.08444                       0.13224
                       0.98762                       0.08433                       0.13227
                       0.98763                       0.08414                       0.13232
                       0.99178                       0.07820                       0.10128
                       0.99416                       0.07360                       0.07890
                       0.99583                       0.06930                       0.05940
                       0.99716                       0.06457                       0.03882
                       0.99807                       0.05949                       0.01769
                       0.99852                       0.05440                      -0.00220
                       0.99855                       0.04913                      -0.02185
                       0.99825                       0.04405                      -0.03955
                       0.99782                       0.03972                      -0.05278
                       0.99721                       0.03542                      -0.06576
                       0.99655                       0.03189                      -0.07662
                       0.99598                       0.02930                      -0.08468
                       0.99566                       0.02764                      -0.08887
                       0.99568                       0.02734                      -0.08874
        </DataArray>
        <DataArray type="Float32" Name="OrientationY" NumberOfComponents="3" format="ascii">
                       0.14512                      -0.17125                      -0.97448
                       0.14513                      -0.17145                      -0.97444
                       0.14517                      -0.17198                      -0.97435
                       0.14521                      -0.17264                      -0.97422
                       0.14529                      -0.17358                      -0.97404
                       0.11381                      -0.17737                      -0.97754
                       0.09108                      -0.18030                      -0.97939
                       0.07121                      -0.18284                      -0.98056
                       0.05020                      -0.18526                      -0.98141
                       0.02858                      -0.18748                      -0.98185
                       0.00815                      -0.18937                      -0.98187
                      -0.01208                      -0.19102                      -0.98151
                      -0.03037                      -0.19236                      -0.98085
                      -0.04415                      -0.19332                      -0.98014
                      -0.05769                      -0.19414                      -0.97928
                      -0.06899                      -0.19472                      -0.97843
                      -0.07739                      -0.19510                      -0.97773
                      -0.08181                      -0.19532                      -0.97732
                      -0.08173                      -0.19536                      -0.97732
        </DataArray>
        <DataArray type="Float32" Name="OrientationZ" NumberOfComponents="3" format="ascii">
                      -0.05975                       0.98159                      -0.18140
                      -0.05969                       0.98156                      -0.18159
                      -0.05954                       0.98147                      -0.18211
                      -0.05932                       0.98137                      -0.18275
                      -0.05899                       0.98122                      -0.18365
                      -0.05848                       0.98103                      -0.18481
                      -0.05786                       0.98085                      -0.18595
                      -0.05710                       0.98070                      -0.18702
                      -0.05618                       0.98057                      -0.18798
                      -0.05509                       0.98047                      -0.18881
                      -0.05383                       0.98040                      -0.18954
                      -0.05239                       0.98036                      -0.19015
                      -0.05081                       0.98034                      -0.19069
                      -0.04914                       0.98033                      -0.19115
                      -0.04745                       0.98033                      -0.19155
                      -0.04612                       0.98034                      -0.19185
                      -0.04516                       0.98035                      -0.19205
                      -0.04437                       0.98035                      -0.19221
                      -0.04406                       0.98035                      -0.19228
        </DataArray>
        <DataArray type="Float32" Name="Force" NumberOfComponents="3" format="ascii">
                     148.39807                       8.07326                      -5.19375
                     153.74674                       7.66161                      -9.12064
                     166.48569                       6.87420                     -17.38477
                     126.83109                       4.13896                     -18.99398
                     799.57873                      82.61654                     187.81734
                     754.66432                      70.78724                     140.85246
                     757.73410                      67.31651                     124.06703
                     660.86752                      54.58095                      88.93525
                     586.22736                      43.64457                      56.28660
                     573.12657                      39.73314                      42.78366
                     527.34976                      31.88193                      17.93452
                     514.78664                      28.45596                       7.30824
                     440.92804                      21.14195                      -7.23640
                     424.94181                      18.60448                     -12.53034
                     406.36246                      16.00998                     -17.74619
                     389.57466                      13.99237                     -21.41258
                     363.96359                      12.17372                     -22.90402
                     256.04717                       8.16601                     -17.12590
                     252.58344                       7.92719                     -17.14212
        </DataArray>
        <DataArray type="Float32" Name="Moment" NumberOfComponents="3" format="ascii">
                       0.00000                       0.00000                       0.00000
                       0.00000                       0.00000                       0.00000
                       0.00000                       0.00000                       0.00000
                       0.00000                       0.00000                       0.00000
                      40.17183                    -670.69563                     124.00355
                      40.39805                    -681.46013                     126.03059
                      36.47251                    -622.95785                     115.25131
                      33.27985                    -576.94749                     106.78298
                      29.25697                    -516.26330                      95.59736
                      25.60188                    -461.32602                      85.47219
                      20.32400                    -375.31454                      69.58081
                      17.62204                    -334.74401                      62.10373
                      14.93204                    -292.80838                      54.36602
                      12.60216                    -255.82617                      47.53856
                      10.47912                    -220.52008                      41.01162
                       8.88465                    -192.53475                      35.83028
                       7.27424                    -161.06242                      29.98726
                       3.38831                     -76.39848                      14.22965
                       3.29280                     -74.79045                      13.93227
        </DataArray>
      </PointData>
      <Lines>
        <DataArray type="Int32" Name="connectivity" format="ascii">
      0      1
      1      2
      2      3
      3      4
      4      5
      5      6
      6      7
      7      8
      8      9
      9     10
     10     11
     11     12
     12     13
     13     14
     14     15
     15     16
     16     17
     17     18
        </DataArray>
        <DataArray type="Int32" Name="offsets" format="ascii">
      2
      4
      6
      8
     10
     12
     14
     16
     18
     20
     22
     24
     26
     28
     30
     32
     34
     36
        </DataArray>
      </Lines>
    </Piece>
  </PolyData>
</VTKFile>
