<?xml version="1.0"?>
<VTKFile type="PolyData" version="0.1" byte_order="LittleEndian">
  <PolyData>
    <Piece NumberOfPoints="     19" NumberOfVerts="  0" NumberOfLines="     18"
           NumberOfStrips="  0" NumberOfPolys="      0">
      <Points>
        <DataArray type="Float32" NumberOfComponents="3" format="ascii">
                      -5.06080                      -1.36752                      89.39805
                      -5.17059                      -2.61116                      88.84196
                      -5.41938                      -5.05813                      87.64516
                      -5.68130                      -7.48552                      86.40719
                      -6.01523                     -10.50728                      84.83344
                      -6.34839                     -14.19246                      83.06505
                      -6.64243                     -17.93036                      81.40710
                      -6.93261                     -21.66748                      79.74656
                      -7.21537                     -25.40482                      78.08497
                      -7.49072                     -29.14176                      76.42099
                      -7.75940                     -32.87694                      74.75187
                      -8.01983                     -36.61127                      73.07936
                      -8.27213                     -40.34495                      71.40405
                      -8.51669                     -44.07816                      69.72645
                      -8.75176                     -47.81103                      68.04668
                      -8.94033                     -50.92157                      66.64537
                      -9.08640                     -53.41312                      65.53063
                      -9.22529                     -55.92763                      64.46490
                      -9.29744                     -57.16722                      63.89413
        </DataArray>
      </Points>
      <PointData>
        <DataArray type="Float32" Name="TranslationalVelocity" NumberOfComponents="3" format="ascii">
                      -0.00351                       0.16921                      -0.37259
                      -0.03401                       0.32457                      -0.71402
                      -0.09403                       0.65916                      -1.38566
                      -0.15355                       1.00525                      -2.05175
                      -0.22759                       1.44505                      -2.88063
                      -0.31771                       1.93795                      -3.89106
                      -0.40892                       2.39936                      -4.91543
                      -0.49998                       2.86114                      -5.93905
                      -0.59088                       3.32281                      -6.96225
                      -0.68158                       3.78476                      -7.98492
                      -0.77202                       4.24780                      -9.00676
                      -0.86217                       4.71144                     -10.02809
                      -0.95200                       5.17554                     -11.04906
                      -1.04145                       5.64002                     -12.06978
                      -1.13048                       6.10481                     -13.09033
                      -1.20430                       6.49234                     -13.94070
                      -1.26317                       6.80051                     -14.62183
                      -1.32233                       7.09509                     -15.30920
                      -1.35139                       7.25280                     -15.64804
        </DataArray>
        <DataArray type="Float32" Name="RotationalVelocity" NumberOfComponents="3" format="ascii">
                       0.27461                       0.00053                      -0.02429
                       0.27458                       0.00053                      -0.02428
                       0.27452                       0.00053                      -0.02427
                       0.27444                       0.00052                      -0.02425
                       0.27433                       0.00052                      -0.02423
                       0.27418                       0.00051                      -0.02420
                       0.27404                       0.00050                      -0.02417
                       0.27390                       0.00048                      -0.02414
                       0.27378                       0.00045                      -0.02411
                       0.27368                       0.00042                      -0.02407
                       0.27360                       0.00037                      -0.02403
                       0.27353                       0.00032                      -0.02397
                       0.27348                       0.00026                      -0.02391
                       0.27345                       0.00019                      -0.02383
                       0.27342                       0.00012                      -0.02375
                       0.27341                       0.00005                      -0.02367
                       0.27340                      -0.00001                      -0.02361
                       0.27339                      -0.00007                      -0.02356
                       0.27339                      -0.00010                      -0.02353
        </DataArray>
        <DataArray type="Float32" Name="TranslationalAcceleration" NumberOfComponents="3" format="ascii">
                      -0.00149                       0.10932                       0.03115
                       0.00181                       0.13321                       0.03845
                       0.00625                       0.37921                       0.11640
                       0.01130                       0.60461                       0.19251
                       0.01810                       0.86715                       0.28443
                       0.02560                       1.16749                       0.37973
                       0.03237                       1.46176                       0.46337
                       0.03915                       1.75466                       0.54703
                       0.04580                       2.05013                       0.63165
                       0.05218                       2.34940                       0.71765
                       0.05820                       2.65179                       0.80502
                       0.06371                       2.95562                       0.89305
                       0.06857                       3.25879                       0.98108
                       0.07263                       3.55960                       1.06856
                       0.07574                       3.85747                       1.15538
                       0.07747                       4.10422                       1.22754
                       0.07819                       4.30216                       1.28488
                       0.07792                       4.50351                       1.33898
                       0.07780                       4.60480                       1.36953
        </DataArray>
        <DataArray type="Float32" Name="OrientationX" NumberOfComponents="3" format="ascii">
                       0.94841                       0.05574                      -0.31211
                       0.94842                       0.05586                      -0.31206
                       0.94845                       0.05624                      -0.31190
                       0.94849                       0.05679                      -0.31168
                       0.94855                       0.05768                      -0.31132
                       0.95794                       0.04586                      -0.28327
                       0.96414                       0.03787                      -0.26267
                       0.96915                       0.03125                      -0.24446
                       0.97403                       0.02431                      -0.22512
                       0.97859                       0.01729                      -0.20510
                       0.98249                       0.01091                      -0.18600
                       0.98595                       0.00475                      -0.16695
                       0.98876                      -0.00052                      -0.14953
                       0.99069                      -0.00389                      -0.13608
                       0.99240                      -0.00725                      -0.12282
                       0.99368                      -0.01025                      -0.11177
                       0.99454                      -0.01259                      -0.10356
                       0.99499                      -0.01351                      -0.09903
                       0.99501                      -0.01313                      -0.09887
        </DataArray>
        <DataArray type="Float32" Name="OrientationY" NumberOfComponents="3" format="ascii">
                       0.30691                      -0.40845                       0.85964
                       0.30689                      -0.40859                       0.85958
                       0.30687                      -0.40896                       0.85941
                       0.30685                      -0.40941                       0.85920
                       0.30683                      -0.41005                       0.85890
                       0.27642                      -0.41253                       0.86799
                       0.25435                      -0.41431                       0.87387
                       0.23502                      -0.41578                       0.87857
                       0.21454                      -0.41706                       0.88319
                       0.19341                      -0.41812                       0.88757
                       0.17340                      -0.41891                       0.89132
                       0.15352                      -0.41950                       0.89468
                       0.13549                      -0.41990                       0.89740
                       0.12187                      -0.42016                       0.89923
                       0.10842                      -0.42033                       0.90087
                       0.09714                      -0.42039                       0.90213
                       0.08871                      -0.42039                       0.90300
                       0.08421                      -0.42039                       0.90343
                       0.08423                      -0.42040                       0.90342
        </DataArray>
        <DataArray type="Float32" Name="OrientationZ" NumberOfComponents="3" format="ascii">
                      -0.07957                      -0.91108                      -0.40448
                      -0.07949                      -0.91101                      -0.40466
                      -0.07922                      -0.91082                      -0.40513
                      -0.07881                      -0.91058                      -0.40575
                      -0.07811                      -0.91024                      -0.40666
                      -0.07705                      -0.90979                      -0.40785
                      -0.07573                      -0.90935                      -0.40909
                      -0.07419                      -0.90893                      -0.41030
                      -0.07242                      -0.90855                      -0.41145
                      -0.07041                      -0.90823                      -0.41251
                      -0.06819                      -0.90796                      -0.41347
                      -0.06579                      -0.90774                      -0.41434
                      -0.06325                      -0.90757                      -0.41511
                      -0.06067                      -0.90744                      -0.41578
                      -0.05816                      -0.90734                      -0.41635
                      -0.05624                      -0.90729                      -0.41674
                      -0.05490                      -0.90726                      -0.41698
                      -0.05383                      -0.90724                      -0.41714
                      -0.05342                      -0.90725                      -0.41719
        </DataArray>
        <DataArray type="Float32" Name="Force" NumberOfComponents="3" format="ascii">
                      48.23696                      -5.99952                       4.02484
                     150.04271                     -15.64001                       5.74661
                     171.17784                     -23.22359                      18.80478
                     135.03447                     -20.92235                      20.84885
                     948.26040                     102.33248                    -413.05358
                     869.31240                      75.47379                    -334.77711
                     897.01786                      69.74272                    -323.90442
                     773.86013                      50.69025                    -254.88230
                     686.04090                      34.13384                    -198.41605
                     681.10275                      28.50651                    -181.30360
                     620.63025                      15.67984                    -138.49446
                     624.25416                      12.03009                    -127.03988
                     532.76210                       4.09753                     -91.12375
                     526.12095                       2.37923                     -82.80028
                     516.29792                       0.98808                     -74.96530
                     512.32405                       1.60762                     -73.31571
                     494.09541                       2.58117                     -71.36216
                     363.40226                       3.94292                     -56.09203
                     426.25963                      25.80794                    -112.79175
        </DataArray>
        <DataArray type="Float32" Name="Moment" NumberOfComponents="3" format="ascii">
                       0.00000                       0.00000                       0.00000
                       0.00000                       0.00000                       0.00000
                       0.00000                       0.00000                       0.00000
                       0.00000                       0.00000                       0.00000
                      49.41576                     577.70246                     256.56899
                      50.70885                     601.83869                     267.35661
                      46.83394                     566.25553                     251.62695
                      43.84440                     541.89691                     240.88895
                      39.35963                     499.08377                     221.94756
                      34.81245                     454.59955                     202.25688
                      27.52793                     371.65795                     165.43768
                      24.29170                     340.38530                     151.59853
                      20.70711                     302.16759                     134.65320
                      17.69867                     269.59262                     120.20566
                      14.90658                     237.12947                     105.78949
                      12.77173                     210.29834                      93.85908
                      10.53950                     177.86412                      79.40645
                       4.95122                      85.25430                      38.07021
                       2.49548                      43.30487                      19.33946
        </DataArray>
      </PointData>
      <Lines>
        <DataArray type="Int32" Name="connectivity" format="ascii">
      0      1
      1      2
      2      3
      3      4
      4      5
      5      6
      6      7
      7      8
      8      9
      9     10
     10     11
     11     12
     12     13
     13     14
     14     15
     15     16
     16     17
     17     18
        </DataArray>
        <DataArray type="Int32" Name="offsets" format="ascii">
      2
      4
      6
      8
     10
     12
     14
     16
     18
     20
     22
     24
     26
     28
     30
     32
     34
     36
        </DataArray>
      </Lines>
    </Piece>
  </PolyData>
</VTKFile>
