<?xml version="1.0"?>
<VTKFile type="PolyData" version="0.1" byte_order="LittleEndian">
  <PolyData>
    <Piece NumberOfPoints="     22" NumberOfVerts="  0" NumberOfLines="     21"
           NumberOfStrips="  0" NumberOfPolys="      0">
      <Points>
        <DataArray type="Float32" NumberOfComponents="3" format="ascii">
                       0.00003                       0.00000                       2.19000
                       0.00031                       0.00000                       6.57000
                       0.00091                       0.00001                      10.95000
                       0.00187                       0.00002                      15.33000
                       0.00317                       0.00002                      19.71000
                       0.00480                       0.00003                      24.09000
                       0.00674                       0.00004                      28.47000
                       0.00897                       0.00005                      32.85000
                       0.01147                       0.00006                      37.23000
                       0.01423                       0.00006                      41.61000
                       0.01724                       0.00007                      45.99000
                       0.02050                       0.00007                      50.36999
                       0.02402                       0.00006                      54.74999
                       0.02781                       0.00006                      59.12999
                       0.03186                       0.00004                      63.50999
                       0.03616                       0.00002                      67.88999
                       0.04069                      -0.00000                      72.26999
                       0.04536                      -0.00003                      76.64998
                       0.05009                      -0.00007                      81.02998
                       0.05468                      -0.00011                      85.40998
                       0.05686                      -0.00013                      87.59998
                       0.00000                       0.00000                       0.00000
        </DataArray>
      </Points>
      <PointData>
        <DataArray type="Float32" Name="TranslationalVelocity" NumberOfComponents="3" format="ascii">
                       0.00001                       0.00000                      -0.00000
                       0.00008                       0.00001                      -0.00000
                       0.00024                       0.00003                      -0.00000
                       0.00050                       0.00006                      -0.00000
                       0.00085                       0.00009                      -0.00000
                       0.00129                       0.00013                      -0.00000
                       0.00183                       0.00018                      -0.00000
                       0.00244                       0.00023                      -0.00000
                       0.00314                       0.00029                      -0.00000
                       0.00393                       0.00035                      -0.00000
                       0.00479                       0.00043                      -0.00000
                       0.00574                       0.00051                      -0.00000
                       0.00677                       0.00060                      -0.00000
                       0.00790                       0.00069                      -0.00000
                       0.00913                       0.00079                      -0.00001
                       0.01044                       0.00089                      -0.00001
                       0.01183                       0.00100                      -0.00001
                       0.01329                       0.00112                      -0.00001
                       0.01477                       0.00123                      -0.00001
                       0.01622                       0.00135                      -0.00001
                       0.01692                       0.00141                      -0.00001
                       0.00000                      -0.00000                       0.00000
        </DataArray>
        <DataArray type="Float32" Name="RotationalVelocity" NumberOfComponents="3" format="ascii">
                      -0.00000                       0.00001                       0.00000
                      -0.00000                       0.00003                       0.00000
                      -0.00001                       0.00005                       0.00000
                      -0.00001                       0.00007                       0.00000
                      -0.00001                       0.00009                       0.00000
                      -0.00001                       0.00011                       0.00000
                      -0.00001                       0.00013                       0.00000
                      -0.00001                       0.00015                       0.00000
                      -0.00001                       0.00017                       0.00000
                      -0.00002                       0.00019                       0.00000
                      -0.00002                       0.00021                       0.00000
                      -0.00002                       0.00023                       0.00000
                      -0.00002                       0.00025                       0.00000
                      -0.00002                       0.00027                       0.00000
                      -0.00002                       0.00029                       0.00000
                      -0.00002                       0.00031                       0.00000
                      -0.00003                       0.00033                       0.00000
                      -0.00003                       0.00034                       0.00000
                      -0.00003                       0.00034                       0.00000
                      -0.00003                       0.00032                       0.00000
                      -0.00003                       0.00031                       0.00000
                       0.00000                      -0.00000                       0.00000
        </DataArray>
        <DataArray type="Float32" Name="TranslationalAcceleration" NumberOfComponents="3" format="ascii">
                       0.00001                      -0.00000                      -0.00000
                       0.00014                      -0.00003                      -0.00000
                       0.00043                      -0.00007                      -0.00000
                       0.00088                      -0.00013                      -0.00000
                       0.00151                      -0.00022                      -0.00000
                       0.00231                      -0.00031                      -0.00000
                       0.00326                      -0.00043                      -0.00000
                       0.00437                      -0.00057                      -0.00000
                       0.00564                      -0.00072                      -0.00000
                       0.00705                      -0.00090                      -0.00000
                       0.00863                      -0.00110                      -0.00001
                       0.01036                      -0.00132                      -0.00001
                       0.01227                      -0.00156                      -0.00001
                       0.01435                      -0.00183                      -0.00001
                       0.01662                      -0.00212                      -0.00001
                       0.01906                      -0.00244                      -0.00002
                       0.02166                      -0.00277                      -0.00002
                       0.02438                      -0.00312                      -0.00002
                       0.02715                      -0.00349                      -0.00003
                       0.02989                      -0.00386                      -0.00003
                       0.03119                      -0.00406                      -0.00003
                       0.00000                      -0.00000                       0.00000
        </DataArray>
        <DataArray type="Float32" Name="RotationalAcceleration" NumberOfComponents="3" format="ascii">
                       0.00000                       0.00001                       0.00000
                       0.00001                       0.00005                       0.00000
                       0.00001                       0.00008                       0.00000
                       0.00002                       0.00012                       0.00000
                       0.00002                       0.00016                       0.00000
                       0.00002                       0.00020                       0.00000
                       0.00003                       0.00024                       0.00000
                       0.00003                       0.00027                       0.00000
                       0.00004                       0.00031                       0.00000
                       0.00004                       0.00034                       0.00000
                       0.00005                       0.00038                       0.00000
                       0.00005                       0.00042                       0.00000
                       0.00006                       0.00046                       0.00000
                       0.00006                       0.00050                       0.00000
                       0.00007                       0.00054                       0.00000
                       0.00007                       0.00058                       0.00000
                       0.00008                       0.00061                       0.00000
                       0.00008                       0.00063                       0.00000
                       0.00008                       0.00063                       0.00000
                       0.00009                       0.00061                       0.00000
                       0.00009                       0.00058                       0.00000
                       0.00000                      -0.00000                       0.00000
        </DataArray>
        <DataArray type="Float32" Name="OrientationX" NumberOfComponents="3" format="ascii">
                       1.00000                      -0.00000                      -0.00003
                       1.00000                      -0.00000                      -0.00010
                       1.00000                      -0.00000                      -0.00018
                       1.00000                      -0.00000                      -0.00026
                       1.00000                      -0.00000                      -0.00034
                       1.00000                      -0.00000                      -0.00041
                       1.00000                      -0.00000                      -0.00048
                       1.00000                      -0.00000                      -0.00054
                       1.00000                      -0.00000                      -0.00060
                       1.00000                      -0.00000                      -0.00066
                       1.00000                      -0.00000                      -0.00072
                       1.00000                       0.00000                      -0.00077
                       1.00000                       0.00000                      -0.00083
                       1.00000                       0.00000                      -0.00089
                       1.00000                       0.00000                      -0.00095
                       1.00000                       0.00000                      -0.00101
                       1.00000                       0.00000                      -0.00105
                       1.00000                       0.00000                      -0.00108
                       1.00000                       0.00000                      -0.00107
                       1.00000                       0.00000                      -0.00102
                       1.00000                       0.00000                      -0.00097
                       1.00000                      -0.00000                       0.00000
        </DataArray>
        <DataArray type="Float32" Name="OrientationY" NumberOfComponents="3" format="ascii">
                      -0.00000                       1.00000                      -0.00000
                      -0.00000                       1.00000                      -0.00000
                      -0.00000                       1.00000                      -0.00000
                      -0.00000                       1.00000                      -0.00000
                      -0.00000                       1.00000                      -0.00000
                      -0.00000                       1.00000                      -0.00000
                      -0.00000                       1.00000                      -0.00000
                      -0.00000                       1.00000                      -0.00000
                      -0.00000                       1.00000                      -0.00000
                      -0.00000                       1.00000                      -0.00000
                      -0.00000                       1.00000                      -0.00000
                       0.00000                       1.00000                       0.00000
                       0.00000                       1.00000                       0.00000
                       0.00000                       1.00000                       0.00000
                       0.00000                       1.00000                       0.00000
                       0.00000                       1.00000                       0.00000
                       0.00000                       1.00000                       0.00001
                       0.00000                       1.00000                       0.00001
                       0.00000                       1.00000                       0.00001
                       0.00000                       1.00000                       0.00001
                       0.00000                       1.00000                       0.00001
                      -0.00000                       1.00000                      -0.00000
        </DataArray>
        <DataArray type="Float32" Name="OrientationZ" NumberOfComponents="3" format="ascii">
                       0.00003                       0.00000                       1.00000
                       0.00010                       0.00000                       1.00000
                       0.00018                       0.00000                       1.00000
                       0.00026                       0.00000                       1.00000
                       0.00034                       0.00000                       1.00000
                       0.00041                       0.00000                       1.00000
                       0.00048                       0.00000                       1.00000
                       0.00054                       0.00000                       1.00000
                       0.00060                       0.00000                       1.00000
                       0.00066                       0.00000                       1.00000
                       0.00072                       0.00000                       1.00000
                       0.00077                      -0.00000                       1.00000
                       0.00083                      -0.00000                       1.00000
                       0.00089                      -0.00000                       1.00000
                       0.00095                      -0.00000                       1.00000
                       0.00101                      -0.00000                       1.00000
                       0.00105                      -0.00001                       1.00000
                       0.00108                      -0.00001                       1.00000
                       0.00107                      -0.00001                       1.00000
                       0.00102                      -0.00001                       1.00000
                       0.00097                      -0.00001                       1.00000
                       0.00000                      -0.00000                       1.00000
        </DataArray>
      </PointData>
      <Lines>
        <DataArray type="Int32" Name="connectivity" format="ascii">
      0      1
      1      2
      2      3
      3      4
      4      5
      5      6
      6      7
      7      8
      8      9
      9     10
     10     11
     11     12
     12     13
     13     14
     14     15
     15     16
     16     17
     17     18
     18     19
     19     20
     21      0
        </DataArray>
        <DataArray type="Int32" Name="offsets" format="ascii">
      2
      4
      6
      8
     10
     12
     14
     16
     18
     20
     22
     24
     26
     28
     30
     32
     34
     36
     38
     40
     42
        </DataArray>
      </Lines>
    </Piece>
  </PolyData>
</VTKFile>
