<?xml version="1.0"?>
<VTKFile type="PolyData" version="0.1" byte_order="LittleEndian">
  <PolyData>
    <Piece NumberOfPoints="     19" NumberOfVerts="  0" NumberOfLines="     18"
           NumberOfStrips="  0" NumberOfPolys="      0">
      <Points>
        <DataArray type="Float32" NumberOfComponents="3" format="ascii">
                      -4.62910                      -1.49643                      89.88223
                      -4.70351                      -2.85335                      89.73576
                      -4.87863                      -5.55573                      89.34963
                      -5.06102                      -8.25277                      88.91725
                      -5.28419                     -11.62104                      88.34545
                      -5.46064                     -15.68083                      87.78603
                      -5.56508                     -19.75598                      87.34045
                      -5.62541                     -23.83085                      86.88334
                      -5.62875                     -27.90487                      86.41491
                      -5.56557                     -31.97667                      85.93241
                      -5.42744                     -36.04435                      85.43180
                      -5.20431                     -40.10626                      84.91445
                      -4.88910                     -44.16032                      84.38084
                      -4.47675                     -48.20413                      83.83197
                      -3.96227                     -52.23465                      83.26909
                      -3.45328                     -55.58066                      82.79063
                      -2.99680                     -58.24909                      82.41093
                      -2.49356                     -60.91535                      82.08225
                      -2.23145                     -62.23893                      81.87593
        </DataArray>
      </Points>
      <PointData>
        <DataArray type="Float32" Name="TranslationalVelocity" NumberOfComponents="3" format="ascii">
                      -0.16997                       0.20581                      -1.88399
                      -0.33417                       0.40004                      -3.60028
                      -0.66133                       0.90947                      -7.01793
                      -0.98817                       1.47812                     -10.42811
                      -1.39711                       2.22771                     -14.68575
                      -1.89151                       2.95561                     -19.81547
                      -2.38989                       3.53064                     -24.96219
                      -2.89078                       4.11460                     -30.10612
                      -3.39445                       4.70556                     -35.24671
                      -3.90089                       5.30577                     -40.38248
                      -4.40994                       5.91917                     -45.51138
                      -4.92131                       6.54273                     -50.63173
                      -5.43451                       7.17489                     -55.74127
                      -5.94884                       7.81373                     -60.83737
                      -6.46334                       8.45703                     -65.91650
                      -6.89136                       8.99460                     -70.13304
                      -7.23285                       9.41445                     -73.49576
                      -7.57365                       9.76407                     -76.85582
                      -7.74282                       9.99042                     -78.52382
        </DataArray>
        <DataArray type="Float32" Name="RotationalVelocity" NumberOfComponents="3" format="ascii">
                       1.26491                       0.00007                      -0.12099
                       1.26484                       0.00008                      -0.12101
                       1.26463                       0.00009                      -0.12110
                       1.26434                       0.00011                      -0.12125
                       1.26392                       0.00014                      -0.12152
                       1.26335                       0.00017                      -0.12197
                       1.26276                       0.00022                      -0.12253
                       1.26220                       0.00029                      -0.12317
                       1.26169                       0.00041                      -0.12387
                       1.26123                       0.00059                      -0.12460
                       1.26084                       0.00086                      -0.12532
                       1.26051                       0.00122                      -0.12599
                       1.26024                       0.00169                      -0.12658
                       1.26001                       0.00226                      -0.12704
                       1.25982                       0.00291                      -0.12733
                       1.25967                       0.00349                      -0.12742
                       1.25956                       0.00396                      -0.12737
                       1.25944                       0.00441                      -0.12721
                       1.25938                       0.00462                      -0.12708
        </DataArray>
        <DataArray type="Float32" Name="TranslationalAcceleration" NumberOfComponents="3" format="ascii">
                      -0.01107                       2.41116                       0.12485
                       0.00655                       2.92475                       0.14570
                       0.03501                       8.35928                       0.56424
                       0.07281                      13.35519                       1.03865
                       0.12728                      19.18549                       1.65791
                       0.17566                      25.81518                       2.16224
                       0.20729                      32.27220                       2.45860
                       0.23897                      38.70411                       2.76151
                       0.26727                      45.19303                       3.07157
                       0.28903                      51.76361                       3.39196
                       0.30119                      58.39921                       3.72615
                       0.29989                      65.05872                       4.06804
                       0.28169                      71.69231                       4.41369
                       0.24347                      78.25759                       4.76001
                       0.18264                      84.73497                       5.10572
                       0.11282                      90.07727                       5.39466
                       0.04310                      94.34131                       5.61429
                      -0.04781                      98.63953                       5.74943
                      -0.09044                     100.81026                       5.88556
        </DataArray>
        <DataArray type="Float32" Name="OrientationX" NumberOfComponents="3" format="ascii">
                       0.94558                      -0.01703                      -0.32495
                       0.94561                      -0.01637                      -0.32489
                       0.94572                      -0.01421                      -0.32467
                       0.94588                      -0.01100                      -0.32433
                       0.94611                      -0.00568                      -0.32380
                       0.95615                      -0.00113                      -0.29287
                       0.96283                       0.00656                      -0.27002
                       0.96819                       0.01680                      -0.24964
                       0.97326                       0.02929                      -0.22782
                       0.97776                       0.04420                      -0.20501
                       0.98119                       0.06176                      -0.18291
                       0.98365                       0.08164                      -0.16051
                       0.98478                       0.10360                      -0.13955
                       0.98427                       0.12716                      -0.12263
                       0.98292                       0.15061                      -0.10574
                       0.98136                       0.16894                      -0.09164
                       0.97994                       0.18200                      -0.08115
                       0.97828                       0.19328                      -0.07488
                       0.97737                       0.19811                      -0.07417
        </DataArray>
        <DataArray type="Float32" Name="OrientationY" NumberOfComponents="3" format="ascii">
                       0.32092                      -0.11628                       0.93994
                       0.32092                      -0.11634                       0.93993
                       0.32092                      -0.11647                       0.93992
                       0.32092                      -0.11663                       0.93990
                       0.32096                      -0.11681                       0.93986
                       0.29074                      -0.11695                       0.94963
                       0.26890                      -0.11734                       0.95599
                       0.24985                      -0.11789                       0.96108
                       0.22969                      -0.11866                       0.96600
                       0.20892                      -0.11969                       0.97058
                       0.18927                      -0.12101                       0.97444
                       0.16975                      -0.12272                       0.97782
                       0.15206                      -0.12473                       0.98047
                       0.13874                      -0.12666                       0.98220
                       0.12557                      -0.12885                       0.98368
                       0.11449                      -0.13088                       0.98476
                       0.10621                      -0.13245                       0.98548
                       0.10178                      -0.13322                       0.98585
                       0.10179                      -0.13309                       0.98586
        </DataArray>
        <DataArray type="Float32" Name="OrientationZ" NumberOfComponents="3" format="ascii">
                      -0.05380                      -0.99307                      -0.10449
                      -0.05318                      -0.99307                      -0.10476
                      -0.05117                      -0.99309                      -0.10559
                      -0.04816                      -0.99311                      -0.10679
                      -0.04316                      -0.99314                      -0.10869
                      -0.03532                      -0.99314                      -0.11149
                      -0.02541                      -0.99307                      -0.11474
                      -0.01329                      -0.99288                      -0.11834
                       0.00126                      -0.99250                      -0.12221
                       0.01836                      -0.99183                      -0.12627
                       0.03805                      -0.99073                      -0.13042
                       0.06013                      -0.98908                      -0.13457
                       0.08417                      -0.98677                      -0.13859
                       0.10936                      -0.98376                      -0.14231
                       0.13453                      -0.98016                      -0.14556
                       0.15437                      -0.97690                      -0.14779
                       0.16861                      -0.97434                      -0.14913
                       0.18057                      -0.97206                      -0.15000
                       0.18544                      -0.97110                      -0.15025
        </DataArray>
        <DataArray type="Float32" Name="Force" NumberOfComponents="3" format="ascii">
                       0.94761                      -1.09375                       9.90729
                     171.12237                     -14.33913                      49.19062
                     215.78076                     -23.66866                     119.16337
                     194.38464                     -25.86581                     155.73101
                    1476.84769                       8.69646                    -681.38746
                    2093.93313                      37.02906                   -1031.58646
                    2575.38063                      56.52879                   -1115.98259
                    3196.04415                      92.27358                   -1208.56894
                    3529.51317                     138.34503                   -1172.55657
                    4017.54640                     214.36966                   -1197.14460
                    4854.12462                     342.47525                   -1299.96438
                    5495.03283                     499.43830                   -1340.27364
                    6246.83084                     713.79282                   -1428.62796
                    6754.02495                     937.04573                   -1431.39631
                    7169.93881                    1171.65507                   -1405.62630
                    7380.99932                    1349.22787                   -1343.04813
                    7165.21270                    1407.38384                   -1211.18194
                    5136.68513                    1068.04036                    -813.25646
                    2133.40409                     427.67755                    -127.30884
        </DataArray>
        <DataArray type="Float32" Name="Moment" NumberOfComponents="3" format="ascii">
                       0.00000                       0.00000                       0.00000
                       0.00000                       0.00000                       0.00000
                       0.00000                       0.00000                       0.00000
                       0.00000                       0.00000                       0.00000
                      21.23024                     492.08940                      52.29517
                      21.99036                     627.35438                      67.15548
                      24.47837                     984.70563                     106.36845
                      18.59850                    1496.74695                     163.45930
                      -4.78195                    1957.34967                     216.54531
                     -44.20334                    2221.83511                     249.51462
                     -94.05203                    2353.39327                     268.80634
                    -155.49047                    2487.68638                     289.50852
                    -200.35226                    2299.94928                     273.07362
                    -258.87156                    2289.88001                     277.55925
                    -307.71941                    2211.26706                     273.55272
                    -335.51782                    2097.95674                     263.70233
                    -325.86537                    1862.83929                     236.82254
                    -174.45467                     929.90667                     119.34630
                    -149.42002                     775.08463                      99.85970
        </DataArray>
      </PointData>
      <Lines>
        <DataArray type="Int32" Name="connectivity" format="ascii">
      0      1
      1      2
      2      3
      3      4
      4      5
      5      6
      6      7
      7      8
      8      9
      9     10
     10     11
     11     12
     12     13
     13     14
     14     15
     15     16
     16     17
     17     18
        </DataArray>
        <DataArray type="Int32" Name="offsets" format="ascii">
      2
      4
      6
      8
     10
     12
     14
     16
     18
     20
     22
     24
     26
     28
     30
     32
     34
     36
        </DataArray>
      </Lines>
    </Piece>
  </PolyData>
</VTKFile>
