<?xml version="1.0"?>
<VTKFile type="PolyData" version="0.1" byte_order="LittleEndian">
  <PolyData>
    <Piece NumberOfPoints="     19" NumberOfVerts="  0" NumberOfLines="     18"
           NumberOfStrips="  0" NumberOfPolys="      0">
      <Points>
        <DataArray type="Float32" NumberOfComponents="3" format="ascii">
                      -5.11826                      -0.42820                      88.58131
                      -5.29412                      -0.81473                      87.28223
                      -5.66933                      -1.49640                      84.65988
                      -6.05459                      -2.13439                      82.02578
                      -6.54028                      -2.90513                      78.72564
                      -7.06191                      -3.96606                      74.79819
                      -7.54922                      -5.14983                      70.90297
                      -8.02950                      -6.33377                      67.00691
                      -8.49830                      -7.51961                      63.10996
                      -8.95442                      -8.70551                      59.21150
                      -9.39730                      -9.88804                      55.31048
                      -9.82438                     -11.06880                      51.40715
                     -10.23483                     -12.24799                      47.50153
                     -10.62830                     -13.42583                      43.59375
                     -11.00250                     -14.60250                      39.68370
                     -11.29922                     -15.58239                      36.42372
                     -11.52749                     -16.37357                      33.81716
                     -11.74764                     -17.21743                      31.22539
                     -11.85646                     -17.59930                      29.91780
        </DataArray>
      </Points>
      <PointData>
        <DataArray type="Float32" Name="TranslationalVelocity" NumberOfComponents="3" format="ascii">
                       0.00448                       0.58631                      -0.17183
                      -0.00991                       1.11981                      -0.32862
                      -0.03534                       2.19702                      -0.60501
                      -0.05912                       3.27869                      -0.86356
                      -0.08779                       4.63288                      -1.17573
                      -0.12689                       6.24082                      -1.60515
                      -0.17005                       7.83270                      -2.08383
                      -0.21266                       9.42297                      -2.56210
                      -0.25453                      11.01166                      -3.04074
                      -0.29529                      12.59919                      -3.51909
                      -0.33452                      14.18622                      -3.99587
                      -0.37199                      15.77280                      -4.47184
                      -0.40745                      17.35911                      -4.94717
                      -0.44070                      18.94528                      -5.42200
                      -0.47164                      20.53137                      -5.89643
                      -0.49558                      21.85299                      -6.29156
                      -0.51393                      22.90921                      -6.61058
                      -0.53330                      23.95897                      -6.95074
                      -0.54117                      24.48841                      -7.10468
        </DataArray>
        <DataArray type="Float32" Name="RotationalVelocity" NumberOfComponents="3" format="ascii">
                       0.40588                       0.00036                      -0.03601
                       0.40580                       0.00036                      -0.03600
                       0.40560                       0.00034                      -0.03597
                       0.40535                       0.00032                      -0.03594
                       0.40499                       0.00029                      -0.03591
                       0.40454                       0.00023                      -0.03587
                       0.40410                       0.00013                      -0.03584
                       0.40369                      -0.00003                      -0.03583
                       0.40334                      -0.00025                      -0.03582
                       0.40305                      -0.00055                      -0.03583
                       0.40281                      -0.00094                      -0.03584
                       0.40262                      -0.00142                      -0.03586
                       0.40247                      -0.00196                      -0.03588
                       0.40236                      -0.00254                      -0.03589
                       0.40227                      -0.00313                      -0.03589
                       0.40220                      -0.00359                      -0.03588
                       0.40216                      -0.00391                      -0.03586
                       0.40212                      -0.00416                      -0.03582
                       0.40211                      -0.00424                      -0.03580
        </DataArray>
        <DataArray type="Float32" Name="TranslationalAcceleration" NumberOfComponents="3" format="ascii">
                       0.04211                       0.09933                       0.23029
                       0.03031                       0.12244                       0.27675
                       0.08426                       0.33724                       0.79684
                       0.13076                       0.52680                       1.27882
                       0.18155                       0.74283                       1.84343
                       0.23451                       1.00735                       2.47393
                       0.28294                       1.28338                       3.07672
                       0.33050                       1.55789                       3.67632
                       0.37878                       1.83470                       4.28082
                       0.42847                       2.11472                       4.89301
                       0.47958                       2.39697                       5.51183
                       0.53167                       2.68020                       6.13352
                       0.58421                       2.96260                       6.75369
                       0.63675                       3.24265                       7.36876
                       0.68926                       3.51976                       7.97752
                       0.73344                       3.74896                       8.48174
                       0.76948                       3.93372                       8.88525
                       0.80662                       4.12861                       9.28962
                       0.82622                       4.22112                       9.49774
        </DataArray>
        <DataArray type="Float32" Name="OrientationX" NumberOfComponents="3" format="ascii">
                       0.95901                       0.20848                      -0.19192
                       0.95903                       0.20852                      -0.19178
                       0.95909                       0.20866                      -0.19133
                       0.95918                       0.20885                      -0.19069
                       0.95931                       0.20918                      -0.18964
                       0.96709                       0.17974                      -0.18007
                       0.97219                       0.15867                      -0.17224
                       0.97630                       0.14041                      -0.16467
                       0.98025                       0.12113                      -0.15630
                       0.98390                       0.10134                      -0.14723
                       0.98698                       0.08273                      -0.13792
                       0.98967                       0.06434                      -0.12815
                       0.99180                       0.04779                      -0.11849
                       0.99332                       0.03553                      -0.10980
                       0.99459                       0.02339                      -0.10117
                       0.99547                       0.01313                      -0.09420
                       0.99600                       0.00542                      -0.08915
                       0.99632                       0.00140                      -0.08569
                       0.99639                       0.00153                      -0.08483
        </DataArray>
        <DataArray type="Float32" Name="OrientationY" NumberOfComponents="3" format="ascii">
                       0.25278                      -0.93549                       0.24690
                       0.25277                      -0.93550                       0.24688
                       0.25277                      -0.93552                       0.24681
                       0.25276                      -0.93554                       0.24672
                       0.25275                      -0.93558                       0.24660
                       0.22203                      -0.94182                       0.25234
                       0.19975                      -0.94576                       0.25620
                       0.18021                      -0.94881                       0.25940
                       0.15947                      -0.95163                       0.26263
                       0.13804                      -0.95410                       0.26579
                       0.11767                      -0.95604                       0.26859
                       0.09737                      -0.95759                       0.27118
                       0.07885                      -0.95868                       0.27333
                       0.06469                      -0.95932                       0.27481
                       0.05067                      -0.95977                       0.27617
                       0.03890                      -0.96001                       0.27724
                       0.03011                      -0.96011                       0.27801
                       0.02529                      -0.96012                       0.27844
                       0.02519                      -0.96011                       0.27847
        </DataArray>
        <DataArray type="Float32" Name="OrientationZ" NumberOfComponents="3" format="ascii">
                      -0.12806                      -0.28529                      -0.94985
                      -0.12793                      -0.28524                      -0.94988
                      -0.12750                      -0.28507                      -0.94999
                      -0.12687                      -0.28485                      -0.95014
                      -0.12584                      -0.28450                      -0.95038
                      -0.12424                      -0.28401                      -0.95074
                      -0.12224                      -0.28348                      -0.95115
                      -0.11982                      -0.28293                      -0.95163
                      -0.11692                      -0.28237                      -0.95215
                      -0.11353                      -0.28183                      -0.95272
                      -0.10964                      -0.28132                      -0.95333
                      -0.10527                      -0.28085                      -0.95396
                      -0.10053                      -0.28043                      -0.95460
                      -0.09557                      -0.28008                      -0.95521
                      -0.09064                      -0.27980                      -0.95577
                      -0.08679                      -0.27965                      -0.95617
                      -0.08408                      -0.27958                      -0.95643
                      -0.08188                      -0.27958                      -0.95662
                      -0.08102                      -0.27961                      -0.95669
        </DataArray>
        <DataArray type="Float32" Name="Force" NumberOfComponents="3" format="ascii">
                       0.02850                      -1.08213                       0.32118
                     118.21654                     -21.89412                      -9.34513
                     139.33375                     -41.20823                      -6.32370
                     112.92975                     -44.44632                      -1.73139
                     903.00878                     294.62542                    -208.04740
                     847.61673                     232.77039                    -180.66737
                     922.81538                     230.90051                    -187.93657
                     822.22851                     181.01041                    -157.87466
                     748.40538                     135.89801                    -132.70394
                     781.94906                     126.78904                    -131.23907
                     748.74277                     103.02773                    -117.02550
                     813.48028                     121.85111                    -126.31554
                     897.51148                     164.84875                    -143.92621
                    1004.60873                     188.46426                    -156.96492
                    1123.79961                     215.08474                    -170.96593
                    1196.00364                     224.35039                    -175.69651
                    1194.96089                     216.61599                    -169.85005
                     897.15752                     159.05163                    -124.35348
                     252.92895                      -3.34890                     -20.41863
        </DataArray>
        <DataArray type="Float32" Name="Moment" NumberOfComponents="3" format="ascii">
                       0.00000                       0.00000                       0.00000
                       0.00000                       0.00000                       0.00000
                       0.00000                       0.00000                       0.00000
                       0.00000                       0.00000                       0.00000
                      62.99753                     142.86704                     475.75496
                      67.88383                     155.95355                     519.41219
                      66.36647                     154.98884                     516.29654
                      66.14614                     157.63521                     525.23218
                      62.71873                     153.20280                     510.60271
                      57.72331                     145.25023                     484.25232
                      46.30085                     120.67961                     402.48298
                      41.11149                     111.62649                     372.44186
                      36.32864                     103.32078                     344.88281
                      31.22469                      93.43557                     312.03063
                      24.26542                      76.57321                     255.83580
                      20.67610                      68.14701                     227.76491
                      16.78777                      57.11893                     190.95434
                       7.91233                      27.64687                      92.44519
                       6.76147                      23.87513                      79.83966
        </DataArray>
      </PointData>
      <Lines>
        <DataArray type="Int32" Name="connectivity" format="ascii">
      0      1
      1      2
      2      3
      3      4
      4      5
      5      6
      6      7
      7      8
      8      9
      9     10
     10     11
     11     12
     12     13
     13     14
     14     15
     15     16
     16     17
     17     18
        </DataArray>
        <DataArray type="Int32" Name="offsets" format="ascii">
      2
      4
      6
      8
     10
     12
     14
     16
     18
     20
     22
     24
     26
     28
     30
     32
     34
     36
        </DataArray>
      </Lines>
    </Piece>
  </PolyData>
</VTKFile>
