<?xml version="1.0"?>
<VTKFile type="PolyData" version="0.1" byte_order="LittleEndian">
  <PolyData>
    <Piece NumberOfPoints="     19" NumberOfVerts="  0" NumberOfLines="     18"
           NumberOfStrips="  0" NumberOfPolys="      0">
      <Points>
        <DataArray type="Float32" NumberOfComponents="3" format="ascii">
                      -5.05640                      -0.52369                      88.61736
                      -5.23119                      -0.99381                      87.34598
                      -5.60420                      -1.84448                      84.77315
                      -5.98662                      -2.65225                      82.18563
                      -6.46732                      -3.63547                      78.94167
                      -6.97914                      -4.94809                      75.08964
                      -7.45152                      -6.38027                      71.27679
                      -7.91106                      -7.81176                      67.46207
                      -8.35184                      -9.24413                      63.64543
                      -8.77118                     -10.67554                      59.82598
                      -9.16710                     -12.10260                      56.00242
                      -9.53580                     -13.52689                      52.17508
                      -9.87541                     -14.94865                      48.34406
                     -10.18494                     -16.36821                      44.50960
                     -10.46186                     -17.78587                      40.67191
                     -10.66729                     -18.96615                      37.47172
                     -10.81651                     -19.91733                      34.91333
                     -10.95247                     -20.92005                      32.37301
                     -11.01757                     -21.38214                      31.08875
        </DataArray>
      </Points>
      <PointData>
        <DataArray type="Float32" Name="TranslationalVelocity" NumberOfComponents="3" format="ascii">
                      -0.01163                       0.76862                      -0.28289
                      -0.03505                       1.47248                      -0.53994
                      -0.07734                       2.89722                      -1.00490
                      -0.11731                       4.32958                      -1.44621
                      -0.16563                       6.12396                      -1.98310
                      -0.22945                       8.24971                      -2.69936
                      -0.29815                      10.34988                      -3.48014
                      -0.36548                      12.44827                      -4.25986
                      -0.43112                      14.54485                      -5.03946
                      -0.49456                      16.64023                      -5.81807
                      -0.55519                      18.73536                      -6.59399
                      -0.61264                      20.83017                      -7.36821
                      -0.66657                      22.92481                      -8.14097
                      -0.71665                      25.01935                      -8.91251
                      -0.76269                      27.11371                      -9.68301
                      -0.79782                      28.85868                     -10.32443
                      -0.82431                      30.25278                     -10.84123
                      -0.85166                      31.63621                     -11.38583
                      -0.86273                      32.33531                     -11.63676
        </DataArray>
        <DataArray type="Float32" Name="RotationalVelocity" NumberOfComponents="3" format="ascii">
                       0.54697                       0.00027                      -0.04913
                       0.54687                       0.00025                      -0.04911
                       0.54661                       0.00020                      -0.04906
                       0.54628                       0.00013                      -0.04901
                       0.54581                       0.00001                      -0.04895
                       0.54522                      -0.00019                      -0.04889
                       0.54465                      -0.00046                      -0.04884
                       0.54412                      -0.00082                      -0.04882
                       0.54367                      -0.00130                      -0.04880
                       0.54329                      -0.00188                      -0.04877
                       0.54298                      -0.00259                      -0.04873
                       0.54275                      -0.00340                      -0.04866
                       0.54258                      -0.00431                      -0.04854
                       0.54245                      -0.00528                      -0.04837
                       0.54235                      -0.00625                      -0.04816
                       0.54228                      -0.00701                      -0.04795
                       0.54224                      -0.00755                      -0.04778
                       0.54221                      -0.00800                      -0.04759
                       0.54219                      -0.00818                      -0.04750
        </DataArray>
        <DataArray type="Float32" Name="TranslationalAcceleration" NumberOfComponents="3" format="ascii">
                       0.01279                       0.22734                       0.39611
                       0.03680                       0.26790                       0.48149
                       0.10935                       0.74218                       1.38938
                       0.18036                       1.16227                       2.23354
                       0.26729                       1.64116                       3.22465
                       0.36750                       2.21526                       4.32905
                       0.46495                       2.80398                       5.38217
                       0.56275                       3.38809                       6.43030
                       0.66179                       3.97619                       7.48743
                       0.76268                       4.57056                       8.55839
                       0.86582                       5.16925                       9.64135
                       0.97137                       5.76936                      10.72969
                       1.07939                       6.36682                      11.81573
                       1.18987                       6.95825                      12.89324
                       1.30283                       7.54241                      13.96008
                       1.39894                       8.02501                      14.84402
                       1.47694                       8.41349                      15.55127
                       1.55534                       8.82065                      16.25868
                       1.59562                       9.01624                      16.62372
        </DataArray>
        <DataArray type="Float32" Name="OrientationX" NumberOfComponents="3" format="ascii">
                       0.95762                       0.20119                      -0.20613
                       0.95765                       0.20127                      -0.20592
                       0.95774                       0.20152                      -0.20526
                       0.95787                       0.20187                      -0.20429
                       0.95809                       0.20246                      -0.20268
                       0.96617                       0.17405                      -0.19033
                       0.97155                       0.15394                      -0.17997
                       0.97596                       0.13668                      -0.16976
                       0.98025                       0.11852                      -0.15834
                       0.98425                       0.09994                      -0.14583
                       0.98769                       0.08261                      -0.13280
                       0.99073                       0.06554                      -0.11899
                       0.99318                       0.05033                      -0.10516
                       0.99494                       0.03933                      -0.09244
                       0.99640                       0.02845                      -0.07986
                       0.99738                       0.01919                      -0.06981
                       0.99796                       0.01223                      -0.06262
                       0.99830                       0.00882                      -0.05765
                       0.99837                       0.00918                      -0.05637
        </DataArray>
        <DataArray type="Float32" Name="OrientationY" NumberOfComponents="3" format="ascii">
                       0.25840                      -0.91625                       0.30613
                       0.25840                      -0.91626                       0.30611
                       0.25839                      -0.91628                       0.30605
                       0.25837                      -0.91631                       0.30598
                       0.25835                      -0.91634                       0.30589
                       0.22764                      -0.92240                       0.31203
                       0.20532                      -0.92623                       0.31612
                       0.18570                      -0.92922                       0.31948
                       0.16483                      -0.93200                       0.32282
                       0.14319                      -0.93446                       0.32602
                       0.12252                      -0.93642                       0.32879
                       0.10184                      -0.93803                       0.33126
                       0.08288                      -0.93920                       0.33323
                       0.06824                      -0.93992                       0.33450
                       0.05375                      -0.94047                       0.33560
                       0.04165                      -0.94080                       0.33640
                       0.03267                      -0.94095                       0.33696
                       0.02779                      -0.94099                       0.33728
                       0.02770                      -0.94098                       0.33734
        </DataArray>
        <DataArray type="Float32" Name="OrientationZ" NumberOfComponents="3" format="ascii">
                      -0.12728                      -0.34642                      -0.92941
                      -0.12707                      -0.34635                      -0.92946
                      -0.12640                      -0.34615                      -0.92962
                      -0.12542                      -0.34587                      -0.92986
                      -0.12379                      -0.34543                      -0.93024
                      -0.12125                      -0.34480                      -0.93081
                      -0.11803                      -0.34408                      -0.93149
                      -0.11408                      -0.34332                      -0.93226
                      -0.10931                      -0.34254                      -0.93312
                      -0.10368                      -0.34177                      -0.93405
                      -0.09720                      -0.34101                      -0.93502
                      -0.08991                      -0.34031                      -0.93601
                      -0.08199                      -0.33967                      -0.93696
                      -0.07373                      -0.33912                      -0.93785
                      -0.06555                      -0.33868                      -0.93861
                      -0.05922                      -0.33843                      -0.93913
                      -0.05480                      -0.33832                      -0.93943
                      -0.05128                      -0.33831                      -0.93964
                      -0.04994                      -0.33835                      -0.93969
        </DataArray>
        <DataArray type="Float32" Name="Force" NumberOfComponents="3" format="ascii">
                       0.05782                      -1.74760                       0.64347
                     120.90302                     -27.94995                      -6.11128
                     146.68201                     -54.13784                       0.23224
                     122.04397                     -59.84494                       5.83964
                     966.21220                     299.82078                    -240.31310
                     969.59585                     256.02913                    -221.70564
                    1096.86224                     265.21042                    -237.78989
                    1007.63417                     225.33739                    -207.22332
                    1001.61744                     225.30462                    -201.20978
                    1176.92453                     280.93886                    -235.16914
                    1306.49313                     335.47131                    -260.52880
                    1510.49303                     382.79393                    -287.28179
                    1804.95152                     398.68010                    -305.88756
                    1927.46215                     397.41781                    -298.82761
                    2017.70785                     387.36442                    -284.32301
                    2078.72454                     375.76196                    -270.04866
                    2037.84220                     349.91852                    -248.19922
                    1519.44750                     254.30849                    -176.84962
                     477.83390                      -0.65471                     -25.10171
        </DataArray>
        <DataArray type="Float32" Name="Moment" NumberOfComponents="3" format="ascii">
                       0.00000                       0.00000                       0.00000
                       0.00000                       0.00000                       0.00000
                       0.00000                       0.00000                       0.00000
                       0.00000                       0.00000                       0.00000
                      60.00108                     167.97525                     450.81292
                      69.17545                     197.77511                     530.92206
                      69.32581                     203.68205                     546.95119
                      70.20765                     213.50894                     573.56082
                      65.83134                     209.01651                     561.75304
                      59.15685                     198.10407                     532.71564
                      44.88403                     160.41795                     431.64630
                      38.22783                     147.77174                     397.89851
                      34.28189                     145.38824                     391.77971
                      29.96034                     141.37217                     381.26076
                      25.97354                     137.90702                     372.20798
                      22.20394                     130.55471                     352.57852
                      18.04438                     114.67588                     309.82695
                       8.71890                      59.23281                     160.08699
                       7.56569                      52.77188                     142.64338
        </DataArray>
      </PointData>
      <Lines>
        <DataArray type="Int32" Name="connectivity" format="ascii">
      0      1
      1      2
      2      3
      3      4
      4      5
      5      6
      6      7
      7      8
      8      9
      9     10
     10     11
     11     12
     12     13
     13     14
     14     15
     15     16
     16     17
     17     18
        </DataArray>
        <DataArray type="Int32" Name="offsets" format="ascii">
      2
      4
      6
      8
     10
     12
     14
     16
     18
     20
     22
     24
     26
     28
     30
     32
     34
     36
        </DataArray>
      </Lines>
    </Piece>
  </PolyData>
</VTKFile>
