<?xml version="1.0"?>
<VTKFile type="PolyData" version="0.1" byte_order="LittleEndian">
  <PolyData>
    <Piece NumberOfPoints="     19" NumberOfVerts="  0" NumberOfLines="     18"
           NumberOfStrips="  0" NumberOfPolys="      0">
      <Points>
        <DataArray type="Float32" NumberOfComponents="3" format="ascii">
                      -5.01547                       1.49743                      90.02199
                      -5.07433                       2.86272                      90.04169
                      -5.20550                       5.59158                      90.17616
                      -5.34254                       8.31987                      90.35446
                      -5.51657                      11.73032                      90.60169
                      -5.68314                      15.82648                      90.74684
                      -5.83414                      19.92454                      90.75547
                      -5.98372                      24.02260                      90.75691
                      -6.12872                      28.12076                      90.74952
                      -6.26884                      32.21900                      90.73575
                      -6.40415                      36.31729                      90.71992
                      -6.53316                      40.41569                      90.70106
                      -6.65572                      44.51421                      90.67975
                      -6.77194                      48.61284                      90.65653
                      -6.87965                      52.71165                      90.63165
                      -6.96256                      56.12750                      90.60968
                      -7.02553                      58.86017                      90.58343
                      -7.09051                      61.59282                      90.50158
                      -7.11863                      62.95914                      90.50183
        </DataArray>
      </Points>
      <PointData>
        <DataArray type="Float32" Name="TranslationalVelocity" NumberOfComponents="3" format="ascii">
                       0.03621                      -0.00299                       0.44944
                       0.07238                      -0.00735                       0.85921
                       0.14467                      -0.04425                       1.67823
                       0.21693                      -0.09415                       2.49707
                       0.30723                      -0.16377                       3.52063
                       0.41567                      -0.20295                       4.74999
                       0.52415                      -0.20157                       5.97989
                       0.63260                      -0.19808                       7.20976
                       0.74106                      -0.19206                       8.43964
                       0.84954                      -0.18425                       9.66951
                       0.95807                      -0.17596                      10.89936
                       1.06667                      -0.16691                      12.12923
                       1.17538                      -0.15731                      13.35910
                       1.28421                      -0.14729                      14.58898
                       1.39319                      -0.13700                      15.81889
                       1.48413                      -0.12822                      16.84385
                       1.55697                      -0.11868                      17.66380
                       1.62989                      -0.09240                      18.48375
                       1.66637                      -0.09172                      18.89371
        </DataArray>
        <DataArray type="Float32" Name="RotationalVelocity" NumberOfComponents="3" format="ascii">
                       0.30014                      -0.00006                      -0.02650
                       0.30014                      -0.00006                      -0.02650
                       0.30013                      -0.00006                      -0.02649
                       0.30013                      -0.00006                      -0.02649
                       0.30013                      -0.00006                      -0.02648
                       0.30012                      -0.00007                      -0.02647
                       0.30012                      -0.00007                      -0.02647
                       0.30011                      -0.00007                      -0.02647
                       0.30011                      -0.00008                      -0.02647
                       0.30010                      -0.00009                      -0.02648
                       0.30009                      -0.00010                      -0.02649
                       0.30009                      -0.00012                      -0.02651
                       0.30008                      -0.00014                      -0.02654
                       0.30008                      -0.00017                      -0.02657
                       0.30007                      -0.00019                      -0.02661
                       0.30007                      -0.00021                      -0.02664
                       0.30006                      -0.00023                      -0.02666
                       0.30006                      -0.00024                      -0.02668
                       0.30006                      -0.00024                      -0.02669
        </DataArray>
        <DataArray type="Float32" Name="TranslationalAcceleration" NumberOfComponents="3" format="ascii">
                       0.05373                      -0.13615                       0.02172
                       0.01732                      -0.16467                       0.02150
                       0.04240                      -0.47195                       0.05327
                       0.05754                      -0.75558                       0.07706
                       0.06735                      -1.08746                       0.10128
                       0.07217                      -1.46262                       0.14036
                       0.07445                      -1.82576                       0.19034
                       0.07671                      -2.18760                       0.24091
                       0.08069                      -2.55292                       0.29295
                       0.08682                      -2.92326                       0.34645
                       0.09456                      -3.29782                       0.40091
                       0.10284                      -3.67436                       0.45607
                       0.11039                      -4.05022                       0.51145
                       0.11607                      -4.42326                       0.56665
                       0.11926                      -4.79272                       0.62148
                       0.12014                      -5.09890                       0.66694
                       0.12028                      -5.34424                       0.70424
                       0.12109                      -5.59168                       0.74711
                       0.12158                      -5.71787                       0.76515
        </DataArray>
        <DataArray type="Float32" Name="OrientationX" NumberOfComponents="3" format="ascii">
                       0.98873                       0.04055                       0.14414
                       0.98873                       0.04051                       0.14414
                       0.98873                       0.04038                       0.14414
                       0.98874                       0.04020                       0.14414
                       0.98875                       0.03989                       0.14415
                       0.99285                       0.03983                       0.11252
                       0.99519                       0.03939                       0.08964
                       0.99682                       0.03864                       0.06965
                       0.99811                       0.03762                       0.04851
                       0.99898                       0.03630                       0.02677
                       0.99938                       0.03467                       0.00624
                       0.99936                       0.03276                      -0.01408
                       0.99901                       0.03061                      -0.03243
                       0.99853                       0.02830                      -0.04625
                       0.99787                       0.02596                      -0.05982
                       0.99717                       0.02410                      -0.07115
                       0.99657                       0.02276                      -0.07957
                       0.99623                       0.02164                      -0.08401
                       0.99624                       0.02119                      -0.08395
        </DataArray>
        <DataArray type="Float32" Name="OrientationY" NumberOfComponents="3" format="ascii">
                       0.14351                       0.01808                      -0.98948
                       0.14352                       0.01787                      -0.98949
                       0.14355                       0.01731                      -0.98949
                       0.14358                       0.01662                      -0.98950
                       0.14363                       0.01563                      -0.98951
                       0.11208                       0.01309                      -0.99361
                       0.08928                       0.01093                      -0.99595
                       0.06935                       0.00897                      -0.99755
                       0.04828                       0.00711                      -0.99881
                       0.02659                       0.00539                      -0.99963
                       0.00611                       0.00389                      -0.99997
                      -0.01417                       0.00258                      -0.99990
                      -0.03249                       0.00149                      -0.99947
                      -0.04629                       0.00069                      -0.99893
                      -0.05984                       0.00001                      -0.99821
                      -0.07116                      -0.00048                      -0.99746
                      -0.07957                      -0.00081                      -0.99683
                      -0.08401                      -0.00101                      -0.99646
                      -0.08395                      -0.00105                      -0.99647
        </DataArray>
        <DataArray type="Float32" Name="OrientationZ" NumberOfComponents="3" format="ascii">
                      -0.04273                       0.99901                       0.01205
                      -0.04266                       0.99902                       0.01185
                      -0.04245                       0.99903                       0.01132
                      -0.04217                       0.99905                       0.01066
                      -0.04173                       0.99908                       0.00972
                      -0.04105                       0.99912                       0.00853
                      -0.04021                       0.99916                       0.00736
                      -0.03917                       0.99921                       0.00626
                      -0.03792                       0.99927                       0.00528
                      -0.03643                       0.99933                       0.00442
                      -0.03470                       0.99939                       0.00368
                      -0.03272                       0.99946                       0.00304
                      -0.03055                       0.99953                       0.00248
                      -0.02824                       0.99960                       0.00200
                      -0.02592                       0.99966                       0.00156
                      -0.02407                       0.99971                       0.00123
                      -0.02275                       0.99974                       0.00100
                      -0.02165                       0.99977                       0.00081
                      -0.02121                       0.99977                       0.00073
        </DataArray>
        <DataArray type="Float32" Name="Force" NumberOfComponents="3" format="ascii">
                      17.97325                       0.75540                       1.10236
                     154.32805                       6.72026                     -11.05625
                     167.25369                       7.38140                     -23.62565
                     126.70624                       5.65584                     -26.81531
                     889.40602                      34.30222                     223.34929
                     840.42427                      32.27372                     169.01390
                     872.64420                      32.93563                     155.72494
                     767.50768                      28.39533                     113.25224
                     688.39746                      24.88496                      73.96035
                     697.46221                      24.31412                      59.55605
                     649.88454                      21.81552                      27.59103
                     651.93979                      20.72681                      13.91372
                     561.02290                      16.79831                      -6.31873
                     557.06330                      15.46194                     -14.09397
                     548.97109                      14.02284                     -21.21344
                     538.82046                      12.81536                     -26.30484
                     514.75673                      11.57500                     -27.18811
                     375.92010                       7.99965                     -16.54703
                     398.83744                       7.84013                      28.88507
        </DataArray>
        <DataArray type="Float32" Name="Moment" NumberOfComponents="3" format="ascii">
                       0.00000                       0.00000                       0.00000
                       0.00000                       0.00000                       0.00000
                       0.00000                       0.00000                       0.00000
                       0.00000                       0.00000                       0.00000
                      26.89388                    -646.93521                      -7.73793
                      27.32764                    -669.90536                      -7.96667
                      25.03235                    -628.16959                      -7.41801
                      23.28713                    -601.35155                      -7.04160
                      20.76620                    -555.32665                      -6.43746
                      18.34921                    -511.99052                      -5.86479
                      14.47028                    -424.99764                      -4.80110
                      12.46970                    -389.31557                      -4.32865
                      10.42891                    -349.73745                      -3.82034
                       8.63427                    -314.14469                      -3.36681
                       6.99071                    -278.09638                      -2.92284
                       5.76953                    -247.84260                      -2.56420
                       4.61528                    -210.30082                      -2.15105
                       2.10279                    -100.92931                      -1.02244
                       0.89159                     -43.73076                      -0.44128
        </DataArray>
      </PointData>
      <Lines>
        <DataArray type="Int32" Name="connectivity" format="ascii">
      0      1
      1      2
      2      3
      3      4
      4      5
      5      6
      6      7
      7      8
      8      9
      9     10
     10     11
     11     12
     12     13
     13     14
     14     15
     15     16
     16     17
     17     18
        </DataArray>
        <DataArray type="Int32" Name="offsets" format="ascii">
      2
      4
      6
      8
     10
     12
     14
     16
     18
     20
     22
     24
     26
     28
     30
     32
     34
     36
        </DataArray>
      </Lines>
    </Piece>
  </PolyData>
</VTKFile>
