<?xml version="1.0"?>
<VTKFile type="PolyData" version="0.1" byte_order="LittleEndian">
  <PolyData>
    <Piece NumberOfPoints="     19" NumberOfVerts="  0" NumberOfLines="     18"
           NumberOfStrips="  0" NumberOfPolys="      0">
      <Points>
        <DataArray type="Float32" NumberOfComponents="3" format="ascii">
                      -4.92915                      -0.77896                      91.28339
                      -4.88735                      -1.49076                      92.44934
                      -4.82996                      -2.99524                      94.73294
                      -4.78443                      -4.53859                      96.99327
                      -4.73367                      -6.49187                      99.80416
                      -4.61091                      -8.71688                     103.24702
                      -4.45472                     -10.83392                     106.75434
                      -4.29642                     -12.95131                     110.26138
                      -4.13281                     -15.06743                     113.76902
                      -3.96413                     -17.18370                     117.27639
                      -3.79129                     -19.30295                     120.78177
                      -3.61299                     -21.42361                     124.28605
                      -3.42956                     -23.54538                     127.78943
                      -3.24153                     -25.66800                     131.29208
                      -3.04721                     -27.79137                     134.79396
                      -2.88046                     -29.56135                     137.71169
                      -2.74406                     -30.97086                     140.04965
                      -2.60364                     -32.33379                     142.41614
                      -2.53522                     -33.05082                     143.57750
        </DataArray>
      </Points>
      <PointData>
        <DataArray type="Float32" Name="TranslationalVelocity" NumberOfComponents="3" format="ascii">
                      -0.05642                      -0.11858                      -0.07710
                      -0.06335                      -0.22746                      -0.14332
                      -0.07788                      -0.44057                      -0.28335
                      -0.09274                      -0.65152                      -0.42710
                      -0.11153                      -0.91399                      -0.60916
                      -0.13319                      -1.23623                      -0.81670
                      -0.15402                      -1.56508                      -1.01432
                      -0.17488                      -1.89423                      -1.21215
                      -0.19582                      -2.22375                      -1.41001
                      -0.21695                      -2.55351                      -1.60799
                      -0.23840                      -2.88328                      -1.80632
                      -0.26035                      -3.21310                      -2.00481
                      -0.28300                      -3.54293                      -2.20339
                      -0.30659                      -3.87275                      -2.40199
                      -0.33141                      -4.20253                      -2.60058
                      -0.35330                      -4.47732                      -2.76602
                      -0.37166                      -4.69753                      -2.89771
                      -0.39061                      -4.92045                      -3.02497
                      -0.40075                      -5.02985                      -3.09192
        </DataArray>
        <DataArray type="Float32" Name="RotationalVelocity" NumberOfComponents="3" format="ascii">
                       0.09307                      -0.00095                      -0.00818
                       0.09308                      -0.00096                      -0.00818
                       0.09312                      -0.00097                      -0.00819
                       0.09317                      -0.00097                      -0.00819
                       0.09324                      -0.00098                      -0.00820
                       0.09334                      -0.00099                      -0.00820
                       0.09342                      -0.00099                      -0.00821
                       0.09350                      -0.00100                      -0.00821
                       0.09357                      -0.00103                      -0.00822
                       0.09362                      -0.00108                      -0.00825
                       0.09366                      -0.00116                      -0.00829
                       0.09368                      -0.00129                      -0.00836
                       0.09368                      -0.00146                      -0.00846
                       0.09368                      -0.00169                      -0.00858
                       0.09367                      -0.00198                      -0.00875
                       0.09366                      -0.00225                      -0.00891
                       0.09365                      -0.00249                      -0.00905
                       0.09364                      -0.00275                      -0.00920
                       0.09364                      -0.00288                      -0.00928
        </DataArray>
        <DataArray type="Float32" Name="TranslationalAcceleration" NumberOfComponents="3" format="ascii">
                       0.08384                      -0.00404                      -0.00705
                       0.02611                      -0.00458                      -0.01815
                       0.06417                      -0.01247                      -0.05359
                       0.08633                      -0.01864                      -0.08803
                       0.09830                      -0.02511                      -0.13011
                       0.09739                      -0.03371                      -0.17868
                       0.08725                      -0.04348                      -0.22589
                       0.07266                      -0.05295                      -0.27276
                       0.05647                      -0.06235                      -0.31974
                       0.04005                      -0.07191                      -0.36705
                       0.02382                      -0.08180                      -0.41477
                       0.00778                      -0.09225                      -0.46291
                      -0.00785                      -0.10339                      -0.51147
                      -0.02215                      -0.11530                      -0.56048
                      -0.03286                      -0.12801                      -0.61007
                      -0.03598                      -0.13917                      -0.65204
                      -0.03236                      -0.14859                      -0.68620
                      -0.02051                      -0.15904                      -0.72094
                      -0.01061                      -0.16389                      -0.73878
        </DataArray>
        <DataArray type="Float32" Name="OrientationX" NumberOfComponents="3" format="ascii">
                       0.96121                      -0.21878                      -0.16795
                       0.96121                      -0.21873                      -0.16803
                       0.96120                      -0.21860                      -0.16827
                       0.96118                      -0.21841                      -0.16862
                       0.96115                      -0.21811                      -0.16919
                       0.96935                      -0.19122                      -0.15423
                       0.97463                      -0.17156                      -0.14372
                       0.97881                      -0.15421                      -0.13474
                       0.98278                      -0.13582                      -0.12527
                       0.98641                      -0.11683                      -0.11556
                       0.98939                      -0.09876                      -0.10652
                       0.99194                      -0.08078                      -0.09764
                       0.99388                      -0.06438                      -0.08978
                       0.99510                      -0.05178                      -0.08424
                       0.99612                      -0.03940                      -0.07873
                       0.99684                      -0.02911                      -0.07397
                       0.99729                      -0.02149                      -0.07035
                       0.99749                      -0.01734                      -0.06863
                       0.99748                      -0.01727                      -0.06888
        </DataArray>
        <DataArray type="Float32" Name="OrientationY" NumberOfComponents="3" format="ascii">
                       0.27403                       0.82656                       0.49163
                       0.27404                       0.82652                       0.49171
                       0.27405                       0.82640                       0.49190
                       0.27408                       0.82625                       0.49213
                       0.27413                       0.82603                       0.49246
                       0.24342                       0.83228                       0.49804
                       0.22119                       0.83617                       0.50189
                       0.20174                       0.83917                       0.50507
                       0.18114                       0.84199                       0.50817
                       0.15990                       0.84453                       0.51109
                       0.13980                       0.84656                       0.51361
                       0.11985                       0.84823                       0.51589
                       0.10180                       0.84943                       0.51779
                       0.08818                       0.85013                       0.51913
                       0.07478                       0.85067                       0.52036
                       0.06353                       0.85100                       0.52130
                       0.05516                       0.85119                       0.52196
                       0.05073                       0.85126                       0.52229
                       0.05080                       0.85125                       0.52229
        </DataArray>
        <DataArray type="Float32" Name="OrientationZ" NumberOfComponents="3" format="ascii">
                       0.03126                      -0.51859                       0.85445
                       0.03132                      -0.51868                       0.85440
                       0.03153                      -0.51892                       0.85424
                       0.03183                      -0.51924                       0.85403
                       0.03234                      -0.51971                       0.85373
                       0.03312                      -0.52032                       0.85333
                       0.03407                      -0.52095                       0.85291
                       0.03518                      -0.52155                       0.85249
                       0.03645                      -0.52211                       0.85210
                       0.03788                      -0.52262                       0.85173
                       0.03945                      -0.52306                       0.85138
                       0.04115                      -0.52344                       0.85107
                       0.04293                      -0.52376                       0.85079
                       0.04473                      -0.52402                       0.85053
                       0.04647                      -0.52422                       0.85031
                       0.04778                      -0.52435                       0.85016
                       0.04867                      -0.52442                       0.85006
                       0.04936                      -0.52447                       0.85000
                       0.04962                      -0.52447                       0.84998
        </DataArray>
        <DataArray type="Float32" Name="Force" NumberOfComponents="3" format="ascii">
                     158.34175                       4.15411                      -3.27254
                     159.35326                       5.61373                      -2.43563
                     175.60615                       9.32451                      -0.82372
                     134.61750                       9.53456                       0.76607
                     821.65408                    -264.55923                    -191.74622
                     766.19239                    -210.44253                    -157.53329
                     759.87042                    -192.02853                    -146.99513
                     667.19544                    -150.07018                    -118.71672
                     598.21975                    -112.97524                     -94.26176
                     577.82642                     -97.49715                     -84.98226
                     538.94215                     -71.22009                     -68.30569
                     516.96473                     -58.70947                     -60.73282
                     454.67972                     -40.71326                     -47.74324
                     429.43517                     -32.94675                     -42.66579
                     402.65379                     -25.85994                     -37.77416
                     379.03920                     -20.39566                     -33.74777
                     348.43696                     -15.96383                     -29.69790
                     241.23202                      -9.94938                     -20.08791
                     243.12498                      -9.95263                     -20.27268
        </DataArray>
        <DataArray type="Float32" Name="Moment" NumberOfComponents="3" format="ascii">
                       0.00000                       0.00000                       0.00000
                       0.00000                       0.00000                       0.00000
                       0.00000                       0.00000                       0.00000
                       0.00000                       0.00000                       0.00000
                     -23.06628                     369.19308                    -608.23068
                     -24.64604                     384.86452                    -633.99600
                     -23.79311                     360.90444                    -594.46616
                     -23.15428                     339.88485                    -559.77801
                     -21.68282                     307.00987                    -505.56664
                     -20.20309                     275.15881                    -453.04848
                     -17.24368                     225.42074                    -371.09402
                     -15.94947                     199.87187                    -328.97676
                     -14.43860                     173.42485                    -285.39394
                     -12.98931                     149.73677                    -246.36609
                     -11.47527                     127.35903                    -209.50985
                     -10.16899                     109.77259                    -180.55512
                      -8.56868                      90.80677                    -149.34619
                      -4.08135                      42.64710                     -70.13493
                      -4.12684                      42.90384                     -70.55532
        </DataArray>
      </PointData>
      <Lines>
        <DataArray type="Int32" Name="connectivity" format="ascii">
      0      1
      1      2
      2      3
      3      4
      4      5
      5      6
      6      7
      7      8
      8      9
      9     10
     10     11
     11     12
     12     13
     13     14
     14     15
     15     16
     16     17
     17     18
        </DataArray>
        <DataArray type="Int32" Name="offsets" format="ascii">
      2
      4
      6
      8
     10
     12
     14
     16
     18
     20
     22
     24
     26
     28
     30
     32
     34
     36
        </DataArray>
      </Lines>
    </Piece>
  </PolyData>
</VTKFile>
