<?xml version="1.0"?>
<VTKFile type="PolyData" version="0.1" byte_order="LittleEndian">
  <PolyData>
    <Piece NumberOfPoints="     19" NumberOfVerts="  0" NumberOfLines="     18"
           NumberOfStrips="  0" NumberOfPolys="      0">
      <Points>
        <DataArray type="Float32" NumberOfComponents="3" format="ascii">
                      -5.01402                      -1.47755                      90.26082
                      -5.05422                      -2.82380                      90.49290
                      -5.16463                      -5.53144                      90.86470
                      -5.28870                      -8.24639                      91.19149
                      -5.45092                     -11.64465                      91.57111
                      -5.57777                     -15.70136                      92.15809
                      -5.66561                     -19.73842                      92.86536
                      -5.75076                     -23.77610                      93.56982
                      -5.82988                     -27.81418                      94.27331
                      -5.90322                     -31.85287                      94.97444
                      -5.97179                     -35.89263                      95.67027
                      -6.03422                     -39.93312                      96.36282
                      -6.09083                     -43.97419                      97.05274
                      -6.14220                     -48.01572                      97.74062
                      -6.18671                     -52.05769                      98.42664
                      -6.21861                     -55.42631                      98.99706
                      -6.24062                     -58.12007                      99.46043
                      -6.25628                     -60.80527                      99.97728
                      -6.26755                     -62.15445                     100.19445
        </DataArray>
      </Points>
      <PointData>
        <DataArray type="Float32" Name="TranslationalVelocity" NumberOfComponents="3" format="ascii">
                       0.01539                      -0.03792                      -0.22022
                      -0.00237                      -0.07249                      -0.42379
                      -0.03809                      -0.12726                      -0.83324
                      -0.07389                      -0.17505                      -1.24383
                      -0.11860                      -0.23035                      -1.75786
                      -0.17170                      -0.31751                      -2.37169
                      -0.22420                      -0.42343                      -2.98276
                      -0.27639                      -0.52900                      -3.59413
                      -0.32823                      -0.63455                      -4.20578
                      -0.37966                      -0.73986                      -4.81771
                      -0.43065                      -0.84447                      -5.43001
                      -0.48118                      -0.94871                      -6.04259
                      -0.53121                      -1.05265                      -6.65543
                      -0.58073                      -1.15639                      -7.26848
                      -0.62975                      -1.25995                      -7.88171
                      -0.67023                      -1.34613                      -8.39287
                      -0.70238                      -1.41620                      -8.80167
                      -0.73420                      -1.49446                      -9.20920
                      -0.75016                      -1.52729                      -9.41397
        </DataArray>
        <DataArray type="Float32" Name="RotationalVelocity" NumberOfComponents="3" format="ascii">
                       0.15123                       0.00062                      -0.01330
                       0.15123                       0.00062                      -0.01329
                       0.15125                       0.00063                      -0.01328
                       0.15127                       0.00063                      -0.01325
                       0.15130                       0.00064                      -0.01321
                       0.15135                       0.00065                      -0.01316
                       0.15140                       0.00066                      -0.01309
                       0.15145                       0.00067                      -0.01301
                       0.15150                       0.00069                      -0.01292
                       0.15154                       0.00070                      -0.01281
                       0.15159                       0.00072                      -0.01270
                       0.15163                       0.00074                      -0.01258
                       0.15167                       0.00075                      -0.01246
                       0.15170                       0.00077                      -0.01233
                       0.15173                       0.00078                      -0.01221
                       0.15175                       0.00078                      -0.01212
                       0.15176                       0.00079                      -0.01205
                       0.15176                       0.00079                      -0.01201
                       0.15176                       0.00079                      -0.01199
        </DataArray>
        <DataArray type="Float32" Name="TranslationalAcceleration" NumberOfComponents="3" format="ascii">
                       0.06598                       0.02993                      -0.01116
                       0.01830                       0.03798                      -0.01994
                       0.04395                       0.10984                      -0.05634
                       0.05759                       0.17730                      -0.08948
                       0.06331                       0.25712                      -0.12834
                       0.06000                       0.34629                      -0.17586
                       0.05190                       0.43142                      -0.22500
                       0.04320                       0.51643                      -0.27371
                       0.03611                       0.60244                      -0.32251
                       0.03140                       0.68980                      -0.37159
                       0.02882                       0.77828                      -0.42095
                       0.02750                       0.86730                      -0.47054
                       0.02641                       0.95618                      -0.52025
                       0.02476                       1.04439                      -0.56994
                       0.02247                       1.13175                      -0.61956
                       0.02080                       1.20416                      -0.66087
                       0.02050                       1.26209                      -0.69425
                       0.02237                       1.32002                      -0.72911
                       0.02460                       1.34991                      -0.74582
        </DataArray>
        <DataArray type="Float32" Name="OrientationX" NumberOfComponents="3" format="ascii">
                       0.94924                      -0.08083                      -0.30398
                       0.94925                      -0.08072                      -0.30400
                       0.94925                      -0.08036                      -0.30407
                       0.94926                      -0.07985                      -0.30418
                       0.94927                      -0.07903                      -0.30436
                       0.95879                      -0.07294                      -0.27460
                       0.96504                      -0.06804                      -0.25310
                       0.97009                      -0.06344                      -0.23432
                       0.97499                      -0.05853                      -0.21442
                       0.97957                      -0.05341                      -0.19389
                       0.98347                      -0.04836                      -0.17447
                       0.98694                      -0.04324                      -0.15519
                       0.98972                      -0.03838                      -0.13775
                       0.99161                      -0.03423                      -0.12465
                       0.99328                      -0.03022                      -0.11172
                       0.99454                      -0.02703                      -0.10084
                       0.99539                      -0.02475                      -0.09271
                       0.99581                      -0.02332                      -0.08844
                       0.99581                      -0.02306                      -0.08853
        </DataArray>
        <DataArray type="Float32" Name="OrientationY" NumberOfComponents="3" format="ascii">
                       0.31323                       0.15499                       0.93694
                       0.31323                       0.15482                       0.93697
                       0.31323                       0.15437                       0.93705
                       0.31323                       0.15381                       0.93714
                       0.31325                       0.15302                       0.93726
                       0.28287                       0.15443                       0.94665
                       0.26083                       0.15503                       0.95286
                       0.24153                       0.15538                       0.95787
                       0.22108                       0.15581                       0.96273
                       0.19997                       0.15628                       0.96726
                       0.17998                       0.15669                       0.97111
                       0.16012                       0.15710                       0.97452
                       0.14211                       0.15741                       0.97725
                       0.12852                       0.15756                       0.97911
                       0.11511                       0.15771                       0.98075
                       0.10386                       0.15785                       0.98199
                       0.09547                       0.15795                       0.98282
                       0.09102                       0.15799                       0.98324
                       0.09108                       0.15797                       0.98323
        </DataArray>
        <DataArray type="Float32" Name="OrientationZ" NumberOfComponents="3" format="ascii">
                      -0.02862                      -0.98460                       0.17244
                      -0.02857                      -0.98464                       0.17224
                      -0.02837                      -0.98474                       0.17171
                      -0.02804                      -0.98487                       0.17101
                      -0.02750                      -0.98506                       0.17001
                      -0.02664                      -0.98531                       0.16869
                      -0.02559                      -0.98556                       0.16735
                      -0.02436                      -0.98581                       0.16606
                      -0.02294                      -0.98605                       0.16486
                      -0.02136                      -0.98627                       0.16377
                      -0.01962                      -0.98646                       0.16281
                      -0.01776                      -0.98664                       0.16197
                      -0.01582                      -0.98679                       0.16125
                      -0.01388                      -0.98692                       0.16063
                      -0.01202                      -0.98702                       0.16013
                      -0.01062                      -0.98709                       0.15979
                      -0.00968                      -0.98714                       0.15959
                      -0.00895                      -0.98717                       0.15945
                      -0.00869                      -0.98717                       0.15941
        </DataArray>
        <DataArray type="Float32" Name="Force" NumberOfComponents="3" format="ascii">
                     155.81940                      -3.89388                       3.63223
                     156.51646                      -3.43710                       6.29221
                     171.92362                      -2.72194                      12.68051
                     131.48192                      -1.26506                      14.07310
                     843.72969                     -87.62849                    -367.06154
                     778.61115                     -72.59897                    -295.99893
                     783.24241                     -68.61868                    -277.98121
                     678.12575                     -54.58863                    -218.52763
                     598.24934                     -42.82484                    -167.63610
                     585.31066                     -38.58967                    -150.86251
                     538.83433                     -30.49599                    -115.82934
                     524.62428                     -26.82149                    -102.27667
                     449.52721                     -19.62072                     -73.61425
                     429.87861                     -16.82601                     -64.30881
                     408.55767                     -14.24459                     -55.62783
                     389.27570                     -12.26581                     -48.73205
                     361.58016                     -10.53303                     -42.34634
                     252.43060                      -6.93984                     -28.27221
                     255.34142                      -6.93962                     -28.53375
        </DataArray>
        <DataArray type="Float32" Name="Moment" NumberOfComponents="3" format="ascii">
                       0.00000                       0.00000                       0.00000
                       0.00000                       0.00000                       0.00000
                       0.00000                       0.00000                       0.00000
                       0.00000                       0.00000                       0.00000
                      18.05612                     651.41966                    -114.00933
                      18.01923                     673.88024                    -117.88232
                      16.09233                     629.57815                    -110.06727
                      14.34836                     592.92163                    -103.58776
                      12.14395                     535.76802                     -93.53039
                      10.10741                     481.92676                     -84.05942
                       7.52327                     393.14062                     -68.50954
                       6.03115                     350.93867                     -61.09515
                       4.64711                     306.38524                     -53.28444
                       3.50549                     266.56023                     -46.31108
                       2.56906                     228.70210                     -39.69520
                       1.94665                     198.70203                     -34.46308
                       1.46091                     165.48545                     -28.68786
                       0.63165                      78.14072                     -13.54103
                       0.61563                      78.76899                     -13.64805
        </DataArray>
      </PointData>
      <Lines>
        <DataArray type="Int32" Name="connectivity" format="ascii">
      0      1
      1      2
      2      3
      3      4
      4      5
      5      6
      6      7
      7      8
      8      9
      9     10
     10     11
     11     12
     12     13
     13     14
     14     15
     15     16
     16     17
     17     18
        </DataArray>
        <DataArray type="Int32" Name="offsets" format="ascii">
      2
      4
      6
      8
     10
     12
     14
     16
     18
     20
     22
     24
     26
     28
     30
     32
     34
     36
        </DataArray>
      </Lines>
    </Piece>
  </PolyData>
</VTKFile>
