<?xml version="1.0"?>
<VTKFile type="PolyData" version="0.1" byte_order="LittleEndian">
  <PolyData>
    <Piece NumberOfPoints="     19" NumberOfVerts="  0" NumberOfLines="     18"
           NumberOfStrips="  0" NumberOfPolys="      0">
      <Points>
        <DataArray type="Float32" NumberOfComponents="3" format="ascii">
                      -5.12937                      -0.76469                      88.72524
                      -5.29298                      -1.45728                      87.55841
                      -5.64594                      -2.75992                      85.17920
                      -6.01030                      -4.02292                      82.77799
                      -6.47120                      -5.57712                      79.76265
                      -6.96174                      -7.56427                      76.20854
                      -7.41763                      -9.66145                      72.71515
                      -7.86955                     -11.75833                      69.22101
                      -8.31395                     -13.85664                      65.72668
                      -8.75069                     -15.95491                      62.23128
                      -9.18030                     -18.05021                      58.73319
                      -9.60114                     -20.14413                      55.23317
                     -10.01320                     -22.23695                      51.73142
                     -10.41675                     -24.32892                      48.22815
                     -10.80988                     -26.42016                      44.72325
                     -11.12933                     -28.16243                      41.80132
                     -11.37979                     -29.56278                      39.46715
                     -11.62450                     -31.01042                      37.16012
                     -11.74781                     -31.69810                      35.98561
        </DataArray>
      </Points>
      <PointData>
        <DataArray type="Float32" Name="TranslationalVelocity" NumberOfComponents="3" format="ascii">
                      -0.02651                       0.38865                      -0.22936
                      -0.04469                       0.74251                      -0.43685
                      -0.07885                       1.46430                      -0.82698
                      -0.11193                       2.19258                      -1.20506
                      -0.15265                       3.10657                      -1.67003
                      -0.20475                       4.18149                      -2.26403
                      -0.25977                       5.23630                      -2.89030
                      -0.31477                       6.29023                      -3.51586
                      -0.36976                       7.34312                      -4.14129
                      -0.42462                       8.39533                      -4.76622
                      -0.47921                       9.44751                      -5.38988
                      -0.53349                      10.49954                      -6.01284
                      -0.58737                      11.55147                      -6.63527
                      -0.64076                      12.60337                      -7.25734
                      -0.69359                      13.65530                      -7.87911
                      -0.73711                      14.53191                      -8.39710
                      -0.77176                      15.23197                      -8.81340
                      -0.80736                      15.92371                      -9.24370
                      -0.82406                      16.27579                      -9.44809
        </DataArray>
        <DataArray type="Float32" Name="RotationalVelocity" NumberOfComponents="3" format="ascii">
                       0.29961                      -0.00011                      -0.02645
                       0.29956                      -0.00012                      -0.02645
                       0.29943                      -0.00012                      -0.02643
                       0.29927                      -0.00011                      -0.02642
                       0.29904                      -0.00010                      -0.02640
                       0.29874                      -0.00009                      -0.02638
                       0.29846                      -0.00008                      -0.02637
                       0.29819                      -0.00008                      -0.02637
                       0.29795                      -0.00010                      -0.02637
                       0.29775                      -0.00014                      -0.02637
                       0.29759                      -0.00020                      -0.02636
                       0.29746                      -0.00029                      -0.02636
                       0.29736                      -0.00040                      -0.02635
                       0.29728                      -0.00054                      -0.02633
                       0.29722                      -0.00069                      -0.02630
                       0.29718                      -0.00082                      -0.02627
                       0.29715                      -0.00093                      -0.02625
                       0.29713                      -0.00102                      -0.02623
                       0.29713                      -0.00106                      -0.02622
        </DataArray>
        <DataArray type="Float32" Name="TranslationalAcceleration" NumberOfComponents="3" format="ascii">
                       0.06038                       0.08495                       0.11160
                       0.02562                       0.10210                       0.13109
                       0.06710                       0.28564                       0.37913
                       0.09789                       0.45039                       0.60989
                       0.12619                       0.63987                       0.88064
                       0.15031                       0.86344                       1.17956
                       0.16958                       1.08924                       1.46214
                       0.18846                       1.31378                       1.74327
                       0.20898                       1.54022                       2.02682
                       0.23182                       1.76946                       2.31415
                       0.25663                       2.00086                       2.60478
                       0.28249                       2.23325                       2.89682
                       0.30828                       2.46507                       3.18814
                       0.33309                       2.69502                       3.47699
                       0.35663                       2.92262                       3.76280
                       0.37577                       3.11101                       3.99955
                       0.39144                       3.26252                       4.18886
                       0.40825                       3.41958                       4.37738
                       0.41779                       3.49631                       4.47550
        </DataArray>
        <DataArray type="Float32" Name="OrientationX" NumberOfComponents="3" format="ascii">
                       0.95493                       0.17644                      -0.23871
                       0.95494                       0.17650                      -0.23862
                       0.95498                       0.17670                      -0.23830
                       0.95504                       0.17698                      -0.23785
                       0.95514                       0.17744                      -0.23712
                       0.96346                       0.15115                      -0.22113
                       0.96891                       0.13243                      -0.20898
                       0.97329                       0.11626                      -0.19796
                       0.97750                       0.09921                      -0.18613
                       0.98139                       0.08173                      -0.17375
                       0.98467                       0.06536                      -0.16170
                       0.98754                       0.04923                      -0.14950
                       0.98981                       0.03481                      -0.13806
                       0.99138                       0.02429                      -0.12875
                       0.99273                       0.01390                      -0.11956
                       0.99370                       0.00510                      -0.11198
                       0.99432                      -0.00151                      -0.10640
                       0.99467                      -0.00484                      -0.10303
                       0.99471                      -0.00460                      -0.10261
        </DataArray>
        <DataArray type="Float32" Name="OrientationY" NumberOfComponents="3" format="ascii">
                       0.27192                      -0.84247                       0.46507
                       0.27192                      -0.84251                       0.46501
                       0.27190                      -0.84261                       0.46484
                       0.27188                      -0.84274                       0.46462
                       0.27186                      -0.84291                       0.46432
                       0.24125                      -0.84837                       0.47124
                       0.21905                      -0.85185                       0.47578
                       0.19960                      -0.85456                       0.47947
                       0.17899                      -0.85702                       0.48319
                       0.15773                      -0.85916                       0.48680
                       0.13760                      -0.86081                       0.48998
                       0.11759                      -0.86209                       0.49292
                       0.09945                      -0.86297                       0.49537
                       0.08571                      -0.86348                       0.49705
                       0.07215                      -0.86382                       0.49862
                       0.06077                      -0.86398                       0.49985
                       0.05227                      -0.86402                       0.50073
                       0.04771                      -0.86402                       0.50118
                       0.04770                      -0.86402                       0.50119
        </DataArray>
        <DataArray type="Float32" Name="OrientationZ" NumberOfComponents="3" format="ascii">
                      -0.11905                      -0.50902                      -0.85248
                      -0.11896                      -0.50894                      -0.85254
                      -0.11866                      -0.50870                      -0.85272
                      -0.11821                      -0.50840                      -0.85297
                      -0.11748                      -0.50795                      -0.85334
                      -0.11637                      -0.50737                      -0.85384
                      -0.11501                      -0.50676                      -0.85438
                      -0.11342                      -0.50618                      -0.85494
                      -0.11158                      -0.50564                      -0.85550
                      -0.10950                      -0.50515                      -0.85606
                      -0.10717                      -0.50472                      -0.85661
                      -0.10462                      -0.50435                      -0.85714
                      -0.10190                      -0.50405                      -0.85764
                      -0.09910                      -0.50380                      -0.85811
                      -0.09634                      -0.50362                      -0.85854
                      -0.09420                      -0.50350                      -0.85884
                      -0.09269                      -0.50345                      -0.85904
                      -0.09145                      -0.50343                      -0.85918
                      -0.09096                      -0.50343                      -0.85923
        </DataArray>
        <DataArray type="Float32" Name="Force" NumberOfComponents="3" format="ascii">
                      17.02695                      -4.57189                       0.35203
                     124.31667                     -22.69886                      -3.79359
                     151.40363                     -37.60475                       1.38297
                     122.87197                     -36.77121                       4.92277
                     925.89937                     263.45142                    -284.78956
                     861.82566                     206.22061                    -240.60673
                     889.28218                     193.81197                    -235.45563
                     767.61874                     146.51492                    -189.33904
                     672.20942                     103.29661                    -149.37614
                     676.02011                      91.03481                    -140.84626
                     620.65333                      60.43201                    -113.75852
                     621.65461                      49.87684                    -105.68435
                     531.83265                      29.40502                     -80.77479
                     543.37861                      33.37536                     -82.69559
                     558.81780                      39.43138                     -86.25169
                     573.56695                      46.28491                     -90.52700
                     569.28356                      51.29033                     -92.01408
                     433.17219                      46.17240                     -73.63054
                     440.73088                      59.59847                     -82.17336
        </DataArray>
        <DataArray type="Float32" Name="Moment" NumberOfComponents="3" format="ascii">
                       0.00000                       0.00000                       0.00000
                       0.00000                       0.00000                       0.00000
                       0.00000                       0.00000                       0.00000
                       0.00000                       0.00000                       0.00000
                      68.58325                     297.32343                     498.02202
                      72.83563                     318.88373                     534.19956
                      68.19442                     302.18647                     506.30107
                      64.54746                     290.14627                     486.21030
                      58.27796                     266.37365                     446.46013
                      52.33759                     243.86609                     408.82567
                      41.76878                     198.92008                     333.55807
                      37.10516                     181.07547                     303.71636
                      32.17880                     161.27348                     270.57934
                      27.72570                     142.92466                     239.86422
                      23.54794                     124.89269                     209.66197
                      20.27465                     109.99702                     184.69711
                      16.75186                      92.37665                     155.13484
                       7.83308                      43.78350                      73.53825
                       4.72669                      26.56261                      44.61650
        </DataArray>
      </PointData>
      <Lines>
        <DataArray type="Int32" Name="connectivity" format="ascii">
      0      1
      1      2
      2      3
      3      4
      4      5
      5      6
      6      7
      7      8
      8      9
      9     10
     10     11
     11     12
     12     13
     13     14
     14     15
     15     16
     16     17
     17     18
        </DataArray>
        <DataArray type="Int32" Name="offsets" format="ascii">
      2
      4
      6
      8
     10
     12
     14
     16
     18
     20
     22
     24
     26
     28
     30
     32
     34
     36
        </DataArray>
      </Lines>
    </Piece>
  </PolyData>
</VTKFile>
