<?xml version="1.0"?>
<VTKFile type="PolyData" version="0.1" byte_order="LittleEndian">
  <PolyData>
    <Piece NumberOfPoints="     19" NumberOfVerts="  0" NumberOfLines="     18"
           NumberOfStrips="  0" NumberOfPolys="      0">
      <Points>
        <DataArray type="Float32" NumberOfComponents="3" format="ascii">
                      -4.90111                      -0.73610                      91.31063
                      -4.85675                      -1.40883                      92.49945
                      -4.79379                      -2.83680                      94.83153
                      -4.74227                      -4.30440                      97.14166
                      -4.68336                      -6.16346                     100.01562
                      -4.55008                      -8.27298                     103.53012
                      -4.38219                     -10.27238                     107.10537
                      -4.21029                     -12.27218                     110.68023
                      -4.03075                     -14.27078                     114.25545
                      -3.84336                     -16.26967                     117.83018
                      -3.64857                     -18.27174                     121.40273
                      -3.44469                     -20.27545                     124.97390
                      -3.23167                     -22.28047                     128.54382
                      -3.00977                     -24.28655                     132.11263
                      -2.77708                     -26.29355                     135.68026
                      -2.57479                     -27.96664                     138.65246
                      -2.40778                     -29.29854                     141.03357
                      -2.23493                     -30.58293                     143.44150
                      -2.14950                     -31.26138                     144.62469
        </DataArray>
      </Points>
      <PointData>
        <DataArray type="Float32" Name="TranslationalVelocity" NumberOfComponents="3" format="ascii">
                      -0.02605                      -0.39200                      -0.22077
                      -0.04398                      -0.74942                      -0.42235
                      -0.08202                      -1.45018                      -0.85040
                      -0.12107                      -2.14443                      -1.29059
                      -0.17044                      -3.00859                      -1.84865
                      -0.22631                      -4.06794                      -2.48253
                      -0.27900                      -5.14756                      -3.08398
                      -0.33138                      -6.22830                      -3.68618
                      -0.38333                      -7.31040                      -4.28860
                      -0.43485                      -8.39347                      -4.89161
                      -0.48599                      -9.47688                      -5.49603
                      -0.53667                     -10.56075                      -6.10131
                      -0.58685                     -11.64497                      -6.70729
                      -0.63653                     -12.72947                      -7.31382
                      -0.68571                     -13.81419                      -7.92083
                      -0.72630                     -14.71827                      -8.42699
                      -0.75835                     -15.44280                      -8.83001
                      -0.78892                     -16.17573                      -9.21877
                      -0.80510                     -16.53594                      -9.42414
        </DataArray>
        <DataArray type="Float32" Name="RotationalVelocity" NumberOfComponents="3" format="ascii">
                       0.29961                      -0.00011                      -0.02645
                       0.29966                      -0.00011                      -0.02646
                       0.29980                      -0.00010                      -0.02646
                       0.29997                      -0.00009                      -0.02645
                       0.30021                      -0.00005                      -0.02645
                       0.30052                       0.00001                      -0.02644
                       0.30084                       0.00009                      -0.02642
                       0.30113                       0.00018                      -0.02641
                       0.30140                       0.00028                      -0.02638
                       0.30162                       0.00039                      -0.02635
                       0.30182                       0.00051                      -0.02632
                       0.30198                       0.00062                      -0.02627
                       0.30211                       0.00074                      -0.02622
                       0.30222                       0.00086                      -0.02616
                       0.30231                       0.00096                      -0.02609
                       0.30237                       0.00104                      -0.02603
                       0.30241                       0.00110                      -0.02599
                       0.30243                       0.00114                      -0.02594
                       0.30244                       0.00116                      -0.02591
        </DataArray>
        <DataArray type="Float32" Name="TranslationalAcceleration" NumberOfComponents="3" format="ascii">
                       0.04214                       0.05052                      -0.12215
                       0.00352                       0.06163                      -0.15160
                       0.00387                       0.18376                      -0.43134
                      -0.00329                       0.30128                      -0.68791
                      -0.01931                       0.44221                      -0.98746
                      -0.04512                       0.59199                      -1.33299
                      -0.07393                       0.72742                      -1.67424
                      -0.10260                       0.86295                      -2.01507
                      -0.12955                       1.00013                      -2.35984
                      -0.15408                       1.13956                      -2.70982
                      -0.17610                       1.28109                      -3.06410
                      -0.19596                       1.42360                      -3.42072
                      -0.21409                       1.56598                      -3.77726
                      -0.23078                       1.70734                      -4.13173
                      -0.24591                       1.84738                      -4.48344
                      -0.25670                       1.96354                      -4.77529
                      -0.26361                       2.05598                      -5.00973
                      -0.26826                       2.14474                      -5.24883
                      -0.26929                       2.19345                      -5.36875
        </DataArray>
        <DataArray type="Float32" Name="OrientationX" NumberOfComponents="3" format="ascii">
                       0.96178                      -0.22142                      -0.16111
                       0.96177                      -0.22136                      -0.16121
                       0.96176                      -0.22119                      -0.16152
                       0.96174                      -0.22095                      -0.16199
                       0.96170                      -0.22056                      -0.16274
                       0.96983                      -0.19301                      -0.14895
                       0.97504                      -0.17278                      -0.13945
                       0.97915                      -0.15487                      -0.13148
                       0.98305                      -0.13586                      -0.12315
                       0.98658                      -0.11618                      -0.11469
                       0.98948                      -0.09740                      -0.10699
                       0.99192                      -0.07866                      -0.09953
                       0.99375                      -0.06151                      -0.09313
                       0.99487                      -0.04820                      -0.08896
                       0.99578                      -0.03511                      -0.08483
                       0.99640                      -0.02422                      -0.08118
                       0.99679                      -0.01615                      -0.07837
                       0.99695                      -0.01165                      -0.07723
                       0.99691                      -0.01145                      -0.07766
        </DataArray>
        <DataArray type="Float32" Name="OrientationY" NumberOfComponents="3" format="ascii">
                       0.27182                       0.84315                       0.46390
                       0.27182                       0.84312                       0.46397
                       0.27183                       0.84302                       0.46414
                       0.27186                       0.84290                       0.46434
                       0.27190                       0.84273                       0.46463
                       0.24116                       0.84910                       0.46996
                       0.21891                       0.85308                       0.47365
                       0.19943                       0.85614                       0.47671
                       0.17881                       0.85902                       0.47970
                       0.15755                       0.86159                       0.48254
                       0.13745                       0.86363                       0.48503
                       0.11752                       0.86529                       0.48731
                       0.09948                       0.86646                       0.48923
                       0.08588                       0.86713                       0.49062
                       0.07250                       0.86762                       0.49191
                       0.06126                       0.86791                       0.49293
                       0.05287                       0.86805                       0.49365
                       0.04842                       0.86810                       0.49401
                       0.04846                       0.86811                       0.49401
        </DataArray>
        <DataArray type="Float32" Name="OrientationZ" NumberOfComponents="3" format="ascii">
                       0.03312                      -0.48996                       0.87111
                       0.03321                      -0.49005                       0.87106
                       0.03350                      -0.49029                       0.87091
                       0.03394                      -0.49061                       0.87072
                       0.03466                      -0.49108                       0.87042
                       0.03577                      -0.49170                       0.87003
                       0.03713                      -0.49235                       0.86960
                       0.03874                      -0.49299                       0.86917
                       0.04061                      -0.49359                       0.86875
                       0.04276                      -0.49414                       0.86833
                       0.04516                      -0.49463                       0.86793
                       0.04779                      -0.49507                       0.86754
                       0.05060                      -0.49544                       0.86717
                       0.05350                      -0.49574                       0.86682
                       0.05633                      -0.49598                       0.86650
                       0.05852                      -0.49613                       0.86627
                       0.06005                      -0.49621                       0.86613
                       0.06129                      -0.49624                       0.86602
                       0.06176                      -0.49625                       0.86598
        </DataArray>
        <DataArray type="Float32" Name="Force" NumberOfComponents="3" format="ascii">
                      19.12086                       3.47827                       1.22936
                     159.21406                      12.46214                       0.93891
                     177.24331                      24.20903                       6.79697
                     137.75074                      26.73649                       9.66719
                     996.93153                    -327.73690                    -224.10106
                     940.55832                    -265.12116                    -187.87709
                     993.71053                    -257.93985                    -187.63468
                     877.01459                    -201.64646                    -152.64500
                     792.14557                    -152.26541                    -122.81587
                     810.16164                    -138.29527                    -117.83507
                     756.50746                     -98.48349                     -94.89975
                     768.53889                     -84.97110                     -90.28144
                     666.07997                     -53.83661                     -69.26902
                     663.04292                     -44.41742                     -66.01565
                     655.08128                     -35.34255                     -62.56746
                     643.67858                     -28.15956                     -59.41284
                     613.98835                     -22.58316                     -55.35051
                     447.59855                     -19.26458                     -42.57199
                     474.43755                     -75.32478                     -76.35873
        </DataArray>
        <DataArray type="Float32" Name="Moment" NumberOfComponents="3" format="ascii">
                       0.00000                       0.00000                       0.00000
                       0.00000                       0.00000                       0.00000
                       0.00000                       0.00000                       0.00000
                       0.00000                       0.00000                       0.00000
                     -22.97783                     324.32399                    -576.52676
                     -25.40823                     347.27471                    -617.25355
                     -25.44829                     334.85851                    -595.10099
                     -26.04669                     328.28044                    -583.31366
                     -25.70017                     308.82764                    -548.64278
                     -25.30465                     288.75743                    -512.87484
                     -22.32774                     241.19546                    -428.29277
                     -21.93087                     223.83640                    -397.36131
                     -21.09416                     203.34404                    -360.87924
                     -20.10755                     183.36708                    -325.32984
                     -18.80489                     162.87598                    -288.89115
                     -17.44396                     145.45040                    -257.92616
                     -15.20659                     123.57575                    -219.10191
                      -7.45630                      59.37770                    -105.26446
                      -3.28865                      25.98831                     -46.06972
        </DataArray>
      </PointData>
      <Lines>
        <DataArray type="Int32" Name="connectivity" format="ascii">
      0      1
      1      2
      2      3
      3      4
      4      5
      5      6
      6      7
      7      8
      8      9
      9     10
     10     11
     11     12
     12     13
     13     14
     14     15
     15     16
     16     17
     17     18
        </DataArray>
        <DataArray type="Int32" Name="offsets" format="ascii">
      2
      4
      6
      8
     10
     12
     14
     16
     18
     20
     22
     24
     26
     28
     30
     32
     34
     36
        </DataArray>
      </Lines>
    </Piece>
  </PolyData>
</VTKFile>
