<?xml version="1.0"?>
<VTKFile type="PolyData" version="0.1" byte_order="LittleEndian">
  <PolyData>
    <Piece NumberOfPoints="     19" NumberOfVerts="  0" NumberOfLines="     18"
           NumberOfStrips="  0" NumberOfPolys="      0">
      <Points>
        <DataArray type="Float32" NumberOfComponents="3" format="ascii">
                      -4.86006                      -0.81956                      88.78145
                      -5.02660                      -1.55875                      87.64391
                      -5.38294                      -2.95655                      85.31975
                      -5.74640                      -4.31552                      82.97128
                      -6.19814                      -5.98987                      80.01923
                      -6.66168                      -8.11707                      76.54274
                      -7.06810                     -10.34972                      73.12723
                      -7.44217                     -12.57956                      69.70611
                      -7.77367                     -14.80762                      66.27946
                      -8.05569                     -17.03188                      62.84599
                      -8.28221                     -19.24897                      59.40387
                      -8.44573                     -21.45997                      55.95419
                      -8.54135                     -23.66482                      52.49780
                      -8.56585                     -25.86355                      49.03593
                      -8.51551                     -28.05613                      45.57021
                      -8.41524                     -29.87865                      42.68076
                      -8.29984                     -31.34058                      40.37377
                      -8.15303                     -32.84686                      38.09714
                      -8.07132                     -33.56378                      36.93770
        </DataArray>
      </Points>
      <PointData>
        <DataArray type="Float32" Name="TranslationalVelocity" NumberOfComponents="3" format="ascii">
                      -0.00308                       1.23163                      -0.78460
                      -0.07144                       2.35121                      -1.50214
                      -0.20052                       4.63935                      -2.85855
                      -0.32554                       6.95053                      -4.17676
                      -0.47870                       9.85326                      -5.80007
                      -0.67161                      13.26254                      -7.86116
                      -0.87232                      16.60444                     -10.02265
                      -1.07111                      19.94580                     -12.17955
                      -1.26813                      23.28584                     -14.33297
                      -1.46329                      26.62551                     -16.48110
                      -1.65635                      29.96639                     -18.62088
                      -1.84751                      33.30715                     -20.75356
                      -2.03680                      36.64694                     -22.87930
                      -2.22424                      39.98465                     -24.99830
                      -2.40978                      43.31868                     -27.11066
                      -2.56287                      46.09274                     -28.86598
                      -2.68492                      48.30426                     -30.27367
                      -2.81006                      50.48356                     -31.72373
                      -2.86916                      51.59273                     -32.41374
        </DataArray>
        <DataArray type="Float32" Name="RotationalVelocity" NumberOfComponents="3" format="ascii">
                       0.97113                       0.00132                      -0.09056
                       0.97098                       0.00127                      -0.09052
                       0.97059                       0.00115                      -0.09039
                       0.97010                       0.00097                      -0.09026
                       0.96941                       0.00071                      -0.09009
                       0.96851                       0.00035                      -0.08991
                       0.96763                      -0.00004                      -0.08977
                       0.96680                      -0.00044                      -0.08964
                       0.96606                      -0.00080                      -0.08950
                       0.96541                      -0.00112                      -0.08931
                       0.96486                      -0.00137                      -0.08905
                       0.96440                      -0.00154                      -0.08867
                       0.96402                      -0.00164                      -0.08818
                       0.96370                      -0.00167                      -0.08759
                       0.96345                      -0.00167                      -0.08693
                       0.96327                      -0.00168                      -0.08640
                       0.96317                      -0.00171                      -0.08603
                       0.96309                      -0.00179                      -0.08577
                       0.96307                      -0.00185                      -0.08569
        </DataArray>
        <DataArray type="Float32" Name="TranslationalAcceleration" NumberOfComponents="3" format="ascii">
                       0.11133                       0.89658                       1.10534
                       0.11398                       1.09219                       1.33998
                       0.33707                       3.05869                       3.88355
                       0.55110                       4.82724                       6.25673
                       0.80546                       6.86280                       9.04987
                       1.08549                       9.26153                      12.14157
                       1.34619                      11.67915                      15.07041
                       1.59831                      14.07953                      17.98943
                       1.84510                      16.49524                      20.93631
                       2.08955                      18.93504                      23.92394
                       2.33487                      21.39161                      26.94675
                       2.58478                      23.85270                      29.98463
                       2.84437                      26.30231                      33.01462
                       3.12067                      28.72772                      36.01774
                       3.42327                      31.12536                      38.98638
                       3.70572                      33.10974                      41.44122
                       3.95751                      34.70650                      43.40025
                       4.25307                      36.36382                      45.34616
                       4.40671                      37.17428                      46.35746
        </DataArray>
        <DataArray type="Float32" Name="OrientationX" NumberOfComponents="3" format="ascii">
                       0.95310                       0.17015                      -0.25032
                       0.95315                       0.17042                      -0.24991
                       0.95335                       0.17126                      -0.24858
                       0.95364                       0.17251                      -0.24661
                       0.95410                       0.17458                      -0.24333
                       0.96316                       0.15147                      -0.22223
                       0.96940                       0.13641                      -0.20410
                       0.97464                       0.12455                      -0.18592
                       0.97976                       0.11258                      -0.16551
                       0.98455                       0.10095                      -0.14305
                       0.98864                       0.09117                      -0.11948
                       0.99213                       0.08229                      -0.09440
                       0.99474                       0.07561                      -0.06906
                       0.99630                       0.07301                      -0.04536
                       0.99727                       0.07045                      -0.02189
                       0.99770                       0.06777                      -0.00317
                       0.99780                       0.06549                       0.01026
                       0.99764                       0.06570                       0.01994
                       0.99747                       0.06733                       0.02276
        </DataArray>
        <DataArray type="Float32" Name="OrientationY" NumberOfComponents="3" format="ascii">
                       0.27731                      -0.82228                       0.49694
                       0.27731                      -0.82228                       0.49694
                       0.27730                      -0.82228                       0.49695
                       0.27727                      -0.82228                       0.49697
                       0.27721                      -0.82227                       0.49702
                       0.24653                      -0.82746                       0.50450
                       0.22416                      -0.83081                       0.50942
                       0.20444                      -0.83348                       0.51334
                       0.18342                      -0.83604                       0.51710
                       0.16159                      -0.83844                       0.52049
                       0.14074                      -0.84051                       0.52320
                       0.11986                      -0.84240                       0.52535
                       0.10073                      -0.84402                       0.52676
                       0.08595                      -0.84524                       0.52742
                       0.07138                      -0.84640                       0.52774
                       0.05923                      -0.84732                       0.52777
                       0.05023                      -0.84794                       0.52771
                       0.04532                      -0.84821                       0.52771
                       0.04521                      -0.84816                       0.52780
        </DataArray>
        <DataArray type="Float32" Name="OrientationZ" NumberOfComponents="3" format="ascii">
                      -0.12128                      -0.54305                      -0.83090
                      -0.12081                      -0.54296                      -0.83102
                      -0.11930                      -0.54270                      -0.83141
                      -0.11705                      -0.54230                      -0.83199
                      -0.11332                      -0.54166                      -0.83292
                      -0.10747                      -0.54070                      -0.83432
                      -0.10007                      -0.53958                      -0.83596
                      -0.09102                      -0.53833                      -0.83780
                      -0.08016                      -0.53699                      -0.83977
                      -0.06740                      -0.53556                      -0.84180
                      -0.05273                      -0.53408                      -0.84379
                      -0.03629                      -0.53253                      -0.84563
                      -0.01845                      -0.53095                      -0.84720
                       0.00017                      -0.52937                      -0.84839
                       0.01865                      -0.52786                      -0.84912
                       0.03308                      -0.52675                      -0.84938
                       0.04326                      -0.52603                      -0.84936
                       0.05158                      -0.52556                      -0.84919
                       0.05484                      -0.52544                      -0.84906
        </DataArray>
        <DataArray type="Float32" Name="Force" NumberOfComponents="3" format="ascii">
                       0.26116                      -4.34280                       2.80019
                     131.11741                     -44.05609                       9.73040
                     174.55832                     -91.04632                      34.44207
                     155.34476                    -106.61803                      47.78855
                    1330.54168                     373.77537                    -425.15182
                    1515.20344                     425.34721                    -472.84218
                    1936.28925                     581.54074                    -611.11087
                    2154.57037                     592.49520                    -620.12283
                    2495.71455                     626.51230                    -645.83471
                    3316.71016                     778.82646                    -771.22403
                    3828.20823                     823.28161                    -772.32415
                    4177.95618                     852.16540                    -729.29745
                    4522.74854                     871.46881                    -658.72681
                    4825.52224                     890.56614                    -568.97158
                    5059.82214                     899.76833                    -462.03289
                    5165.99433                     884.80634                    -360.32336
                    4996.39053                     818.22574                    -263.25511
                    3583.42738                     558.99534                    -135.13496
                    1522.19851                      92.94419                      41.15167
        </DataArray>
        <DataArray type="Float32" Name="Moment" NumberOfComponents="3" format="ascii">
                       0.00000                       0.00000                       0.00000
                       0.00000                       0.00000                       0.00000
                       0.00000                       0.00000                       0.00000
                       0.00000                       0.00000                       0.00000
                      60.75230                     291.47570                     446.38149
                      64.61392                     327.14004                     501.33290
                      46.38056                     252.43832                     387.17907
                      56.65495                     339.45610                     521.17607
                      70.46234                     480.12325                     738.04797
                      74.36558                     603.93646                     929.70491
                      63.62474                     662.60323                    1021.69250
                      47.20725                     718.69195                    1110.21124
                      22.83239                     697.10872                    1079.01126
                      -1.15971                     693.99850                    1076.42523
                     -24.17206                     673.27809                    1046.43632
                     -40.24127                     641.86825                     999.22171
                     -46.91130                     574.56175                     895.45864
                     -28.89618                     297.38668                     463.90973
                     -26.63082                     257.93337                     402.51061
        </DataArray>
      </PointData>
      <Lines>
        <DataArray type="Int32" Name="connectivity" format="ascii">
      0      1
      1      2
      2      3
      3      4
      4      5
      5      6
      6      7
      7      8
      8      9
      9     10
     10     11
     11     12
     12     13
     13     14
     14     15
     15     16
     16     17
     17     18
        </DataArray>
        <DataArray type="Int32" Name="offsets" format="ascii">
      2
      4
      6
      8
     10
     12
     14
     16
     18
     20
     22
     24
     26
     28
     30
     32
     34
     36
        </DataArray>
      </Lines>
    </Piece>
  </PolyData>
</VTKFile>
