<?xml version="1.0"?>
<VTKFile type="PolyData" version="0.1" byte_order="LittleEndian">
  <PolyData>
    <Piece NumberOfPoints="     19" NumberOfVerts="  0" NumberOfLines="     18"
           NumberOfStrips="  0" NumberOfPolys="      0">
      <Points>
        <DataArray type="Float32" NumberOfComponents="3" format="ascii">
                      -5.01951                       1.49665                      89.96351
                      -5.08309                       2.86146                      89.92984
                      -5.22367                       5.59302                      89.95756
                      -5.37013                       8.32571                      90.02909
                      -5.55592                      11.74260                      90.14285
                      -5.73661                      15.84071                      90.12781
                      -5.90170                      19.93543                      89.97627
                      -6.06534                      24.02989                      89.81756
                      -6.22438                      28.12411                      89.65002
                      -6.37853                      32.21818                      89.47610
                      -6.52783                      36.31224                      89.30013
                      -6.67081                      40.40632                      89.12111
                      -6.80731                      44.50043                      88.93965
                      -6.93745                      48.59462                      88.75628
                      -7.05906                      52.68894                      88.57125
                      -7.15354                      56.10102                      88.41581
                      -7.22575                      58.83036                      88.28280
                      -7.29998                      61.55748                      88.09421
                      -7.33273                      62.92266                      88.04108
        </DataArray>
      </Points>
      <PointData>
        <DataArray type="Float32" Name="TranslationalVelocity" NumberOfComponents="3" format="ascii">
                       0.02968                       0.01473                       0.44667
                       0.06569                       0.02646                       0.85446
                       0.13774                       0.02187                       1.67061
                       0.20978                       0.00435                       2.48707
                       0.29980                      -0.02477                       3.50792
                       0.40770                      -0.01554                       4.73225
                       0.51543                       0.03405                       5.95551
                       0.62305                       0.08573                       7.17863
                       0.73057                       0.13992                       8.40163
                       0.83802                       0.19588                       9.62454
                       0.94543                       0.25233                      10.84740
                       1.05286                       0.30951                      12.07023
                       1.16036                       0.36725                      13.29304
                       1.26797                       0.42540                      14.51585
                       1.37578                       0.48383                      15.73868
                       1.46580                       0.53272                      16.75773
                       1.53796                       0.57435                      17.57286
                       1.61023                       0.63262                      18.38731
                       1.64647                       0.64936                      18.79501
        </DataArray>
        <DataArray type="Float32" Name="RotationalVelocity" NumberOfComponents="3" format="ascii">
                       0.29880                      -0.00018                      -0.02638
                       0.29880                      -0.00018                      -0.02638
                       0.29879                      -0.00018                      -0.02637
                       0.29878                      -0.00018                      -0.02636
                       0.29877                      -0.00018                      -0.02635
                       0.29876                      -0.00018                      -0.02632
                       0.29874                      -0.00018                      -0.02629
                       0.29873                      -0.00018                      -0.02627
                       0.29872                      -0.00018                      -0.02625
                       0.29871                      -0.00018                      -0.02624
                       0.29870                      -0.00018                      -0.02623
                       0.29869                      -0.00018                      -0.02624
                       0.29868                      -0.00018                      -0.02626
                       0.29868                      -0.00018                      -0.02630
                       0.29867                      -0.00019                      -0.02635
                       0.29867                      -0.00020                      -0.02640
                       0.29866                      -0.00020                      -0.02644
                       0.29865                      -0.00021                      -0.02649
                       0.29865                      -0.00022                      -0.02652
        </DataArray>
        <DataArray type="Float32" Name="TranslationalAcceleration" NumberOfComponents="3" format="ascii">
                       0.05156                      -0.13404                       0.02689
                       0.01696                      -0.16226                       0.02793
                       0.04164                      -0.46535                       0.07181
                       0.05673                      -0.74533                       0.10689
                       0.06674                      -1.07308                       0.14442
                       0.07194                      -1.44306                       0.19851
                       0.07441                      -1.80065                       0.26297
                       0.07648                      -2.15691                       0.32801
                       0.07976                      -2.51656                       0.39464
                       0.08466                      -2.88112                       0.46293
                       0.09071                      -3.24981                       0.53232
                       0.09705                      -3.62044                       0.60243
                       0.10273                      -3.99039                       0.67267
                       0.10708                      -4.35753                       0.74253
                       0.11007                      -4.72112                       0.81174
                       0.11224                      -5.02239                       0.86901
                       0.11467                      -5.26374                       0.91568
                       0.11913                      -5.50691                       0.96787
                       0.12218                      -5.63106                       0.99067
        </DataArray>
        <DataArray type="Float32" Name="OrientationX" NumberOfComponents="3" format="ascii">
                       0.98857                       0.04956                       0.14236
                       0.98858                       0.04952                       0.14236
                       0.98858                       0.04940                       0.14237
                       0.98859                       0.04921                       0.14238
                       0.98860                       0.04890                       0.14239
                       0.99270                       0.04762                       0.11079
                       0.99505                       0.04628                       0.08795
                       0.99668                       0.04475                       0.06800
                       0.99798                       0.04291                       0.04691
                       0.99885                       0.04073                       0.02524
                       0.99925                       0.03830                       0.00479
                       0.99925                       0.03559                      -0.01544
                       0.99890                       0.03272                      -0.03369
                       0.99843                       0.02986                      -0.04742
                       0.99778                       0.02699                      -0.06088
                       0.99709                       0.02468                      -0.07213
                       0.99649                       0.02301                      -0.08049
                       0.99615                       0.02171                      -0.08489
                       0.99617                       0.02127                      -0.08481
        </DataArray>
        <DataArray type="Float32" Name="OrientationY" NumberOfComponents="3" format="ascii">
                       0.14349                      -0.02012                      -0.98945
                       0.14350                      -0.02033                      -0.98944
                       0.14353                      -0.02088                      -0.98943
                       0.14357                      -0.02157                      -0.98941
                       0.14362                      -0.02256                      -0.98938
                       0.11208                      -0.02537                      -0.99338
                       0.08929                      -0.02770                      -0.99562
                       0.06936                      -0.02979                      -0.99715
                       0.04830                      -0.03177                      -0.99833
                       0.02662                      -0.03359                      -0.99908
                       0.00614                      -0.03517                      -0.99936
                      -0.01413                      -0.03655                      -0.99923
                      -0.03245                      -0.03768                      -0.99876
                      -0.04625                      -0.03851                      -0.99819
                      -0.05980                      -0.03921                      -0.99744
                      -0.07112                      -0.03971                      -0.99668
                      -0.07953                      -0.04004                      -0.99603
                      -0.08397                      -0.04024                      -0.99566
                      -0.08391                      -0.04028                      -0.99566
        </DataArray>
        <DataArray type="Float32" Name="OrientationZ" NumberOfComponents="3" format="ascii">
                      -0.04618                       0.99857                      -0.02700
                      -0.04610                       0.99857                      -0.02720
                      -0.04590                       0.99856                      -0.02773
                      -0.04562                       0.99856                      -0.02839
                      -0.04517                       0.99855                      -0.02933
                      -0.04449                       0.99854                      -0.03052
                      -0.04364                       0.99854                      -0.03169
                      -0.04260                       0.99855                      -0.03279
                      -0.04134                       0.99857                      -0.03378
                      -0.03985                       0.99861                      -0.03464
                      -0.03811                       0.99865                      -0.03538
                      -0.03613                       0.99870                      -0.03602
                      -0.03395                       0.99875                      -0.03658
                      -0.03163                       0.99881                      -0.03707
                      -0.02930                       0.99887                      -0.03751
                      -0.02746                       0.99891                      -0.03784
                      -0.02614                       0.99893                      -0.03807
                      -0.02503                       0.99895                      -0.03826
                      -0.02459                       0.99896                      -0.03834
        </DataArray>
        <DataArray type="Float32" Name="Force" NumberOfComponents="3" format="ascii">
                      19.46243                       0.92858                       1.05794
                     154.34803                       6.81889                     -11.26970
                     167.19418                       7.03073                     -23.79448
                     126.59579                       5.03976                     -26.88906
                     886.85774                      45.94363                     221.12531
                     837.81728                      41.62215                     167.00708
                     868.92904                      41.82240                     153.59394
                     763.95460                      35.27369                     111.46844
                     684.91111                      29.96651                      72.53375
                     693.34518                      28.83967                      58.14323
                     646.09952                      24.95256                      26.54180
                     650.58774                      23.42900                      13.00714
                     560.92803                      18.44455                      -7.01763
                     555.97371                      16.75886                     -14.70178
                     547.06179                      14.99303                     -21.70649
                     536.36858                      13.54213                     -26.68987
                     512.27672                      12.19262                     -27.38114
                     373.74634                       8.57220                     -16.72018
                     404.29460                      10.57419                      32.99003
        </DataArray>
        <DataArray type="Float32" Name="Moment" NumberOfComponents="3" format="ascii">
                       0.00000                       0.00000                       0.00000
                       0.00000                       0.00000                       0.00000
                       0.00000                       0.00000                       0.00000
                       0.00000                       0.00000                       0.00000
                      29.11113                    -646.37982                      17.54483
                      29.59269                    -668.68758                      18.19652
                      27.12828                    -626.43155                      17.09912
                      25.26806                    -599.12174                      16.41350
                      22.57549                    -552.79770                      15.20964
                      20.00157                    -509.25550                      14.08189
                      15.83920                    -422.62829                      11.75359
                      13.75643                    -388.02481                      10.86063
                      11.61539                    -349.49465                       9.85063
                       9.68162                    -313.38135                       8.89753
                       7.90596                    -277.00096                       7.92217
                       6.57935                    -246.61044                       7.09355
                       5.29986                    -209.11220                       6.03959
                       2.42963                    -100.26374                       2.90567
                       1.04403                     -43.89150                       1.27371
        </DataArray>
      </PointData>
      <Lines>
        <DataArray type="Int32" Name="connectivity" format="ascii">
      0      1
      1      2
      2      3
      3      4
      4      5
      5      6
      6      7
      7      8
      8      9
      9     10
     10     11
     11     12
     12     13
     13     14
     14     15
     15     16
     16     17
     17     18
        </DataArray>
        <DataArray type="Int32" Name="offsets" format="ascii">
      2
      4
      6
      8
     10
     12
     14
     16
     18
     20
     22
     24
     26
     28
     30
     32
     34
     36
        </DataArray>
      </Lines>
    </Piece>
  </PolyData>
</VTKFile>
