<?xml version="1.0"?>
<VTKFile type="PolyData" version="0.1" byte_order="LittleEndian">
  <PolyData>
    <Piece NumberOfPoints="     19" NumberOfVerts="  0" NumberOfLines="     18"
           NumberOfStrips="  0" NumberOfPolys="      0">
      <Points>
        <DataArray type="Float32" NumberOfComponents="3" format="ascii">
                      -5.07384                       1.37012                      89.40728
                      -5.18208                       2.62089                      88.86712
                      -5.41287                       5.15927                      87.87449
                      -5.65015                       7.71488                      86.92228
                      -5.95019                      10.91936                      85.75451
                      -6.26791                      14.70766                      84.21351
                      -6.57042                      18.44253                      82.54748
                      -6.87322                      22.17457                      80.87533
                      -7.17358                      25.90330                      79.19547
                      -7.47167                      29.62966                      77.51015
                      -7.76800                      33.35537                      75.82331
                      -8.06152                      37.08010                      74.13399
                      -8.35243                      40.80408                      72.44272
                      -8.64112                      44.52751                      70.74999
                      -8.92563                      48.25064                      69.05600
                      -9.15930                      51.35308                      67.64340
                      -9.34490                      53.83160                      66.50560
                      -9.53389                      56.28729                      65.31728
                      -9.62504                      57.53213                      64.76077
        </DataArray>
      </Points>
      <PointData>
        <DataArray type="Float32" Name="TranslationalVelocity" NumberOfComponents="3" format="ascii">
                      -0.06315                       0.02629                       0.04906
                      -0.05785                       0.04888                       0.10030
                      -0.04754                       0.09048                       0.20430
                      -0.03767                       0.13042                       0.30904
                      -0.02615                       0.17935                       0.44043
                      -0.01389                       0.24358                       0.59591
                      -0.00381                       0.31279                       0.74937
                       0.00346                       0.38213                       0.90295
                       0.00736                       0.45164                       1.05669
                       0.00733                       0.52123                       1.21070
                       0.00286                       0.59074                       1.36513
                      -0.00642                       0.66021                       1.52001
                      -0.02077                       0.72962                       1.67542
                      -0.04026                       0.79897                       1.83137
                      -0.06472                       0.86829                       1.98789
                      -0.08868                       0.92604                       2.11874
                      -0.10980                       0.97254                       2.22351
                      -0.13237                       1.02114                       2.32751
                      -0.14412                       1.04388                       2.38028
        </DataArray>
        <DataArray type="Float32" Name="RotationalVelocity" NumberOfComponents="3" format="ascii">
                       0.04110                      -0.00144                      -0.00363
                       0.04110                      -0.00142                      -0.00360
                       0.04111                      -0.00138                      -0.00348
                       0.04111                      -0.00131                      -0.00331
                       0.04113                      -0.00120                      -0.00303
                       0.04115                      -0.00103                      -0.00259
                       0.04118                      -0.00082                      -0.00202
                       0.04122                      -0.00056                      -0.00134
                       0.04127                      -0.00026                      -0.00053
                       0.04134                       0.00010                       0.00041
                       0.04143                       0.00050                       0.00145
                       0.04152                       0.00095                       0.00258
                       0.04164                       0.00143                       0.00376
                       0.04175                       0.00192                       0.00494
                       0.04187                       0.00239                       0.00603
                       0.04196                       0.00273                       0.00681
                       0.04201                       0.00295                       0.00729
                       0.04206                       0.00309                       0.00760
                       0.04207                       0.00313                       0.00768
        </DataArray>
        <DataArray type="Float32" Name="TranslationalAcceleration" NumberOfComponents="3" format="ascii">
                      -0.00391                       0.00466                       0.04910
                      -0.00372                       0.00372                       0.02638
                      -0.00955                       0.01026                       0.07215
                      -0.01171                       0.01568                       0.10995
                      -0.00788                       0.02218                       0.15002
                       0.00598                       0.03196                       0.19008
                       0.03041                       0.04366                       0.22508
                       0.06534                       0.05512                       0.25664
                       0.10752                       0.06510                       0.28440
                       0.15205                       0.07222                       0.30686
                       0.19250                       0.07514                       0.32204
                       0.22117                       0.07264                       0.32794
                       0.22927                       0.06374                       0.32323
                       0.20715                       0.04785                       0.30773
                       0.14452                       0.02491                       0.28297
                       0.05261                       0.00078                       0.25787
                      -0.05031                      -0.02113                       0.23764
                      -0.18363                      -0.04519                       0.22041
                      -0.26225                      -0.05715                       0.21349
        </DataArray>
        <DataArray type="Float32" Name="OrientationX" NumberOfComponents="3" format="ascii">
                       0.98546                       0.13166                       0.10739
                       0.98546                       0.13164                       0.10740
                       0.98547                       0.13159                       0.10743
                       0.98547                       0.13153                       0.10747
                       0.98548                       0.13142                       0.10755
                       0.98980                       0.11885                       0.07860
                       0.99230                       0.10953                       0.05780
                       0.99407                       0.10118                       0.03971
                       0.99553                       0.09221                       0.02067
                       0.99657                       0.08280                       0.00115
                       0.99713                       0.07370                      -0.01718
                       0.99729                       0.06450                      -0.03526
                       0.99710                       0.05596                      -0.05150
                       0.99676                       0.04917                      -0.06359
                       0.99625                       0.04244                      -0.07543
                       0.99567                       0.03687                      -0.08535
                       0.99515                       0.03274                      -0.09272
                       0.99487                       0.03037                      -0.09652
                       0.99489                       0.03018                      -0.09635
        </DataArray>
        <DataArray type="Float32" Name="OrientationY" NumberOfComponents="3" format="ascii">
                       0.15050                      -0.38317                      -0.91133
                       0.15052                      -0.38334                      -0.91126
                       0.15056                      -0.38379                      -0.91106
                       0.15063                      -0.38436                      -0.91081
                       0.15072                      -0.38515                      -0.91046
                       0.11935                      -0.39016                      -0.91298
                       0.09671                      -0.39379                      -0.91410
                       0.07694                      -0.39685                      -0.91466
                       0.05602                      -0.39973                      -0.91492
                       0.03449                      -0.40236                      -0.91483
                       0.01415                      -0.40457                      -0.91440
                      -0.00602                      -0.40648                      -0.91364
                      -0.02424                      -0.40798                      -0.91267
                      -0.03799                      -0.40903                      -0.91173
                      -0.05149                      -0.40990                      -0.91068
                      -0.06278                      -0.41052                      -0.90969
                      -0.07117                      -0.41091                      -0.90889
                      -0.07559                      -0.41113                      -0.90844
                      -0.07551                      -0.41116                      -0.90843
        </DataArray>
        <DataArray type="Float32" Name="OrientationZ" NumberOfComponents="3" format="ascii">
                      -0.07883                       0.91425                      -0.39741
                      -0.07879                       0.91418                      -0.39758
                      -0.07866                       0.91400                      -0.39803
                      -0.07849                       0.91377                      -0.39858
                      -0.07823                       0.91345                      -0.39937
                      -0.07784                       0.91304                      -0.40037
                      -0.07736                       0.91265                      -0.40136
                      -0.07679                       0.91229                      -0.40228
                      -0.07610                       0.91198                      -0.40311
                      -0.07529                       0.91173                      -0.40383
                      -0.07434                       0.91153                      -0.40446
                      -0.07327                       0.91138                      -0.40499
                      -0.07209                       0.91127                      -0.40544
                      -0.07083                       0.91120                      -0.40583
                      -0.06957                       0.91114                      -0.40618
                      -0.06857                       0.91111                      -0.40642
                      -0.06786                       0.91109                      -0.40659
                      -0.06727                       0.91107                      -0.40673
                      -0.06703                       0.91106                      -0.40678
        </DataArray>
        <DataArray type="Float32" Name="Force" NumberOfComponents="3" format="ascii">
                     155.57403                      11.01403                      -5.52298
                     150.55795                      10.91896                      -4.72326
                     168.46813                      12.62588                      -4.27581
                     130.28700                       8.75097                      -5.56652
                     670.77063                     115.64864                     134.27503
                     632.32012                      95.53299                      96.30274
                     597.17947                      84.29002                      78.13485
                     533.31616                      68.92309                      56.03626
                     483.96347                      54.85077                      34.07440
                     449.74898                      46.66779                      22.75013
                     424.06214                      37.23492                       6.95482
                     392.95328                      30.90838                      -0.71669
                     355.67726                      24.60263                      -7.31194
                     326.05147                      20.36312                     -10.68271
                     296.82446                      16.56977                     -13.28349
                     272.70253                      13.72572                     -14.94407
                     246.02341                      11.38372                     -15.32548
                     167.28456                       7.34257                     -11.08009
                     167.23786                       7.30337                     -11.06160
        </DataArray>
        <DataArray type="Float32" Name="Moment" NumberOfComponents="3" format="ascii">
                       0.00000                       0.00000                       0.00000
                       0.00000                       0.00000                       0.00000
                       0.00000                       0.00000                       0.00000
                       0.00000                       0.00000                       0.00000
                      57.15890                    -669.46312                     291.05923
                      57.43084                    -676.76123                     294.26316
                      51.81483                    -615.01828                     267.44984
                      46.88491                    -561.25059                     244.10344
                      40.75542                    -492.75369                     214.34817
                      35.08243                    -429.11275                     186.70041
                      27.87633                    -345.56786                     150.38444
                      23.68663                    -298.13050                     129.77263
                      19.70363                    -252.21557                     109.81595
                      16.28416                    -212.24537                      92.43890
                      13.25580                    -175.99365                      76.67202
                      11.02259                    -148.52984                      64.72187
                       8.87222                    -120.84317                      52.66585
                       4.06320                     -55.84149                      24.34006
                       4.04326                     -55.76729                      24.30900
        </DataArray>
      </PointData>
      <Lines>
        <DataArray type="Int32" Name="connectivity" format="ascii">
      0      1
      1      2
      2      3
      3      4
      4      5
      5      6
      6      7
      7      8
      8      9
      9     10
     10     11
     11     12
     12     13
     13     14
     14     15
     15     16
     16     17
     17     18
        </DataArray>
        <DataArray type="Int32" Name="offsets" format="ascii">
      2
      4
      6
      8
     10
     12
     14
     16
     18
     20
     22
     24
     26
     28
     30
     32
     34
     36
        </DataArray>
      </Lines>
    </Piece>
  </PolyData>
</VTKFile>
