<?xml version="1.0"?>
<VTKFile type="PolyData" version="0.1" byte_order="LittleEndian">
  <PolyData>
    <Piece NumberOfPoints="     19" NumberOfVerts="  0" NumberOfLines="     18"
           NumberOfStrips="  0" NumberOfPolys="      0">
      <Points>
        <DataArray type="Float32" NumberOfComponents="3" format="ascii">
                      -5.01742                       1.49733                      89.99327
                      -5.07860                       2.86265                      89.98676
                      -5.21439                       5.59336                      90.06882
                      -5.35605                       8.32434                      90.19471
                      -5.53585                      11.73860                      90.37643
                      -5.70935                      15.83651                      90.44291
                      -5.86726                      19.93372                      90.37286
                      -6.02374                      24.03080                      90.29563
                      -6.17562                      28.12782                      90.20956
                      -6.32261                      32.22480                      90.11712
                      -6.46475                      36.32180                      90.02261
                      -6.60057                      40.41887                      89.92506
                      -6.72992                      44.51602                      89.82507
                      -6.85289                      48.61325                      89.72316
                      -6.96732                      52.71065                      89.61960
                      -7.05581                      56.12531                      89.53205
                      -7.12322                      58.85687                      89.45334
                      -7.19264                      61.58733                      89.31903
                      -7.22298                      62.95336                      89.29306
        </DataArray>
      </Points>
      <PointData>
        <DataArray type="Float32" Name="TranslationalVelocity" NumberOfComponents="3" format="ascii">
                       0.03319                       0.00577                       0.44838
                       0.06930                       0.00934                       0.85744
                       0.14151                      -0.01167                       1.67556
                       0.21370                      -0.04566                       2.49375
                       0.30390                      -0.09537                       3.51663
                       0.41211                      -0.11073                       4.74430
                       0.52022                      -0.08561                       5.97172
                       0.62824                      -0.05838                       7.19905
                       0.73616                      -0.02863                       8.42633
                       0.84401                       0.00289                       9.65356
                       0.95182                       0.03490                      10.88076
                       1.05961                       0.06766                      12.10795
                       1.16742                       0.10097                      13.33514
                       1.27531                       0.13470                      14.56233
                       1.38331                       0.16869                      15.78955
                       1.47345                       0.19723                      16.81226
                       1.54566                       0.22257                      17.63037
                       1.61798                       0.26463                      18.44814
                       1.65420                       0.27321                      18.85726
        </DataArray>
        <DataArray type="Float32" Name="RotationalVelocity" NumberOfComponents="3" format="ascii">
                       0.29961                      -0.00011                      -0.02645
                       0.29961                      -0.00011                      -0.02645
                       0.29961                      -0.00012                      -0.02645
                       0.29960                      -0.00012                      -0.02644
                       0.29959                      -0.00012                      -0.02642
                       0.29958                      -0.00012                      -0.02640
                       0.29957                      -0.00012                      -0.02638
                       0.29957                      -0.00012                      -0.02635
                       0.29956                      -0.00013                      -0.02633
                       0.29955                      -0.00013                      -0.02632
                       0.29954                      -0.00014                      -0.02631
                       0.29953                      -0.00015                      -0.02631
                       0.29953                      -0.00017                      -0.02632
                       0.29952                      -0.00019                      -0.02634
                       0.29952                      -0.00021                      -0.02637
                       0.29951                      -0.00023                      -0.02641
                       0.29951                      -0.00024                      -0.02644
                       0.29951                      -0.00025                      -0.02648
                       0.29950                      -0.00026                      -0.02650
        </DataArray>
        <DataArray type="Float32" Name="TranslationalAcceleration" NumberOfComponents="3" format="ascii">
                       0.05371                      -0.13530                       0.02444
                       0.01747                      -0.16367                       0.02481
                       0.04282                      -0.46925                       0.06280
                       0.05820                      -0.75141                       0.09236
                       0.06827                      -1.08164                       0.12341
                       0.07335                      -1.45466                       0.17021
                       0.07584                      -1.81543                       0.22768
                       0.07830                      -2.17489                       0.28575
                       0.08250                      -2.53778                       0.34535
                       0.08886                      -2.90563                       0.40650
                       0.09679                      -3.27765                       0.46865
                       0.10515                      -3.65164                       0.53150
                       0.11251                      -4.02496                       0.59450
                       0.11753                      -4.39546                       0.65723
                       0.11926                      -4.76244                       0.71950
                       0.11800                      -5.06658                       0.77118
                       0.11564                      -5.31028                       0.81350
                       0.11320                      -5.55599                       0.86148
                       0.11155                      -5.68138                       0.88219
        </DataArray>
        <DataArray type="Float32" Name="OrientationX" NumberOfComponents="3" format="ascii">
                       0.98865                       0.04498                       0.14331
                       0.98866                       0.04494                       0.14331
                       0.98866                       0.04482                       0.14331
                       0.98867                       0.04463                       0.14332
                       0.98868                       0.04433                       0.14333
                       0.99278                       0.04366                       0.11170
                       0.99513                       0.04278                       0.08884
                       0.99676                       0.04165                       0.06886
                       0.99805                       0.04022                       0.04775
                       0.99892                       0.03848                       0.02604
                       0.99932                       0.03645                       0.00555
                       0.99931                       0.03414                      -0.01473
                       0.99895                       0.03163                      -0.03304
                       0.99848                       0.02905                      -0.04682
                       0.99783                       0.02644                      -0.06034
                       0.99713                       0.02436                      -0.07163
                       0.99653                       0.02285                      -0.08002
                       0.99619                       0.02164                      -0.08445
                       0.99621                       0.02119                      -0.08438
        </DataArray>
        <DataArray type="Float32" Name="OrientationY" NumberOfComponents="3" format="ascii">
                       0.14349                      -0.00068                      -0.98965
                       0.14349                      -0.00089                      -0.98965
                       0.14352                      -0.00144                      -0.98965
                       0.14356                      -0.00214                      -0.98964
                       0.14361                      -0.00313                      -0.98963
                       0.11206                      -0.00580                      -0.99368
                       0.08927                      -0.00805                      -0.99598
                       0.06934                      -0.01007                      -0.99754
                       0.04827                      -0.01199                      -0.99876
                       0.02659                      -0.01376                      -0.99955
                       0.00611                      -0.01530                      -0.99986
                      -0.01417                      -0.01665                      -0.99976
                      -0.03249                      -0.01775                      -0.99931
                      -0.04629                      -0.01857                      -0.99876
                      -0.05984                      -0.01926                      -0.99802
                      -0.07116                      -0.01975                      -0.99727
                      -0.07957                      -0.02008                      -0.99663
                      -0.08401                      -0.02028                      -0.99626
                      -0.08395                      -0.02032                      -0.99626
        </DataArray>
        <DataArray type="Float32" Name="OrientationZ" NumberOfComponents="3" format="ascii">
                      -0.04442                       0.99899                      -0.00713
                      -0.04435                       0.99899                      -0.00733
                      -0.04415                       0.99899                      -0.00786
                      -0.04387                       0.99900                      -0.00852
                      -0.04342                       0.99901                      -0.00946
                      -0.04274                       0.99903                      -0.01065
                      -0.04189                       0.99905                      -0.01182
                      -0.04085                       0.99908                      -0.01292
                      -0.03960                       0.99912                      -0.01391
                      -0.03810                       0.99916                      -0.01477
                      -0.03636                       0.99922                      -0.01551
                      -0.03438                       0.99928                      -0.01615
                      -0.03220                       0.99934                      -0.01671
                      -0.02988                       0.99941                      -0.01720
                      -0.02755                       0.99946                      -0.01763
                      -0.02570                       0.99951                      -0.01796
                      -0.02438                       0.99954                      -0.01819
                      -0.02327                       0.99956                      -0.01838
                      -0.02283                       0.99957                      -0.01846
        </DataArray>
        <DataArray type="Float32" Name="Force" NumberOfComponents="3" format="ascii">
                      18.56947                       0.83344                       1.08417
                     154.33361                       6.76921                     -11.16288
                     167.21984                       7.20920                     -23.71778
                     126.64911                       5.35283                     -26.86426
                     888.26456                      40.03915                     222.34263
                     839.23137                      36.88169                     168.09452
                     870.98228                      37.32132                     154.75016
                     765.90897                      31.79075                     112.43134
                     686.82726                      27.39403                      73.29464
                     695.63883                      26.55108                      58.90157
                     648.26591                      23.36689                      27.09275
                     652.69109                      22.09836                      13.50998
                     562.68757                      17.65376                      -6.66801
                     557.87925                      16.12882                     -14.41815
                     549.12877                      14.51642                     -21.48487
                     538.54292                      13.18069                     -26.52291
                     514.53590                      11.88503                     -27.25769
                     375.45747                       8.28158                     -16.61933
                     405.26801                       9.22123                      32.97463
        </DataArray>
        <DataArray type="Float32" Name="Moment" NumberOfComponents="3" format="ascii">
                       0.00000                       0.00000                       0.00000
                       0.00000                       0.00000                       0.00000
                       0.00000                       0.00000                       0.00000
                       0.00000                       0.00000                       0.00000
                      27.97982                    -646.72537                       4.68132
                      28.43808                    -669.39364                       4.89154
                      26.06101                    -627.42417                       4.63730
                      24.26044                    -600.39247                       4.49734
                      21.65586                    -554.24182                       4.21696
                      19.16200                    -510.82310                       3.95700
                      15.14332                    -424.00628                       3.35177
                      13.11507                    -389.28706                       3.14691
                      11.03633                    -350.66990                       2.90340
                       9.16160                    -314.50416                       2.66899
                       7.44533                    -278.06495                       2.41756
                       6.16819                    -247.60904                       2.19353
                       4.95044                    -209.99499                       1.88510
                       2.26167                    -100.70194                       0.91390
                       0.97721                     -44.39495                       0.40465
        </DataArray>
      </PointData>
      <Lines>
        <DataArray type="Int32" Name="connectivity" format="ascii">
      0      1
      1      2
      2      3
      3      4
      4      5
      5      6
      6      7
      7      8
      8      9
      9     10
     10     11
     11     12
     12     13
     13     14
     14     15
     15     16
     16     17
     17     18
        </DataArray>
        <DataArray type="Int32" Name="offsets" format="ascii">
      2
      4
      6
      8
     10
     12
     14
     16
     18
     20
     22
     24
     26
     28
     30
     32
     34
     36
        </DataArray>
      </Lines>
    </Piece>
  </PolyData>
</VTKFile>
