<?xml version="1.0"?>
<VTKFile type="PolyData" version="0.1" byte_order="LittleEndian">
  <PolyData>
    <Piece NumberOfPoints="     22" NumberOfVerts="  0" NumberOfLines="     21"
           NumberOfStrips="  0" NumberOfPolys="      0">
      <Points>
        <DataArray type="Float32" NumberOfComponents="3" format="ascii">
                       0.00004                      -0.00000                       2.19000
                       0.00035                      -0.00001                       6.57000
                       0.00105                      -0.00001                      10.95000
                       0.00214                      -0.00003                      15.33000
                       0.00363                      -0.00004                      19.71000
                       0.00551                      -0.00006                      24.09000
                       0.00774                      -0.00009                      28.47000
                       0.01031                      -0.00012                      32.85000
                       0.01319                      -0.00015                      37.23000
                       0.01638                      -0.00019                      41.61000
                       0.01986                      -0.00024                      45.98999
                       0.02365                      -0.00030                      50.36999
                       0.02775                      -0.00036                      54.74999
                       0.03216                      -0.00043                      59.12999
                       0.03689                      -0.00051                      63.50999
                       0.04193                      -0.00060                      67.88998
                       0.04723                      -0.00069                      72.26998
                       0.05272                      -0.00079                      76.64998
                       0.05827                      -0.00090                      81.02997
                       0.06368                      -0.00101                      85.40997
                       0.06625                      -0.00107                      87.59997
                       0.00000                       0.00000                       0.00000
        </DataArray>
      </Points>
      <PointData>
        <DataArray type="Float32" Name="TranslationalVelocity" NumberOfComponents="3" format="ascii">
                       0.00000                      -0.00000                      -0.00000
                       0.00001                      -0.00001                      -0.00000
                       0.00002                      -0.00002                      -0.00000
                       0.00005                      -0.00005                      -0.00000
                       0.00008                      -0.00007                      -0.00000
                       0.00013                      -0.00011                      -0.00000
                       0.00018                      -0.00014                      -0.00000
                       0.00025                      -0.00019                      -0.00000
                       0.00034                      -0.00024                      -0.00000
                       0.00043                      -0.00030                      -0.00000
                       0.00054                      -0.00036                      -0.00000
                       0.00067                      -0.00043                      -0.00000
                       0.00082                      -0.00051                      -0.00000
                       0.00099                      -0.00059                      -0.00000
                       0.00117                      -0.00068                      -0.00000
                       0.00138                      -0.00077                      -0.00000
                       0.00161                      -0.00087                      -0.00000
                       0.00185                      -0.00098                      -0.00000
                       0.00210                      -0.00109                      -0.00000
                       0.00236                      -0.00120                      -0.00000
                       0.00248                      -0.00125                      -0.00000
                       0.00000                      -0.00000                       0.00000
        </DataArray>
        <DataArray type="Float32" Name="RotationalVelocity" NumberOfComponents="3" format="ascii">
                       0.00000                       0.00000                       0.00000
                       0.00000                       0.00000                       0.00000
                       0.00000                       0.00000                       0.00000
                       0.00001                       0.00001                       0.00000
                       0.00001                       0.00001                       0.00000
                       0.00001                       0.00001                       0.00000
                       0.00001                       0.00001                       0.00000
                       0.00001                       0.00002                       0.00000
                       0.00001                       0.00002                       0.00000
                       0.00001                       0.00002                       0.00000
                       0.00002                       0.00003                       0.00000
                       0.00002                       0.00003                       0.00000
                       0.00002                       0.00004                       0.00000
                       0.00002                       0.00004                       0.00000
                       0.00002                       0.00005                       0.00000
                       0.00002                       0.00005                       0.00000
                       0.00002                       0.00005                       0.00000
                       0.00002                       0.00006                       0.00000
                       0.00003                       0.00006                       0.00000
                       0.00003                       0.00006                       0.00000
                       0.00003                       0.00006                       0.00000
                       0.00000                      -0.00000                       0.00000
        </DataArray>
        <DataArray type="Float32" Name="TranslationalAcceleration" NumberOfComponents="3" format="ascii">
                      -0.00004                      -0.00000                       0.00000
                      -0.00039                      -0.00001                       0.00000
                      -0.00116                      -0.00002                       0.00000
                      -0.00238                      -0.00003                       0.00000
                      -0.00405                      -0.00005                       0.00000
                      -0.00617                      -0.00008                       0.00000
                      -0.00870                      -0.00010                       0.00000
                      -0.01164                      -0.00013                       0.00000
                      -0.01496                      -0.00016                       0.00001
                      -0.01865                      -0.00018                       0.00001
                      -0.02273                      -0.00021                       0.00001
                      -0.02720                      -0.00024                       0.00002
                      -0.03208                      -0.00026                       0.00002
                      -0.03738                      -0.00028                       0.00003
                      -0.04312                      -0.00030                       0.00003
                      -0.04927                      -0.00032                       0.00004
                      -0.05579                      -0.00033                       0.00005
                      -0.06258                      -0.00033                       0.00006
                      -0.06949                      -0.00033                       0.00007
                      -0.07627                      -0.00033                       0.00007
                      -0.07950                      -0.00033                       0.00008
                       0.00000                      -0.00000                       0.00000
        </DataArray>
        <DataArray type="Float32" Name="RotationalAcceleration" NumberOfComponents="3" format="ascii">
                       0.00000                      -0.00004                       0.00000
                       0.00000                      -0.00013                       0.00000
                       0.00000                      -0.00023                       0.00000
                       0.00000                      -0.00033                       0.00000
                       0.00000                      -0.00043                       0.00000
                       0.00001                      -0.00053                       0.00000
                       0.00001                      -0.00062                       0.00000
                       0.00001                      -0.00071                       0.00000
                       0.00001                      -0.00080                       0.00000
                       0.00001                      -0.00089                       0.00000
                       0.00001                      -0.00098                       0.00000
                       0.00001                      -0.00107                       0.00000
                       0.00001                      -0.00116                       0.00000
                       0.00000                      -0.00126                       0.00000
                       0.00000                      -0.00136                       0.00000
                       0.00000                      -0.00145                       0.00000
                       0.00000                      -0.00152                       0.00000
                       0.00000                      -0.00157                       0.00000
                      -0.00000                      -0.00157                       0.00000
                      -0.00000                      -0.00151                       0.00000
                      -0.00000                      -0.00144                       0.00000
                       0.00000                      -0.00000                       0.00000
        </DataArray>
        <DataArray type="Float32" Name="OrientationX" NumberOfComponents="3" format="ascii">
                       1.00000                       0.00000                      -0.00003
                       1.00000                       0.00000                      -0.00011
                       1.00000                       0.00000                      -0.00020
                       1.00000                       0.00000                      -0.00030
                       1.00000                       0.00000                      -0.00039
                       1.00000                       0.00000                      -0.00047
                       1.00000                       0.00000                      -0.00055
                       1.00000                       0.00000                      -0.00062
                       1.00000                       0.00000                      -0.00069
                       1.00000                       0.00000                      -0.00076
                       1.00000                       0.00000                      -0.00083
                       1.00000                       0.00000                      -0.00090
                       1.00000                       0.00000                      -0.00097
                       1.00000                       0.00000                      -0.00104
                       1.00000                       0.00000                      -0.00112
                       1.00000                       0.00000                      -0.00118
                       1.00000                       0.00000                      -0.00124
                       1.00000                       0.00000                      -0.00127
                       1.00000                       0.00000                      -0.00126
                       1.00000                       0.00000                      -0.00120
                       1.00000                       0.00000                      -0.00114
                       1.00000                      -0.00000                       0.00000
        </DataArray>
        <DataArray type="Float32" Name="OrientationY" NumberOfComponents="3" format="ascii">
                       0.00000                       1.00000                       0.00000
                       0.00000                       1.00000                       0.00000
                       0.00000                       1.00000                       0.00000
                       0.00000                       1.00000                       0.00000
                       0.00000                       1.00000                       0.00000
                       0.00000                       1.00000                       0.00001
                       0.00000                       1.00000                       0.00001
                       0.00000                       1.00000                       0.00001
                       0.00000                       1.00000                       0.00001
                       0.00000                       1.00000                       0.00001
                       0.00000                       1.00000                       0.00001
                       0.00000                       1.00000                       0.00001
                       0.00000                       1.00000                       0.00002
                       0.00000                       1.00000                       0.00002
                       0.00000                       1.00000                       0.00002
                       0.00000                       1.00000                       0.00002
                       0.00000                       1.00000                       0.00002
                       0.00000                       1.00000                       0.00002
                       0.00000                       1.00000                       0.00003
                       0.00000                       1.00000                       0.00003
                       0.00000                       1.00000                       0.00003
                      -0.00000                       1.00000                      -0.00000
        </DataArray>
        <DataArray type="Float32" Name="OrientationZ" NumberOfComponents="3" format="ascii">
                       0.00003                      -0.00000                       1.00000
                       0.00011                      -0.00000                       1.00000
                       0.00020                      -0.00000                       1.00000
                       0.00030                      -0.00000                       1.00000
                       0.00039                      -0.00000                       1.00000
                       0.00047                      -0.00001                       1.00000
                       0.00055                      -0.00001                       1.00000
                       0.00062                      -0.00001                       1.00000
                       0.00069                      -0.00001                       1.00000
                       0.00076                      -0.00001                       1.00000
                       0.00083                      -0.00001                       1.00000
                       0.00090                      -0.00001                       1.00000
                       0.00097                      -0.00002                       1.00000
                       0.00104                      -0.00002                       1.00000
                       0.00112                      -0.00002                       1.00000
                       0.00118                      -0.00002                       1.00000
                       0.00124                      -0.00002                       1.00000
                       0.00127                      -0.00002                       1.00000
                       0.00126                      -0.00003                       1.00000
                       0.00120                      -0.00003                       1.00000
                       0.00114                      -0.00003                       1.00000
                       0.00000                      -0.00000                       1.00000
        </DataArray>
      </PointData>
      <Lines>
        <DataArray type="Int32" Name="connectivity" format="ascii">
      0      1
      1      2
      2      3
      3      4
      4      5
      5      6
      6      7
      7      8
      8      9
      9     10
     10     11
     11     12
     12     13
     13     14
     14     15
     15     16
     16     17
     17     18
     18     19
     19     20
     21      0
        </DataArray>
        <DataArray type="Int32" Name="offsets" format="ascii">
      2
      4
      6
      8
     10
     12
     14
     16
     18
     20
     22
     24
     26
     28
     30
     32
     34
     36
     38
     40
     42
        </DataArray>
      </Lines>
    </Piece>
  </PolyData>
</VTKFile>
