<?xml version="1.0"?>
<VTKFile type="PolyData" version="0.1" byte_order="LittleEndian">
  <PolyData>
    <Piece NumberOfPoints="     22" NumberOfVerts="  0" NumberOfLines="     21"
           NumberOfStrips="  0" NumberOfPolys="      0">
      <Points>
        <DataArray type="Float32" NumberOfComponents="3" format="ascii">
                       0.00003                      -0.00000                       2.19000
                       0.00034                      -0.00001                       6.57000
                       0.00101                      -0.00002                      10.95000
                       0.00207                      -0.00005                      15.33000
                       0.00351                      -0.00007                      19.71000
                       0.00533                      -0.00011                      24.09000
                       0.00749                      -0.00015                      28.47000
                       0.00997                      -0.00020                      32.85000
                       0.01276                      -0.00025                      37.23000
                       0.01585                      -0.00032                      41.61000
                       0.01922                      -0.00039                      45.98999
                       0.02289                      -0.00048                      50.36999
                       0.02686                      -0.00057                      54.74999
                       0.03114                      -0.00067                      59.12999
                       0.03573                      -0.00079                      63.50999
                       0.04062                      -0.00091                      67.88998
                       0.04576                      -0.00105                      72.26998
                       0.05109                      -0.00119                      76.64998
                       0.05648                      -0.00134                      81.02997
                       0.06173                      -0.00150                      85.40997
                       0.06423                      -0.00158                      87.59997
                       0.00000                       0.00000                       0.00000
        </DataArray>
      </Points>
      <PointData>
        <DataArray type="Float32" Name="TranslationalVelocity" NumberOfComponents="3" format="ascii">
                       0.00001                      -0.00000                      -0.00000
                       0.00006                      -0.00001                      -0.00000
                       0.00018                      -0.00002                      -0.00000
                       0.00037                      -0.00004                      -0.00000
                       0.00064                      -0.00006                      -0.00000
                       0.00097                      -0.00008                      -0.00000
                       0.00139                      -0.00012                      -0.00000
                       0.00187                      -0.00015                      -0.00000
                       0.00242                      -0.00020                      -0.00000
                       0.00304                      -0.00024                      -0.00000
                       0.00375                      -0.00030                      -0.00000
                       0.00453                      -0.00036                      -0.00000
                       0.00539                      -0.00042                      -0.00000
                       0.00635                      -0.00050                      -0.00000
                       0.00740                      -0.00058                      -0.00001
                       0.00854                      -0.00066                      -0.00001
                       0.00976                      -0.00075                      -0.00001
                       0.01104                      -0.00085                      -0.00001
                       0.01236                      -0.00095                      -0.00001
                       0.01366                      -0.00105                      -0.00001
                       0.01429                      -0.00111                      -0.00001
                       0.00000                      -0.00000                       0.00000
        </DataArray>
        <DataArray type="Float32" Name="RotationalVelocity" NumberOfComponents="3" format="ascii">
                       0.00000                       0.00001                       0.00000
                       0.00000                       0.00002                       0.00000
                       0.00000                       0.00004                       0.00000
                       0.00000                       0.00005                       0.00000
                       0.00001                       0.00007                       0.00000
                       0.00001                       0.00009                       0.00000
                       0.00001                       0.00010                       0.00000
                       0.00001                       0.00012                       0.00000
                       0.00001                       0.00013                       0.00000
                       0.00001                       0.00015                       0.00000
                       0.00001                       0.00017                       0.00000
                       0.00001                       0.00019                       0.00000
                       0.00002                       0.00021                       0.00000
                       0.00002                       0.00023                       0.00000
                       0.00002                       0.00025                       0.00000
                       0.00002                       0.00027                       0.00000
                       0.00002                       0.00029                       0.00000
                       0.00002                       0.00030                       0.00000
                       0.00002                       0.00030                       0.00000
                       0.00002                       0.00029                       0.00000
                       0.00002                       0.00028                       0.00000
                       0.00000                      -0.00000                       0.00000
        </DataArray>
        <DataArray type="Float32" Name="TranslationalAcceleration" NumberOfComponents="3" format="ascii">
                      -0.00007                      -0.00000                       0.00000
                      -0.00068                      -0.00000                       0.00000
                      -0.00199                       0.00000                       0.00000
                      -0.00402                       0.00000                       0.00000
                      -0.00675                       0.00000                       0.00000
                      -0.01012                       0.00001                       0.00000
                      -0.01407                       0.00001                       0.00000
                      -0.01853                       0.00002                       0.00001
                      -0.02340                       0.00004                       0.00001
                      -0.02865                       0.00005                       0.00001
                      -0.03421                       0.00008                       0.00002
                      -0.04006                       0.00011                       0.00002
                      -0.04617                       0.00015                       0.00003
                      -0.05253                       0.00020                       0.00003
                      -0.05911                       0.00026                       0.00004
                      -0.06590                       0.00033                       0.00005
                      -0.07283                       0.00041                       0.00006
                      -0.07980                       0.00050                       0.00006
                      -0.08665                       0.00060                       0.00007
                      -0.09313                       0.00070                       0.00008
                      -0.09612                       0.00075                       0.00008
                       0.00000                      -0.00000                       0.00000
        </DataArray>
        <DataArray type="Float32" Name="RotationalAcceleration" NumberOfComponents="3" format="ascii">
                       0.00000                      -0.00007                       0.00000
                       0.00000                      -0.00022                       0.00000
                      -0.00000                      -0.00038                       0.00000
                      -0.00000                      -0.00055                       0.00000
                      -0.00000                      -0.00070                       0.00000
                      -0.00000                      -0.00084                       0.00000
                      -0.00000                      -0.00096                       0.00000
                      -0.00000                      -0.00107                       0.00000
                      -0.00000                      -0.00116                       0.00000
                      -0.00000                      -0.00124                       0.00000
                      -0.00001                      -0.00130                       0.00000
                      -0.00001                      -0.00137                       0.00000
                      -0.00001                      -0.00142                       0.00000
                      -0.00001                      -0.00148                       0.00000
                      -0.00001                      -0.00153                       0.00000
                      -0.00002                      -0.00157                       0.00000
                      -0.00002                      -0.00159                       0.00000
                      -0.00002                      -0.00159                       0.00000
                      -0.00002                      -0.00153                       0.00000
                      -0.00002                      -0.00141                       0.00000
                      -0.00002                      -0.00132                       0.00000
                       0.00000                      -0.00000                       0.00000
        </DataArray>
        <DataArray type="Float32" Name="OrientationX" NumberOfComponents="3" format="ascii">
                       1.00000                       0.00000                      -0.00003
                       1.00000                       0.00000                      -0.00011
                       1.00000                       0.00000                      -0.00020
                       1.00000                       0.00000                      -0.00029
                       1.00000                       0.00000                      -0.00037
                       1.00000                       0.00000                      -0.00045
                       1.00000                       0.00000                      -0.00053
                       1.00000                       0.00000                      -0.00060
                       1.00000                       0.00000                      -0.00067
                       1.00000                       0.00000                      -0.00074
                       1.00000                       0.00000                      -0.00080
                       1.00000                       0.00000                      -0.00087
                       1.00000                       0.00000                      -0.00094
                       1.00000                       0.00000                      -0.00101
                       1.00000                       0.00000                      -0.00108
                       1.00000                       0.00000                      -0.00115
                       1.00000                       0.00000                      -0.00120
                       1.00000                       0.00000                      -0.00123
                       1.00000                       0.00000                      -0.00122
                       1.00000                       0.00000                      -0.00117
                       1.00000                       0.00000                      -0.00111
                       1.00000                      -0.00000                       0.00000
        </DataArray>
        <DataArray type="Float32" Name="OrientationY" NumberOfComponents="3" format="ascii">
                       0.00000                       1.00000                       0.00000
                       0.00000                       1.00000                       0.00000
                       0.00000                       1.00000                       0.00000
                       0.00000                       1.00000                       0.00001
                       0.00000                       1.00000                       0.00001
                       0.00000                       1.00000                       0.00001
                       0.00000                       1.00000                       0.00001
                       0.00000                       1.00000                       0.00001
                       0.00000                       1.00000                       0.00001
                       0.00000                       1.00000                       0.00002
                       0.00000                       1.00000                       0.00002
                       0.00000                       1.00000                       0.00002
                       0.00000                       1.00000                       0.00002
                       0.00000                       1.00000                       0.00003
                       0.00000                       1.00000                       0.00003
                       0.00000                       1.00000                       0.00003
                       0.00000                       1.00000                       0.00003
                       0.00000                       1.00000                       0.00003
                       0.00000                       1.00000                       0.00004
                       0.00000                       1.00000                       0.00004
                       0.00000                       1.00000                       0.00004
                      -0.00000                       1.00000                      -0.00000
        </DataArray>
        <DataArray type="Float32" Name="OrientationZ" NumberOfComponents="3" format="ascii">
                       0.00003                      -0.00000                       1.00000
                       0.00011                      -0.00000                       1.00000
                       0.00020                      -0.00000                       1.00000
                       0.00029                      -0.00001                       1.00000
                       0.00037                      -0.00001                       1.00000
                       0.00045                      -0.00001                       1.00000
                       0.00053                      -0.00001                       1.00000
                       0.00060                      -0.00001                       1.00000
                       0.00067                      -0.00001                       1.00000
                       0.00074                      -0.00002                       1.00000
                       0.00080                      -0.00002                       1.00000
                       0.00087                      -0.00002                       1.00000
                       0.00094                      -0.00002                       1.00000
                       0.00101                      -0.00003                       1.00000
                       0.00108                      -0.00003                       1.00000
                       0.00115                      -0.00003                       1.00000
                       0.00120                      -0.00003                       1.00000
                       0.00123                      -0.00003                       1.00000
                       0.00122                      -0.00004                       1.00000
                       0.00117                      -0.00004                       1.00000
                       0.00111                      -0.00004                       1.00000
                       0.00000                      -0.00000                       1.00000
        </DataArray>
      </PointData>
      <Lines>
        <DataArray type="Int32" Name="connectivity" format="ascii">
      0      1
      1      2
      2      3
      3      4
      4      5
      5      6
      6      7
      7      8
      8      9
      9     10
     10     11
     11     12
     12     13
     13     14
     14     15
     15     16
     16     17
     17     18
     18     19
     19     20
     21      0
        </DataArray>
        <DataArray type="Int32" Name="offsets" format="ascii">
      2
      4
      6
      8
     10
     12
     14
     16
     18
     20
     22
     24
     26
     28
     30
     32
     34
     36
     38
     40
     42
        </DataArray>
      </Lines>
    </Piece>
  </PolyData>
</VTKFile>
