<?xml version="1.0"?>
<VTKFile type="PolyData" version="0.1" byte_order="LittleEndian">
  <PolyData>
    <Piece NumberOfPoints="     19" NumberOfVerts="  0" NumberOfLines="     18"
           NumberOfStrips="  0" NumberOfPolys="      0">
      <Points>
        <DataArray type="Float32" NumberOfComponents="3" format="ascii">
                      -4.92995                      -0.06578                      91.49725
                      -4.87122                      -0.12901                      92.86121
                      -4.77600                      -0.35009                      95.58584
                      -4.69082                      -0.61606                      98.30893
                      -4.58950                      -0.97551                     101.71192
                      -4.41224                      -1.26442                     105.79924
                      -4.20728                      -1.42401                     109.89099
                      -4.00058                      -1.58164                     113.98272
                      -3.78888                      -1.73552                     118.07436
                      -3.57218                      -1.88760                     122.16581
                      -3.35100                      -2.04153                     126.25693
                      -3.12387                      -2.19577                     130.34770
                      -2.89083                      -2.35030                     134.43812
                      -2.65214                      -2.50507                     138.52821
                      -2.40583                      -2.66014                     142.61784
                      -2.19452                      -2.78953                     146.02555
                      -2.02195                      -2.88522                     148.75181
                      -1.84683                      -2.92596                     151.48042
                      -1.75900                      -2.98796                     152.84277
        </DataArray>
      </Points>
      <PointData>
        <DataArray type="Float32" Name="TranslationalVelocity" NumberOfComponents="3" format="ascii">
                       0.04568                      -0.03991                       0.00529
                       0.04745                      -0.07538                       0.00358
                       0.05107                      -0.14624                      -0.00230
                       0.05484                      -0.21712                      -0.00933
                       0.05968                      -0.30579                      -0.01884
                       0.06598                      -0.41256                      -0.02666
                       0.07292                      -0.51972                      -0.03119
                       0.08061                      -0.62714                      -0.03571
                       0.08976                      -0.73488                      -0.04023
                       0.10134                      -0.84300                      -0.04484
                       0.11658                      -0.95157                      -0.04973
                       0.13697                      -1.06063                      -0.05496
                       0.16425                      -1.17025                      -0.06065
                       0.20039                      -1.28043                      -0.06691
                       0.24756                      -1.39118                      -0.07395
                       0.29729                      -1.48390                      -0.08054
                       0.34464                      -1.55831                      -0.08614
                       0.39981                      -1.63296                      -0.09080
                       0.43040                      -1.67029                      -0.09448
        </DataArray>
        <DataArray type="Float32" Name="RotationalVelocity" NumberOfComponents="3" format="ascii">
                       0.02590                       0.00142                      -0.00226
                       0.02591                       0.00144                      -0.00226
                       0.02593                       0.00150                      -0.00226
                       0.02596                       0.00157                      -0.00226
                       0.02599                       0.00165                      -0.00226
                       0.02604                       0.00175                      -0.00226
                       0.02610                       0.00190                      -0.00227
                       0.02617                       0.00215                      -0.00228
                       0.02625                       0.00258                      -0.00230
                       0.02634                       0.00329                      -0.00233
                       0.02645                       0.00434                      -0.00236
                       0.02658                       0.00581                      -0.00239
                       0.02672                       0.00775                      -0.00243
                       0.02686                       0.01018                      -0.00247
                       0.02699                       0.01307                      -0.00250
                       0.02707                       0.01579                      -0.00251
                       0.02712                       0.01813                      -0.00251
                       0.02713                       0.02055                      -0.00250
                       0.02712                       0.02178                      -0.00249
        </DataArray>
        <DataArray type="Float32" Name="TranslationalAcceleration" NumberOfComponents="3" format="ascii">
                       0.12932                      -0.00968                      -0.02041
                       0.03477                      -0.01252                      -0.00731
                       0.08128                      -0.03598                      -0.01901
                       0.10776                      -0.05760                      -0.02782
                       0.13000                      -0.08397                      -0.03615
                       0.15815                      -0.11607                      -0.04260
                       0.19854                      -0.14968                      -0.04756
                       0.24979                      -0.18442                      -0.05320
                       0.29936                      -0.21932                      -0.05947
                       0.32581                      -0.25287                      -0.06527
                       0.30064                      -0.28322                      -0.06877
                       0.19031                      -0.30852                      -0.06755
                      -0.04184                      -0.32711                      -0.05891
                      -0.43359                      -0.33777                      -0.04016
                      -1.02190                      -0.34008                      -0.00843
                      -1.69147                      -0.33594                       0.03012
                      -2.35099                      -0.32957                       0.06939
                      -3.12774                      -0.32134                       0.11639
                      -3.56517                      -0.31682                       0.14316
        </DataArray>
        <DataArray type="Float32" Name="OrientationX" NumberOfComponents="3" format="ascii">
                       0.97134                      -0.23182                      -0.05255
                       0.97133                      -0.23182                      -0.05261
                       0.97132                      -0.23182                      -0.05281
                       0.97131                      -0.23183                      -0.05310
                       0.97128                      -0.23184                      -0.05357
                       0.97819                      -0.20076                      -0.05323
                       0.98254                      -0.17826                      -0.05333
                       0.98589                      -0.15858                      -0.05368
                       0.98899                      -0.13774                      -0.05417
                       0.99170                      -0.11626                      -0.05481
                       0.99383                      -0.09595                      -0.05568
                       0.99551                      -0.07580                      -0.05673
                       0.99666                      -0.05755                      -0.05799
                       0.99727                      -0.04378                      -0.05952
                       0.99768                      -0.03022                      -0.06102
                       0.99789                      -0.01888                      -0.06215
                       0.99796                      -0.01043                      -0.06293
                       0.99795                      -0.00597                      -0.06367
                       0.99793                      -0.00602                      -0.06404
        </DataArray>
        <DataArray type="Float32" Name="OrientationY" NumberOfComponents="3" format="ascii">
                       0.23368                       0.97177                       0.03239
                       0.23368                       0.97177                       0.03238
                       0.23369                       0.97177                       0.03237
                       0.23370                       0.97177                       0.03235
                       0.23374                       0.97176                       0.03233
                       0.20270                       0.97865                       0.03399
                       0.18025                       0.98299                       0.03518
                       0.16062                       0.98635                       0.03623
                       0.13985                       0.98947                       0.03733
                       0.11845                       0.99221                       0.03849
                       0.09822                       0.99438                       0.03959
                       0.07816                       0.99611                       0.04072
                       0.06002                       0.99732                       0.04176
                       0.04635                       0.99802                       0.04257
                       0.03290                       0.99852                       0.04339
                       0.02164                       0.99879                       0.04409
                       0.01326                       0.99892                       0.04462
                       0.00884                       0.99895                       0.04489
                       0.00891                       0.99895                       0.04487
        </DataArray>
        <DataArray type="Float32" Name="OrientationZ" NumberOfComponents="3" format="ascii">
                       0.04356                      -0.04374                       0.99809
                       0.04362                      -0.04375                       0.99809
                       0.04382                      -0.04379                       0.99808
                       0.04410                      -0.04384                       0.99806
                       0.04456                      -0.04392                       0.99804
                       0.04527                      -0.04404                       0.99800
                       0.04615                      -0.04418                       0.99796
                       0.04721                      -0.04434                       0.99790
                       0.04845                      -0.04450                       0.99783
                       0.04991                      -0.04466                       0.99775
                       0.05157                      -0.04482                       0.99766
                       0.05342                      -0.04497                       0.99756
                       0.05543                      -0.04510                       0.99744
                       0.05753                      -0.04521                       0.99732
                       0.05962                      -0.04530                       0.99719
                       0.06125                      -0.04535                       0.99709
                       0.06240                      -0.04536                       0.99702
                       0.06333                      -0.04536                       0.99696
                       0.06370                      -0.04535                       0.99694
        </DataArray>
        <DataArray type="Float32" Name="Force" NumberOfComponents="3" format="ascii">
                     155.61233                       0.81167                      -6.75525
                     156.49412                       1.27764                      -6.78315
                     172.16611                       2.41352                      -7.45229
                     131.70358                       2.61053                      -5.70505
                     738.82173                    -253.93034                     -44.11870
                     692.85762                    -201.24846                     -40.25145
                     670.64937                    -178.06292                     -38.81926
                     601.66668                    -141.26893                     -34.65446
                     551.89276                    -107.49009                     -31.51184
                     523.95181                     -90.12281                     -30.15954
                     500.55394                     -66.78039                     -28.80188
                     471.41083                     -53.19338                     -27.57886
                     430.64306                     -39.33305                     -25.65845
                     399.47213                     -30.96341                     -24.40244
                     366.83617                     -23.45919                     -22.95971
                     338.59855                     -17.81910                     -21.57864
                     306.09533                     -13.53135                     -19.74784
                     208.22048                      -8.26539                     -13.58846
                     207.98649                      -8.25607                     -13.64959
        </DataArray>
        <DataArray type="Float32" Name="Moment" NumberOfComponents="3" format="ascii">
                       0.00000                       0.00000                       0.00000
                       0.00000                       0.00000                       0.00000
                       0.00000                       0.00000                       0.00000
                       0.00000                       0.00000                       0.00000
                     -32.47526                      31.87543                    -727.30089
                     -34.49329                      33.32670                    -760.36720
                     -32.97989                      31.25981                    -713.15525
                     -31.68220                      29.35985                    -669.74800
                     -29.29129                      26.44602                    -603.21262
                     -26.89024                      23.57215                    -537.59366
                     -22.81347                      19.35525                    -441.35753
                     -20.75947                      17.00225                    -387.63910
                     -18.50085                      14.60387                    -332.89928
                     -16.35719                      12.44156                    -283.55656
                     -14.18227                      10.41093                    -237.23300
                     -12.35621                       8.82990                    -201.17754
                     -10.26439                       7.20034                    -164.03370
                      -4.81902                       3.33060                     -75.86938
                      -4.83858                       3.32499                     -75.73934
        </DataArray>
      </PointData>
      <Lines>
        <DataArray type="Int32" Name="connectivity" format="ascii">
      0      1
      1      2
      2      3
      3      4
      4      5
      5      6
      6      7
      7      8
      8      9
      9     10
     10     11
     11     12
     12     13
     13     14
     14     15
     15     16
     16     17
     17     18
        </DataArray>
        <DataArray type="Int32" Name="offsets" format="ascii">
      2
      4
      6
      8
     10
     12
     14
     16
     18
     20
     22
     24
     26
     28
     30
     32
     34
     36
        </DataArray>
      </Lines>
    </Piece>
  </PolyData>
</VTKFile>
