<?xml version="1.0"?>
<VTKFile type="PolyData" version="0.1" byte_order="LittleEndian">
  <PolyData>
    <Piece NumberOfPoints="     19" NumberOfVerts="  0" NumberOfLines="     18"
           NumberOfStrips="  0" NumberOfPolys="      0">
      <Points>
        <DataArray type="Float32" NumberOfComponents="3" format="ascii">
                      -4.82522                       0.34647                      88.58908
                      -5.00970                       0.67204                      87.27450
                      -5.39499                       1.41467                      84.67012
                      -5.78420                       2.20060                      82.07673
                      -6.26640                       3.20912                      78.84030
                      -6.77737                       4.28142                      74.91351
                      -7.24122                       5.22885                      70.95013
                      -7.67349                       6.17574                      66.98304
                      -8.06401                       7.12093                      63.01127
                      -8.40551                       8.06669                      59.03525
                      -8.69147                       9.01680                      55.05602
                      -8.91412                       9.96977                      51.07344
                      -9.06815                      10.92524                      47.08807
                      -9.14983                      11.88256                      43.10075
                      -9.15493                      12.84065                      39.11261
                      -9.09903                      13.63846                      35.78965
                      -9.01833                      14.26782                      33.13056
                      -8.90885                      14.84196                      30.45991
                      -8.84208                      15.16848                      29.13556
        </DataArray>
      </Points>
      <PointData>
        <DataArray type="Float32" Name="TranslationalVelocity" NumberOfComponents="3" format="ascii">
                       0.09328                       1.53414                       0.38002
                       0.12404                       2.94247                       0.72449
                       0.19440                       5.73339                       1.50987
                       0.26839                       8.51133                       2.34050
                       0.36193                      11.97475                       3.40548
                       0.45756                      16.16485                       4.53657
                       0.53708                      20.38330                       5.53490
                       0.61267                      24.59691                       6.53165
                       0.68429                      28.80596                       7.52556
                       0.75254                      33.00973                       8.51900
                       0.81843                      37.20703                       9.51588
                       0.88267                      41.39785                      10.51460
                       0.94634                      45.58163                      11.51478
                       1.01071                      49.75760                      12.51576
                       1.07719                      53.92442                      13.51644
                       1.13545                      57.38845                      14.34891
                       1.18361                      60.15563                      15.00515
                       1.22826                      62.93081                      15.60337
                       1.25659                      64.30518                      15.94357
        </DataArray>
        <DataArray type="Float32" Name="RotationalVelocity" NumberOfComponents="3" format="ascii">
                       1.05753                       0.00123                      -0.09970
                       1.05732                       0.00128                      -0.09967
                       1.05677                       0.00146                      -0.09960
                       1.05606                       0.00178                      -0.09952
                       1.05503                       0.00233                      -0.09945
                       1.05365                       0.00319                      -0.09946
                       1.05221                       0.00421                      -0.09968
                       1.05081                       0.00534                      -0.10019
                       1.04950                       0.00651                      -0.10107
                       1.04831                       0.00765                      -0.10236
                       1.04728                       0.00870                      -0.10408
                       1.04643                       0.00958                      -0.10618
                       1.04574                       0.01019                      -0.10856
                       1.04521                       0.01047                      -0.11104
                       1.04482                       0.01031                      -0.11336
                       1.04457                       0.00979                      -0.11491
                       1.04441                       0.00907                      -0.11572
                       1.04427                       0.00805                      -0.11594
                       1.04420                       0.00742                      -0.11579
        </DataArray>
        <DataArray type="Float32" Name="TranslationalAcceleration" NumberOfComponents="3" format="ascii">
                       0.11742                      -0.27083                       1.66406
                       0.18429                      -0.30364                       2.01951
                       0.54113                      -0.95947                       5.76016
                       0.89350                      -1.61247                       9.19148
                       1.34524                      -2.39921                      13.18805
                       1.92106                      -3.12450                      17.73647
                       2.54408                      -3.66480                      22.16805
                       3.21466                      -4.18384                      26.57431
                       3.92689                      -4.69132                      31.01490
                       4.67134                      -5.19450                      35.50951
                       5.43807                      -5.69750                      40.04955
                       6.22025                      -6.19517                      44.61045
                       7.01706                      -6.68206                      49.16175
                       7.83696                      -7.15230                      53.67845
                       8.70058                      -7.60040                      58.15190
                       9.48094                      -7.95444                      61.85877
                      10.16690                      -8.21540                      64.83075
                      10.94645                      -8.40467                      67.84182
                      11.35754                      -8.54131                      69.36536
        </DataArray>
        <DataArray type="Float32" Name="OrientationX" NumberOfComponents="3" format="ascii">
                       0.96915                       0.23372                      -0.07825
                       0.96921                       0.23361                      -0.07782
                       0.96941                       0.23323                      -0.07643
                       0.96971                       0.23265                      -0.07437
                       0.97021                       0.23165                      -0.07096
                       0.97705                       0.19981                      -0.07375
                       0.98174                       0.17579                      -0.07271
                       0.98565                       0.15393                      -0.06927
                       0.98938                       0.13035                      -0.06429
                       0.99275                       0.10551                      -0.05752
                       0.99552                       0.08119                      -0.04851
                       0.99770                       0.05646                      -0.03762
                       0.99914                       0.03318                      -0.02478
                       0.99985                       0.01405                      -0.00995
                       0.99998                      -0.00473                       0.00494
                       0.99966                      -0.02004                       0.01651
                       0.99921                      -0.03117                       0.02469
                       0.99877                      -0.03780                       0.03211
                       0.99862                      -0.03857                       0.03552
        </DataArray>
        <DataArray type="Float32" Name="OrientationY" NumberOfComponents="3" format="ascii">
                       0.20649                      -0.94328                      -0.25998
                       0.20650                      -0.94332                      -0.25982
                       0.20653                      -0.94343                      -0.25939
                       0.20652                      -0.94358                      -0.25884
                       0.20648                      -0.94381                      -0.25803
                       0.17526                      -0.95101                      -0.25469
                       0.15245                      -0.95564                      -0.25202
                       0.13227                      -0.95926                      -0.24966
                       0.11074                      -0.96257                      -0.24739
                       0.08839                      -0.96541                      -0.24531
                       0.06704                      -0.96755                      -0.24361
                       0.04571                      -0.96913                      -0.24228
                       0.02623                      -0.97007                      -0.24142
                       0.01124                      -0.97045                      -0.24103
                      -0.00340                      -0.97054                      -0.24092
                      -0.01547                      -0.97040                      -0.24100
                      -0.02431                      -0.97020                      -0.24110
                      -0.02896                      -0.97008                      -0.24107
                      -0.02890                      -0.97011                      -0.24092
        </DataArray>
        <DataArray type="Float32" Name="OrientationZ" NumberOfComponents="3" format="ascii">
                      -0.13457                       0.23580                      -0.96244
                      -0.13410                       0.23575                      -0.96252
                      -0.13260                       0.23567                      -0.96274
                      -0.13040                       0.23564                      -0.96305
                      -0.12674                       0.23570                      -0.96353
                      -0.12103                       0.23592                      -0.96421
                      -0.11379                       0.23633                      -0.96499
                      -0.10488                       0.23692                      -0.96585
                      -0.09413                       0.23764                      -0.96678
                      -0.08142                       0.23845                      -0.96774
                      -0.06671                       0.23926                      -0.96866
                      -0.05014                       0.24000                      -0.96948
                      -0.03205                       0.24057                      -0.97010
                      -0.01304                       0.24089                      -0.97047
                       0.00594                       0.24090                      -0.97053
                       0.02086                       0.24066                      -0.97039
                       0.03147                       0.24031                      -0.97019
                       0.04026                       0.23984                      -0.96998
                       0.04375                       0.23957                      -0.96989
        </DataArray>
        <DataArray type="Float32" Name="Force" NumberOfComponents="3" format="ascii">
                      -0.03595                      -1.57749                      -0.38147
                     116.67688                     -25.92062                     -22.60642
                     143.98353                     -67.47675                     -36.36045
                     126.26266                     -90.78124                     -39.32871
                    1158.49281                     410.97498                     -51.77814
                    1417.44708                     523.46503                     -49.83942
                    2066.04788                     764.88653                     -56.58773
                    2488.90701                     782.33636                     -79.12051
                    2822.74977                     766.45047                     -87.77371
                    3319.15618                     758.82823                     -94.29469
                    3937.56275                     757.79295                     -86.80566
                    4446.45107                     725.65205                     -53.81896
                    4893.90317                     683.41746                       3.74800
                    5290.39130                     628.87081                      80.57775
                    5603.14997                     557.86238                     168.26464
                    5751.37465                     476.25354                     237.53012
                    5571.58400                     378.99620                     271.04639
                    3999.21750                     222.38342                     218.75136
                    1778.35423                     -82.63273                      59.96777
        </DataArray>
        <DataArray type="Float32" Name="Moment" NumberOfComponents="3" format="ascii">
                       0.00000                       0.00000                       0.00000
                       0.00000                       0.00000                       0.00000
                       0.00000                       0.00000                       0.00000
                       0.00000                       0.00000                       0.00000
                      60.71324                    -112.99422                     461.54723
                      54.44137                    -106.12238                     433.72092
                      73.08936                    -151.56327                     619.87673
                      97.68659                    -219.78865                     899.69334
                     119.02673                    -298.35318                    1222.57259
                     121.63721                    -352.38948                    1445.78450
                     105.66209                    -373.32489                    1533.86462
                      84.41282                    -396.28893                    1630.83082
                      49.65680                    -363.81401                    1499.81142
                      20.28545                    -362.46235                    1496.98950
                      -8.63644                    -349.75227                    1447.15446
                     -29.35830                    -332.39051                    1377.31049
                     -39.77697                    -297.36324                    1233.44296
                     -25.79402                    -150.42566                     624.49016
                     -24.13951                    -129.43048                     537.51228
        </DataArray>
      </PointData>
      <Lines>
        <DataArray type="Int32" Name="connectivity" format="ascii">
      0      1
      1      2
      2      3
      3      4
      4      5
      5      6
      6      7
      7      8
      8      9
      9     10
     10     11
     11     12
     12     13
     13     14
     14     15
     15     16
     16     17
     17     18
        </DataArray>
        <DataArray type="Int32" Name="offsets" format="ascii">
      2
      4
      6
      8
     10
     12
     14
     16
     18
     20
     22
     24
     26
     28
     30
     32
     34
     36
        </DataArray>
      </Lines>
    </Piece>
  </PolyData>
</VTKFile>
