<?xml version="1.0"?>
<VTKFile type="PolyData" version="0.1" byte_order="LittleEndian">
  <PolyData>
    <Piece NumberOfPoints="     22" NumberOfVerts="  0" NumberOfLines="     21"
           NumberOfStrips="  0" NumberOfPolys="      0">
      <Points>
        <DataArray type="Float32" NumberOfComponents="3" format="ascii">
                       0.00003                      -0.00000                       2.19000
                       0.00032                      -0.00001                       6.57000
                       0.00095                      -0.00002                      10.95000
                       0.00194                      -0.00004                      15.33000
                       0.00329                      -0.00006                      19.71000
                       0.00499                      -0.00009                      24.09000
                       0.00701                      -0.00013                      28.47000
                       0.00933                      -0.00017                      32.85000
                       0.01194                      -0.00022                      37.23000
                       0.01482                      -0.00028                      41.61000
                       0.01796                      -0.00034                      45.99000
                       0.02137                      -0.00042                      50.36999
                       0.02506                      -0.00051                      54.74999
                       0.02903                      -0.00060                      59.12999
                       0.03329                      -0.00071                      63.50999
                       0.03781                      -0.00083                      67.88999
                       0.04257                      -0.00096                      72.26998
                       0.04749                      -0.00110                      76.64998
                       0.05247                      -0.00125                      81.02998
                       0.05732                      -0.00140                      85.40998
                       0.05962                      -0.00148                      87.59997
                       0.00000                       0.00000                       0.00000
        </DataArray>
      </Points>
      <PointData>
        <DataArray type="Float32" Name="TranslationalVelocity" NumberOfComponents="3" format="ascii">
                      -0.00001                       0.00000                       0.00000
                      -0.00012                       0.00000                       0.00000
                      -0.00035                       0.00000                       0.00000
                      -0.00071                       0.00001                       0.00000
                      -0.00122                       0.00001                       0.00000
                      -0.00186                       0.00002                       0.00000
                      -0.00262                       0.00002                       0.00000
                      -0.00352                       0.00003                       0.00000
                      -0.00453                       0.00003                       0.00000
                      -0.00566                       0.00004                       0.00000
                      -0.00692                       0.00005                       0.00000
                      -0.00830                       0.00006                       0.00000
                      -0.00981                       0.00008                       0.00001
                      -0.01147                       0.00009                       0.00001
                      -0.01326                       0.00010                       0.00001
                      -0.01519                       0.00012                       0.00001
                      -0.01725                       0.00013                       0.00001
                      -0.01939                       0.00015                       0.00002
                      -0.02158                       0.00016                       0.00002
                      -0.02373                       0.00018                       0.00002
                      -0.02476                       0.00019                       0.00002
                       0.00000                      -0.00000                       0.00000
        </DataArray>
        <DataArray type="Float32" Name="RotationalVelocity" NumberOfComponents="3" format="ascii">
                      -0.00000                      -0.00001                       0.00000
                      -0.00000                      -0.00004                       0.00000
                      -0.00000                      -0.00007                       0.00000
                      -0.00000                      -0.00010                       0.00000
                      -0.00000                      -0.00013                       0.00000
                      -0.00000                      -0.00016                       0.00000
                      -0.00000                      -0.00019                       0.00000
                      -0.00000                      -0.00022                       0.00000
                      -0.00000                      -0.00024                       0.00000
                      -0.00000                      -0.00027                       0.00000
                      -0.00000                      -0.00030                       0.00000
                      -0.00000                      -0.00033                       0.00000
                      -0.00000                      -0.00036                       0.00000
                      -0.00000                      -0.00039                       0.00000
                      -0.00000                      -0.00043                       0.00000
                      -0.00000                      -0.00046                       0.00000
                      -0.00000                      -0.00048                       0.00000
                      -0.00000                      -0.00050                       0.00000
                      -0.00000                      -0.00050                       0.00000
                      -0.00000                      -0.00048                       0.00000
                      -0.00000                      -0.00046                       0.00000
                       0.00000                      -0.00000                       0.00000
        </DataArray>
        <DataArray type="Float32" Name="TranslationalAcceleration" NumberOfComponents="3" format="ascii">
                      -0.00000                       0.00000                      -0.00000
                      -0.00002                       0.00001                      -0.00000
                      -0.00005                       0.00004                      -0.00000
                      -0.00010                       0.00007                      -0.00000
                      -0.00018                       0.00011                      -0.00000
                      -0.00027                       0.00017                      -0.00000
                      -0.00038                       0.00022                      -0.00000
                      -0.00051                       0.00029                      -0.00000
                      -0.00066                       0.00037                      -0.00000
                      -0.00082                       0.00045                      -0.00000
                      -0.00100                       0.00054                      -0.00000
                      -0.00120                       0.00064                      -0.00000
                      -0.00142                       0.00074                      -0.00000
                      -0.00166                       0.00085                      -0.00000
                      -0.00191                       0.00097                      -0.00000
                      -0.00219                       0.00109                      -0.00000
                      -0.00248                       0.00122                      -0.00000
                      -0.00278                       0.00135                      -0.00000
                      -0.00309                       0.00148                      -0.00001
                      -0.00339                       0.00162                      -0.00001
                      -0.00354                       0.00168                      -0.00001
                       0.00000                      -0.00000                       0.00000
        </DataArray>
        <DataArray type="Float32" Name="RotationalAcceleration" NumberOfComponents="3" format="ascii">
                      -0.00000                      -0.00000                       0.00000
                      -0.00000                      -0.00001                       0.00000
                      -0.00001                      -0.00001                       0.00000
                      -0.00001                      -0.00001                       0.00000
                      -0.00001                      -0.00002                       0.00000
                      -0.00001                      -0.00002                       0.00000
                      -0.00001                      -0.00003                       0.00000
                      -0.00002                      -0.00003                       0.00000
                      -0.00002                      -0.00004                       0.00000
                      -0.00002                      -0.00004                       0.00000
                      -0.00002                      -0.00004                       0.00000
                      -0.00002                      -0.00005                       0.00000
                      -0.00002                      -0.00005                       0.00000
                      -0.00003                      -0.00006                       0.00000
                      -0.00003                      -0.00006                       0.00000
                      -0.00003                      -0.00006                       0.00000
                      -0.00003                      -0.00007                       0.00000
                      -0.00003                      -0.00007                       0.00000
                      -0.00003                      -0.00007                       0.00000
                      -0.00003                      -0.00007                       0.00000
                      -0.00003                      -0.00006                       0.00000
                       0.00000                      -0.00000                       0.00000
        </DataArray>
        <DataArray type="Float32" Name="OrientationX" NumberOfComponents="3" format="ascii">
                       1.00000                       0.00000                      -0.00003
                       1.00000                       0.00000                      -0.00010
                       1.00000                       0.00000                      -0.00018
                       1.00000                       0.00000                      -0.00027
                       1.00000                       0.00000                      -0.00035
                       1.00000                       0.00000                      -0.00043
                       1.00000                       0.00000                      -0.00050
                       1.00000                       0.00000                      -0.00056
                       1.00000                       0.00000                      -0.00063
                       1.00000                       0.00000                      -0.00069
                       1.00000                       0.00000                      -0.00075
                       1.00000                       0.00000                      -0.00081
                       1.00000                       0.00000                      -0.00087
                       1.00000                       0.00000                      -0.00094
                       1.00000                       0.00000                      -0.00100
                       1.00000                       0.00000                      -0.00106
                       1.00000                       0.00000                      -0.00111
                       1.00000                       0.00000                      -0.00114
                       1.00000                       0.00000                      -0.00113
                       1.00000                       0.00000                      -0.00107
                       1.00000                       0.00000                      -0.00102
                       1.00000                      -0.00000                       0.00000
        </DataArray>
        <DataArray type="Float32" Name="OrientationY" NumberOfComponents="3" format="ascii">
                       0.00000                       1.00000                       0.00000
                       0.00000                       1.00000                       0.00000
                       0.00000                       1.00000                       0.00000
                       0.00000                       1.00000                       0.00000
                       0.00000                       1.00000                       0.00001
                       0.00000                       1.00000                       0.00001
                       0.00000                       1.00000                       0.00001
                       0.00000                       1.00000                       0.00001
                       0.00000                       1.00000                       0.00001
                       0.00000                       1.00000                       0.00001
                       0.00000                       1.00000                       0.00002
                       0.00000                       1.00000                       0.00002
                       0.00000                       1.00000                       0.00002
                       0.00000                       1.00000                       0.00002
                       0.00000                       1.00000                       0.00003
                       0.00000                       1.00000                       0.00003
                       0.00000                       1.00000                       0.00003
                       0.00000                       1.00000                       0.00003
                       0.00000                       1.00000                       0.00003
                       0.00000                       1.00000                       0.00004
                       0.00000                       1.00000                       0.00004
                      -0.00000                       1.00000                      -0.00000
        </DataArray>
        <DataArray type="Float32" Name="OrientationZ" NumberOfComponents="3" format="ascii">
                       0.00003                      -0.00000                       1.00000
                       0.00010                      -0.00000                       1.00000
                       0.00018                      -0.00000                       1.00000
                       0.00027                      -0.00000                       1.00000
                       0.00035                      -0.00001                       1.00000
                       0.00043                      -0.00001                       1.00000
                       0.00050                      -0.00001                       1.00000
                       0.00056                      -0.00001                       1.00000
                       0.00063                      -0.00001                       1.00000
                       0.00069                      -0.00001                       1.00000
                       0.00075                      -0.00002                       1.00000
                       0.00081                      -0.00002                       1.00000
                       0.00087                      -0.00002                       1.00000
                       0.00094                      -0.00002                       1.00000
                       0.00100                      -0.00003                       1.00000
                       0.00106                      -0.00003                       1.00000
                       0.00111                      -0.00003                       1.00000
                       0.00114                      -0.00003                       1.00000
                       0.00113                      -0.00003                       1.00000
                       0.00107                      -0.00004                       1.00000
                       0.00102                      -0.00004                       1.00000
                       0.00000                      -0.00000                       1.00000
        </DataArray>
      </PointData>
      <Lines>
        <DataArray type="Int32" Name="connectivity" format="ascii">
      0      1
      1      2
      2      3
      3      4
      4      5
      5      6
      6      7
      7      8
      8      9
      9     10
     10     11
     11     12
     12     13
     13     14
     14     15
     15     16
     16     17
     17     18
     18     19
     19     20
     21      0
        </DataArray>
        <DataArray type="Int32" Name="offsets" format="ascii">
      2
      4
      6
      8
     10
     12
     14
     16
     18
     20
     22
     24
     26
     28
     30
     32
     34
     36
     38
     40
     42
        </DataArray>
      </Lines>
    </Piece>
  </PolyData>
</VTKFile>
