<?xml version="1.0"?>
<VTKFile type="PolyData" version="0.1" byte_order="LittleEndian">
  <PolyData>
    <Piece NumberOfPoints="     19" NumberOfVerts="  0" NumberOfLines="     18"
           NumberOfStrips="  0" NumberOfPolys="      0">
      <Points>
        <DataArray type="Float32" NumberOfComponents="3" format="ascii">
                      -4.91170                       0.39888                      91.44638
                      -4.85657                       0.76006                      92.76333
                      -4.76596                       1.39119                      95.42323
                      -4.68415                       1.97941                      98.09545
                      -4.58628                       2.68951                     101.44308
                      -4.41705                       3.68109                     105.41937
                      -4.22372                       4.79925                     109.35943
                      -4.02888                       5.92081                     113.29843
                      -3.82945                       7.04741                     117.23575
                      -3.62549                       8.17704                     121.17195
                      -3.41758                       9.30601                     125.10809
                      -3.20442                      10.43559                     129.04373
                      -2.98615                      11.56566                     132.97893
                      -2.76314                      12.69607                     136.91375
                      -2.53349                      13.82667                     140.84813
                      -2.33685                      14.76902                     144.12647
                      -2.17670                      15.53061                     146.74675
                      -2.01595                      16.34536                     149.35216
                      -1.93430                      16.71266                     150.66593
        </DataArray>
      </Points>
      <PointData>
        <DataArray type="Float32" Name="TranslationalVelocity" NumberOfComponents="3" format="ascii">
                      -0.00035                      -0.25174                       0.06920
                       0.00503                      -0.48240                       0.13224
                       0.01440                      -0.94813                       0.24242
                       0.02313                      -1.41615                       0.34516
                       0.03371                      -2.00284                       0.46925
                       0.04864                      -2.70121                       0.64268
                       0.06567                      -3.39436                       0.83844
                       0.08292                      -4.08808                       1.03501
                       0.10043                      -4.78223                       1.23266
                       0.11816                      -5.47684                       1.43101
                       0.13604                      -6.17198                       1.62939
                       0.15410                      -6.86750                       1.82799
                       0.17229                      -7.56330                       2.02676
                       0.19058                      -8.25933                       2.22566
                       0.20894                      -8.95553                       2.42463
                       0.22425                      -9.53583                       2.59050
                       0.23660                      -9.99976                       2.72458
                       0.24974                     -10.46116                       2.86805
                       0.25568                     -10.69387                       2.93274
        </DataArray>
        <DataArray type="Float32" Name="RotationalVelocity" NumberOfComponents="3" format="ascii">
                       0.17447                      -0.00012                      -0.01534
                       0.17450                      -0.00012                      -0.01534
                       0.17458                      -0.00011                      -0.01534
                       0.17469                      -0.00011                      -0.01535
                       0.17484                      -0.00009                      -0.01536
                       0.17502                      -0.00006                      -0.01538
                       0.17521                      -0.00003                      -0.01540
                       0.17538                       0.00001                      -0.01542
                       0.17553                       0.00005                      -0.01544
                       0.17566                       0.00009                      -0.01546
                       0.17577                       0.00013                      -0.01548
                       0.17586                       0.00016                      -0.01550
                       0.17593                       0.00018                      -0.01551
                       0.17598                       0.00020                      -0.01552
                       0.17603                       0.00021                      -0.01552
                       0.17606                       0.00021                      -0.01552
                       0.17608                       0.00020                      -0.01551
                       0.17609                       0.00019                      -0.01550
                       0.17609                       0.00019                      -0.01550
        </DataArray>
        <DataArray type="Float32" Name="TranslationalAcceleration" NumberOfComponents="3" format="ascii">
                       0.08486                      -0.02530                      -0.03371
                       0.02383                      -0.03050                      -0.04711
                       0.05737                      -0.08529                      -0.13694
                       0.07560                      -0.13434                      -0.22192
                       0.08427                      -0.19103                      -0.32317
                       0.08259                      -0.25921                      -0.43696
                       0.07603                      -0.32946                      -0.54587
                       0.07001                      -0.39997                      -0.65466
                       0.06738                      -0.47166                      -0.76457
                       0.06900                      -0.54474                      -0.87600
                       0.07421                      -0.61891                      -0.98873
                       0.08140                      -0.69375                      -1.10211
                       0.08859                      -0.76869                      -1.21539
                       0.09392                      -0.84324                      -1.32795
                       0.09624                      -0.91718                      -1.43960
                       0.09586                      -0.97840                      -1.53220
                       0.09468                      -1.02769                      -1.60623
                       0.09389                      -1.07902                      -1.67997
                       0.09401                      -1.10390                      -1.71804
        </DataArray>
        <DataArray type="Float32" Name="OrientationX" NumberOfComponents="3" format="ascii">
                       0.97745                      -0.21050                       0.01683
                       0.97745                      -0.21052                       0.01678
                       0.97744                      -0.21057                       0.01662
                       0.97742                      -0.21065                       0.01638
                       0.97740                      -0.21078                       0.01599
                       0.98348                      -0.18090                       0.00677
                       0.98722                      -0.15936                      -0.00021
                       0.99004                      -0.14060                      -0.00656
                       0.99259                      -0.12079                      -0.01338
                       0.99473                      -0.10043                      -0.02053
                       0.99631                      -0.08125                      -0.02751
                       0.99746                      -0.06229                      -0.03460
                       0.99812                      -0.04523                      -0.04126
                       0.99838                      -0.03252                      -0.04677
                       0.99844                      -0.02003                      -0.05219
                       0.99835                      -0.00955                      -0.05661
                       0.99821                      -0.00174                      -0.05984
                       0.99808                       0.00231                      -0.06182
                       0.99807                       0.00215                      -0.06210
        </DataArray>
        <DataArray type="Float32" Name="OrientationY" NumberOfComponents="3" format="ascii">
                       0.20719                       0.94052                      -0.26925
                       0.20718                       0.94050                      -0.26931
                       0.20718                       0.94046                      -0.26948
                       0.20719                       0.94040                      -0.26969
                       0.20720                       0.94031                      -0.26999
                       0.17595                       0.94644                      -0.27074
                       0.15334                       0.95023                      -0.27119
                       0.13356                       0.95313                      -0.27148
                       0.11265                       0.95580                      -0.27159
                       0.09113                       0.95811                      -0.27151
                       0.07079                       0.95990                      -0.27125
                       0.05064                       0.96130                      -0.27081
                       0.03243                       0.96224                      -0.27027
                       0.01872                       0.96274                      -0.26978
                       0.00525                       0.96307                      -0.26920
                      -0.00602                       0.96322                      -0.26865
                      -0.01440                       0.96326                      -0.26820
                      -0.01882                       0.96324                      -0.26796
                      -0.01875                       0.96324                      -0.26799
        </DataArray>
        <DataArray type="Float32" Name="OrientationZ" NumberOfComponents="3" format="ascii">
                       0.04084                       0.26666                       0.96292
                       0.04091                       0.26671                       0.96291
                       0.04112                       0.26684                       0.96286
                       0.04141                       0.26699                       0.96281
                       0.04187                       0.26720                       0.96273
                       0.04257                       0.26746                       0.96263
                       0.04342                       0.26769                       0.96253
                       0.04442                       0.26790                       0.96242
                       0.04559                       0.26807                       0.96232
                       0.04693                       0.26820                       0.96222
                       0.04845                       0.26830                       0.96212
                       0.05013                       0.26837                       0.96201
                       0.05193                       0.26843                       0.96190
                       0.05380                       0.26847                       0.96178
                       0.05565                       0.26851                       0.96167
                       0.05709                       0.26855                       0.96157
                       0.05810                       0.26858                       0.96150
                       0.05893                       0.26861                       0.96144
                       0.05925                       0.26863                       0.96142
        </DataArray>
        <DataArray type="Float32" Name="Force" NumberOfComponents="3" format="ascii">
                     156.85498                       1.57238                      -7.08886
                     157.71017                       4.58666                      -7.97109
                     173.67556                      11.62020                     -10.63479
                     133.20305                      13.90295                      -9.57941
                     848.46149                    -270.50545                      38.01071
                     804.58265                    -216.45822                      24.36436
                     818.00556                    -200.99229                      18.76378
                     721.77149                    -156.16673                       9.93608
                     647.62435                    -115.33478                       1.26110
                     638.45896                    -100.38441                      -3.33744
                     593.85743                     -69.49939                     -10.65537
                     580.56428                     -56.72264                     -14.53904
                     504.43984                     -35.06072                     -17.52236
                     485.90318                     -27.65195                     -19.52249
                     464.12905                     -20.21912                     -21.25955
                     443.90408                     -14.43097                     -22.36004
                     413.63870                     -10.11520                     -22.19635
                     290.30124                      -5.91297                     -16.15616
                     294.62176                      -6.08076                     -16.47270
        </DataArray>
        <DataArray type="Float32" Name="Moment" NumberOfComponents="3" format="ascii">
                       0.00000                       0.00000                       0.00000
                       0.00000                       0.00000                       0.00000
                       0.00000                       0.00000                       0.00000
                       0.00000                       0.00000                       0.00000
                     -29.72884                    -189.28162                    -683.43725
                     -31.42943                    -196.80317                    -710.54959
                     -30.09538                    -184.74948                    -666.97832
                     -29.12434                    -174.74058                    -630.78646
                     -27.18208                    -158.90336                    -573.55522
                     -25.33289                    -143.85939                    -519.19098
                     -21.53198                    -118.45288                    -427.43929
                     -20.00555                    -106.38044                    -383.81694
                     -18.22561                     -93.55537                    -337.48899
                     -16.55004                     -82.00412                    -295.76884
                     -14.78543                     -70.83040                    -255.42482
                     -13.24922                     -61.87414                    -223.09795
                     -11.27862                     -51.75554                    -186.59633
                      -5.42780                     -24.55999                     -88.54047
                      -5.51658                     -24.82735                     -89.50171
        </DataArray>
      </PointData>
      <Lines>
        <DataArray type="Int32" Name="connectivity" format="ascii">
      0      1
      1      2
      2      3
      3      4
      4      5
      5      6
      6      7
      7      8
      8      9
      9     10
     10     11
     11     12
     12     13
     13     14
     14     15
     15     16
     16     17
     17     18
        </DataArray>
        <DataArray type="Int32" Name="offsets" format="ascii">
      2
      4
      6
      8
     10
     12
     14
     16
     18
     20
     22
     24
     26
     28
     30
     32
     34
     36
        </DataArray>
      </Lines>
    </Piece>
  </PolyData>
</VTKFile>
