<?xml version="1.0"?>
<VTKFile type="PolyData" version="0.1" byte_order="LittleEndian">
  <PolyData>
    <Piece NumberOfPoints="     19" NumberOfVerts="  0" NumberOfLines="     18"
           NumberOfStrips="  0" NumberOfPolys="      0">
      <Points>
        <DataArray type="Float32" NumberOfComponents="3" format="ascii">
                      -4.93344                       1.27166                      90.79835
                      -4.92983                       2.42988                      91.52386
                      -4.93744                       4.69604                      93.05560
                      -4.95171                       6.93908                      94.62480
                      -4.97290                       9.73014                      96.60755
                      -4.95465                      13.15877                      98.85920
                      -4.91990                      16.65875                     100.99559
                      -4.88476                      20.16202                     103.12646
                      -4.84637                      23.66941                     105.25038
                      -4.80476                      27.17967                     107.36936
                      -4.76036                      30.69059                     109.48702
                      -4.71197                      34.20271                     111.60246
                      -4.65974                      37.71576                     113.71613
                      -4.60399                      41.22952                     115.82845
                      -4.54274                      44.74384                     117.93964
                      -4.48726                      47.67287                     119.69814
                      -4.44093                      50.02042                     121.09766
                      -4.39721                      52.39690                     122.44988
                      -4.37204                      53.56351                     123.16120
        </DataArray>
      </Points>
      <PointData>
        <DataArray type="Float32" Name="TranslationalVelocity" NumberOfComponents="3" format="ascii">
                       0.04873                      -0.10592                       0.17098
                       0.06269                      -0.20174                       0.32388
                       0.09014                      -0.40392                       0.62312
                       0.11742                      -0.61104                       0.91941
                       0.15154                      -0.87284                       1.28825
                       0.19362                      -1.17084                       1.74159
                       0.23684                      -1.45399                       2.20466
                       0.28054                      -1.73661                       2.66847
                       0.32478                      -2.01853                       3.13313
                       0.36959                      -2.29998                       3.59841
                       0.41500                      -2.58143                       4.06401
                       0.46101                      -2.86275                       4.52993
                       0.50764                      -3.14396                       4.99612
                       0.55487                      -3.42510                       5.46249
                       0.60267                      -3.70621                       5.92899
                       0.64291                      -3.94044                       6.31783
                       0.67538                      -4.12690                       6.62950
                       0.70833                      -4.30705                       6.94503
                       0.72463                      -4.40185                       7.09993
        </DataArray>
        <DataArray type="Float32" Name="RotationalVelocity" NumberOfComponents="3" format="ascii">
                       0.13200                       0.00059                      -0.01168
                       0.13202                       0.00060                      -0.01169
                       0.13205                       0.00061                      -0.01171
                       0.13210                       0.00063                      -0.01174
                       0.13217                       0.00065                      -0.01178
                       0.13226                       0.00070                      -0.01186
                       0.13235                       0.00075                      -0.01194
                       0.13243                       0.00081                      -0.01204
                       0.13251                       0.00087                      -0.01215
                       0.13257                       0.00094                      -0.01226
                       0.13263                       0.00101                      -0.01239
                       0.13267                       0.00108                      -0.01252
                       0.13271                       0.00114                      -0.01266
                       0.13274                       0.00121                      -0.01279
                       0.13276                       0.00126                      -0.01291
                       0.13277                       0.00130                      -0.01300
                       0.13277                       0.00133                      -0.01306
                       0.13277                       0.00134                      -0.01310
                       0.13277                       0.00135                      -0.01311
        </DataArray>
        <DataArray type="Float32" Name="TranslationalAcceleration" NumberOfComponents="3" format="ascii">
                      -0.08546                      -0.02951                      -0.01353
                      -0.02702                      -0.03495                      -0.00738
                      -0.06712                      -0.09975                      -0.02129
                      -0.09192                      -0.15923                      -0.03414
                      -0.10821                      -0.22858                      -0.04869
                      -0.11339                      -0.30700                      -0.06153
                      -0.11107                      -0.38308                      -0.07109
                      -0.10725                      -0.45871                      -0.08098
                      -0.10503                      -0.53508                      -0.09161
                      -0.10570                      -0.61258                      -0.10306
                      -0.10933                      -0.69104                      -0.11515
                      -0.11534                      -0.77001                      -0.12748
                      -0.12307                      -0.84892                      -0.13961
                      -0.13240                      -0.92729                      -0.15122
                      -0.14429                      -1.00496                      -0.16214
                      -0.15811                      -1.06936                      -0.17081
                      -0.17333                      -1.12108                      -0.17741
                      -0.19420                      -1.17365                      -0.18306
                      -0.20780                      -1.20025                      -0.18678
        </DataArray>
        <DataArray type="Float32" Name="OrientationX" NumberOfComponents="3" format="ascii">
                       0.98765                      -0.08537                       0.13137
                       0.98765                      -0.08539                       0.13135
                       0.98765                      -0.08547                       0.13131
                       0.98765                      -0.08558                       0.13125
                       0.98764                      -0.08577                       0.13116
                       0.99213                      -0.06947                       0.10415
                       0.99474                      -0.05793                       0.08449
                       0.99658                      -0.04804                       0.06719
                       0.99809                      -0.03772                       0.04882
                       0.99918                      -0.02725                       0.02984
                       0.99978                      -0.01757                       0.01178
                       0.99995                      -0.00816                      -0.00620
                       0.99974                       0.00012                      -0.02258
                       0.99936                       0.00595                      -0.03516
                       0.99880                       0.01166                      -0.04754
                       0.99819                       0.01649                      -0.05783
                       0.99765                       0.02011                      -0.06546
                       0.99734                       0.02179                      -0.06961
                       0.99734                       0.02151                      -0.06970
        </DataArray>
        <DataArray type="Float32" Name="OrientationY" NumberOfComponents="3" format="ascii">
                       0.15664                       0.52190                      -0.83850
                       0.15664                       0.52175                      -0.83860
                       0.15664                       0.52136                      -0.83884
                       0.15665                       0.52086                      -0.83914
                       0.15667                       0.52016                      -0.83958
                       0.12512                       0.52173                      -0.84388
                       0.10232                       0.52230                      -0.84660
                       0.08240                       0.52253                      -0.84863
                       0.06135                       0.52269                      -0.85032
                       0.03969                       0.52274                      -0.85157
                       0.01923                       0.52265                      -0.85233
                      -0.00102                       0.52246                      -0.85266
                      -0.01932                       0.52218                      -0.85262
                      -0.03310                       0.52185                      -0.85240
                      -0.04664                       0.52150                      -0.85197
                      -0.05794                       0.52120                      -0.85147
                      -0.06634                       0.52095                      -0.85101
                      -0.07076                       0.52078                      -0.85075
                      -0.07068                       0.52076                      -0.85077
        </DataArray>
        <DataArray type="Float32" Name="OrientationZ" NumberOfComponents="3" format="ascii">
                       0.00302                       0.84873                       0.52883
                       0.00308                       0.84881                       0.52868
                       0.00323                       0.84905                       0.52830
                       0.00345                       0.84934                       0.52783
                       0.00378                       0.84975                       0.52717
                       0.00429                       0.85028                       0.52632
                       0.00491                       0.85079                       0.52548
                       0.00566                       0.85127                       0.52470
                       0.00655                       0.85169                       0.52400
                       0.00761                       0.85206                       0.52339
                       0.00882                       0.85237                       0.52287
                       0.01019                       0.85262                       0.52243
                       0.01169                       0.85284                       0.52205
                       0.01328                       0.85302                       0.52171
                       0.01486                       0.85317                       0.52142
                       0.01610                       0.85328                       0.52121
                       0.01699                       0.85335                       0.52106
                       0.01771                       0.85341                       0.52094
                       0.01800                       0.85343                       0.52089
        </DataArray>
        <DataArray type="Float32" Name="Force" NumberOfComponents="3" format="ascii">
                     155.50545                       0.98274                      -2.46560
                     155.69687                       2.21475                      -4.46403
                     170.00508                       5.09369                      -9.22945
                     129.24581                       5.89528                     -10.32582
                     760.86792                    -107.76052                     167.32433
                     723.14997                     -83.21900                     127.43518
                     717.99431                     -74.17067                     112.02893
                     638.16002                     -56.24826                      83.06863
                     573.63138                     -39.10419                      55.25135
                     552.92840                     -31.89221                      42.79980
                     514.38588                     -19.24497                      21.85659
                     493.37676                     -13.78528                      12.14921
                     431.91113                      -6.58069                       0.57135
                     407.58506                      -3.58448                      -4.91681
                     382.38655                      -1.02106                      -9.53709
                     360.53759                       0.85682                     -12.77780
                     332.24210                       2.02431                     -14.32373
                     230.75410                       1.80013                     -10.90358
                     232.83148                       1.81182                     -11.12172
        </DataArray>
        <DataArray type="Float32" Name="Moment" NumberOfComponents="3" format="ascii">
                       0.00000                       0.00000                       0.00000
                       0.00000                       0.00000                       0.00000
                       0.00000                       0.00000                       0.00000
                       0.00000                       0.00000                       0.00000
                      -2.77723                    -600.37522                    -374.02594
                      -3.27607                    -617.56017                    -384.69482
                      -3.49928                    -571.93736                    -356.23396
                      -3.77196                    -533.06529                    -331.97711
                      -3.91331                    -477.53753                    -297.34878
                      -4.03419                    -425.12911                    -264.66686
                      -3.80065                    -346.57762                    -215.71881
                      -3.86300                    -306.16723                    -190.52160
                      -3.82057                    -265.07351                    -164.90767
                      -3.72385                    -228.49560                    -142.11370
                      -3.53126                    -194.25799                    -120.78714
                      -3.29249                    -167.50925                    -104.13321
                      -2.87161                    -138.69749                     -86.20931
                      -1.40593                     -65.19404                     -40.51727
                      -1.43692                     -65.60187                     -40.76877
        </DataArray>
      </PointData>
      <Lines>
        <DataArray type="Int32" Name="connectivity" format="ascii">
      0      1
      1      2
      2      3
      3      4
      4      5
      5      6
      6      7
      7      8
      8      9
      9     10
     10     11
     11     12
     12     13
     13     14
     14     15
     15     16
     16     17
     17     18
        </DataArray>
        <DataArray type="Int32" Name="offsets" format="ascii">
      2
      4
      6
      8
     10
     12
     14
     16
     18
     20
     22
     24
     26
     28
     30
     32
     34
     36
        </DataArray>
      </Lines>
    </Piece>
  </PolyData>
</VTKFile>
