<?xml version="1.0"?>
<VTKFile type="PolyData" version="0.1" byte_order="LittleEndian">
  <PolyData>
    <Piece NumberOfPoints="     19" NumberOfVerts="  0" NumberOfLines="     18"
           NumberOfStrips="  0" NumberOfPolys="      0">
      <Points>
        <DataArray type="Float32" NumberOfComponents="3" format="ascii">
                      -5.06777                       1.27628                      89.23062
                      -5.19068                       2.44175                      88.52742
                      -5.45106                       4.82087                      87.20301
                      -5.71783                       7.22249                      85.91642
                      -6.05429                      10.23750                      84.32927
                      -6.41394                      13.78091                      82.29409
                      -6.75628                      17.25503                      80.14237
                      -7.09709                      20.72583                      77.98514
                      -7.43328                      24.19264                      75.82086
                      -7.76468                      27.65670                      73.65156
                      -8.09151                      31.12021                      71.48086
                      -8.41238                      34.58272                      69.30780
                      -8.72727                      38.04449                      67.13280
                      -9.03637                      41.50576                      64.95626
                      -9.33762                      44.96678                      62.77831
                      -9.58237                      47.85081                      60.96225
                      -9.77506                      50.15365                      59.50209
                      -9.96937                      52.42712                      57.99482
                     -10.06280                      53.58576                      57.27618
        </DataArray>
      </Points>
      <PointData>
        <DataArray type="Float32" Name="TranslationalVelocity" NumberOfComponents="3" format="ascii">
                       0.05617                       0.21784                       0.35698
                       0.08454                       0.41612                       0.68067
                       0.14250                       0.79021                       1.34128
                       0.20106                       1.15384                       2.00792
                       0.27460                       1.60243                       2.84444
                       0.36100                       2.17561                       3.82700
                       0.44575                       2.78032                       4.78974
                       0.53057                       3.38617                       5.75098
                       0.61554                       3.99352                       6.71057
                       0.70079                       4.60187                       7.66893
                       0.78648                       5.21026                       8.62673
                       0.87270                       5.81898                       9.58391
                       0.95955                       6.42797                      10.54062
                       1.04713                       7.03715                      11.49696
                       1.13550                       7.64648                      12.45306
                       1.20978                       8.15436                      13.24962
                       1.26950                       8.56259                      13.88556
                       1.32884                       8.98383                      14.51329
                       1.35919                       9.18467                      14.83316
        </DataArray>
        <DataArray type="Float32" Name="RotationalVelocity" NumberOfComponents="3" format="ascii">
                       0.27771                       0.00044                      -0.02460
                       0.27768                       0.00044                      -0.02460
                       0.27761                       0.00043                      -0.02461
                       0.27752                       0.00042                      -0.02461
                       0.27738                       0.00041                      -0.02461
                       0.27721                       0.00039                      -0.02462
                       0.27705                       0.00037                      -0.02464
                       0.27689                       0.00034                      -0.02468
                       0.27675                       0.00030                      -0.02473
                       0.27663                       0.00025                      -0.02481
                       0.27653                       0.00018                      -0.02491
                       0.27645                       0.00009                      -0.02503
                       0.27638                      -0.00001                      -0.02517
                       0.27633                      -0.00013                      -0.02533
                       0.27628                      -0.00025                      -0.02548
                       0.27624                      -0.00036                      -0.02561
                       0.27622                      -0.00044                      -0.02569
                       0.27620                      -0.00051                      -0.02577
                       0.27619                      -0.00053                      -0.02579
        </DataArray>
        <DataArray type="Float32" Name="TranslationalAcceleration" NumberOfComponents="3" format="ascii">
                      -0.02620                      -0.09109                       0.07205
                      -0.00110                      -0.10980                       0.08933
                       0.00052                      -0.31811                       0.25074
                       0.00648                      -0.51250                       0.39654
                       0.01803                      -0.74109                       0.56531
                       0.03622                      -0.99345                       0.76517
                       0.05630                      -1.23167                       0.96748
                       0.07563                      -1.46856                       1.16937
                       0.09311                      -1.70732                       1.37347
                       0.10819                      -1.94911                       1.58047
                       0.12080                      -2.19361                       1.78973
                       0.13113                      -2.43930                       2.00020
                       0.13951                      -2.68445                       2.21047
                       0.14624                      -2.92764                       2.41941
                       0.15139                      -3.16842                       2.62660
                       0.15427                      -3.36793                       2.79840
                       0.15551                      -3.52742                       2.93668
                       0.15573                      -3.68593                       3.07982
                       0.15489                      -3.76853                       3.15000
        </DataArray>
        <DataArray type="Float32" Name="OrientationX" NumberOfComponents="3" format="ascii">
                       0.98378                       0.15656                       0.08752
                       0.98379                       0.15652                       0.08755
                       0.98380                       0.15640                       0.08762
                       0.98382                       0.15623                       0.08773
                       0.98385                       0.15594                       0.08792
                       0.98836                       0.13935                       0.06105
                       0.99102                       0.12699                       0.04184
                       0.99294                       0.11589                       0.02523
                       0.99455                       0.10395                       0.00779
                       0.99576                       0.09144                      -0.01002
                       0.99649                       0.07932                      -0.02666
                       0.99682                       0.06708                      -0.04298
                       0.99679                       0.05567                      -0.05753
                       0.99659                       0.04652                      -0.06816
                       0.99620                       0.03748                      -0.07857
                       0.99573                       0.03001                      -0.08731
                       0.99529                       0.02448                      -0.09383
                       0.99505                       0.02124                      -0.09709
                       0.99508                       0.02092                      -0.09683
        </DataArray>
        <DataArray type="Float32" Name="OrientationY" NumberOfComponents="3" format="ascii">
                       0.15540                      -0.50036                      -0.85176
                       0.15542                      -0.50051                      -0.85166
                       0.15546                      -0.50092                      -0.85142
                       0.15552                      -0.50143                      -0.85111
                       0.15561                      -0.50216                      -0.85066
                       0.12425                      -0.50779                      -0.85247
                       0.10160                      -0.51177                      -0.85310
                       0.08180                      -0.51506                      -0.85324
                       0.06084                      -0.51815                      -0.85312
                       0.03926                      -0.52094                      -0.85269
                       0.01886                      -0.52325                      -0.85197
                      -0.00135                      -0.52520                      -0.85098
                      -0.01963                      -0.52669                      -0.84983
                      -0.03342                      -0.52768                      -0.84878
                      -0.04697                      -0.52848                      -0.84765
                      -0.05830                      -0.52901                      -0.84661
                      -0.06671                      -0.52933                      -0.84579
                      -0.07117                      -0.52951                      -0.84531
                      -0.07112                      -0.52954                      -0.84530
        </DataArray>
        <DataArray type="Float32" Name="OrientationZ" NumberOfComponents="3" format="ascii">
                      -0.08956                       0.85154                      -0.51658
                      -0.08949                       0.85146                      -0.51673
                      -0.08927                       0.85124                      -0.51712
                      -0.08897                       0.85098                      -0.51761
                      -0.08850                       0.85060                      -0.51831
                      -0.08779                       0.85013                      -0.51920
                      -0.08692                       0.84969                      -0.52007
                      -0.08588                       0.84929                      -0.52090
                      -0.08464                       0.84895                      -0.52165
                      -0.08320                       0.84868                      -0.52232
                      -0.08153                       0.84848                      -0.52291
                      -0.07966                       0.84833                      -0.52344
                      -0.07761                       0.84823                      -0.52390
                      -0.07546                       0.84817                      -0.52433
                      -0.07330                       0.84812                      -0.52471
                      -0.07159                       0.84809                      -0.52500
                      -0.07038                       0.84806                      -0.52520
                      -0.06936                       0.84804                      -0.52538
                      -0.06896                       0.84803                      -0.52544
        </DataArray>
        <DataArray type="Float32" Name="Force" NumberOfComponents="3" format="ascii">
                      42.28030                       3.33942                      -1.82541
                     140.83221                       7.51108                     -12.01100
                     161.37389                       4.23862                     -20.88462
                     125.71910                      -1.79745                     -24.59221
                     855.39271                     181.89115                     153.49823
                     800.50200                     149.15063                     110.12239
                     819.11773                     142.18212                      96.96004
                     713.45416                     111.68480                      65.94221
                     631.91685                      85.00809                      37.06287
                     632.22269                      76.95606                      25.57644
                     583.57455                      57.25969                       2.85264
                     581.28646                      49.60995                      -7.23701
                     496.31172                      33.01307                     -19.56141
                     487.50402                      27.97125                     -24.48661
                     476.04595                      23.17926                     -28.69858
                     464.50923                      19.62828                     -31.36858
                     445.62865                      18.61296                     -29.39034
                     323.81438                      14.73457                     -18.72939
                     381.12433                      43.91747                      21.90521
        </DataArray>
        <DataArray type="Float32" Name="Moment" NumberOfComponents="3" format="ascii">
                       0.00000                       0.00000                       0.00000
                       0.00000                       0.00000                       0.00000
                       0.00000                       0.00000                       0.00000
                       0.00000                       0.00000                       0.00000
                      57.34793                    -552.70287                     335.35737
                      57.66083                    -560.68283                     340.24491
                      52.53424                    -516.38047                     313.41100
                      48.77266                    -485.62382                     294.79966
                      43.62849                    -441.08546                     267.82194
                      38.94080                    -400.81916                     243.43516
                      31.26039                    -328.54075                     199.59562
                      27.69336                    -298.06264                     181.13861
                      24.00425                    -265.30565                     161.28874
                      20.69025                    -235.32098                     143.11324
                      17.58886                    -206.03545                     125.34955
                      15.18701                    -182.20148                     110.88177
                      12.59788                    -153.79628                      93.61493
                       5.90610                     -73.17124                      44.54668
                       2.75112                     -34.28699                      20.87538
        </DataArray>
      </PointData>
      <Lines>
        <DataArray type="Int32" Name="connectivity" format="ascii">
      0      1
      1      2
      2      3
      3      4
      4      5
      5      6
      6      7
      7      8
      8      9
      9     10
     10     11
     11     12
     12     13
     13     14
     14     15
     15     16
     16     17
     17     18
        </DataArray>
        <DataArray type="Int32" Name="offsets" format="ascii">
      2
      4
      6
      8
     10
     12
     14
     16
     18
     20
     22
     24
     26
     28
     30
     32
     34
     36
        </DataArray>
      </Lines>
    </Piece>
  </PolyData>
</VTKFile>
