<?xml version="1.0"?>
<VTKFile type="PolyData" version="0.1" byte_order="LittleEndian">
  <PolyData>
    <Piece NumberOfPoints="     22" NumberOfVerts="  0" NumberOfLines="     21"
           NumberOfStrips="  0" NumberOfPolys="      0">
      <Points>
        <DataArray type="Float32" NumberOfComponents="3" format="ascii">
                       0.00004                      -0.00000                       2.19000
                       0.00035                      -0.00001                       6.57000
                       0.00105                      -0.00002                      10.95000
                       0.00214                      -0.00003                      15.33000
                       0.00364                      -0.00005                      19.71000
                       0.00552                      -0.00007                      24.09000
                       0.00776                      -0.00010                      28.47000
                       0.01033                      -0.00014                      32.85000
                       0.01322                      -0.00019                      37.23000
                       0.01640                      -0.00024                      41.61000
                       0.01989                      -0.00031                      45.98999
                       0.02367                      -0.00039                      50.36999
                       0.02777                      -0.00047                      54.74999
                       0.03217                      -0.00058                      59.12999
                       0.03690                      -0.00069                      63.50999
                       0.04192                      -0.00082                      67.88998
                       0.04721                      -0.00096                      72.26998
                       0.05268                      -0.00112                      76.64998
                       0.05821                      -0.00128                      81.02997
                       0.06360                      -0.00146                      85.40997
                       0.06616                      -0.00155                      87.59997
                       0.00000                       0.00000                       0.00000
        </DataArray>
      </Points>
      <PointData>
        <DataArray type="Float32" Name="TranslationalVelocity" NumberOfComponents="3" format="ascii">
                      -0.00000                       0.00000                       0.00000
                      -0.00003                       0.00001                       0.00000
                      -0.00008                       0.00003                       0.00000
                      -0.00016                       0.00006                       0.00000
                      -0.00027                       0.00010                       0.00000
                      -0.00041                       0.00014                       0.00000
                      -0.00059                       0.00019                       0.00000
                      -0.00079                       0.00025                       0.00000
                      -0.00102                       0.00031                       0.00000
                      -0.00127                       0.00039                       0.00000
                      -0.00156                       0.00047                       0.00000
                      -0.00188                       0.00056                       0.00000
                      -0.00223                       0.00066                       0.00000
                      -0.00261                       0.00077                       0.00000
                      -0.00303                       0.00088                       0.00000
                      -0.00349                       0.00100                       0.00000
                      -0.00397                       0.00113                       0.00000
                      -0.00448                       0.00127                       0.00000
                      -0.00500                       0.00141                       0.00000
                      -0.00551                       0.00155                       0.00001
                      -0.00575                       0.00162                       0.00001
                       0.00000                      -0.00000                       0.00000
        </DataArray>
        <DataArray type="Float32" Name="RotationalVelocity" NumberOfComponents="3" format="ascii">
                      -0.00000                      -0.00000                       0.00000
                      -0.00000                      -0.00001                       0.00000
                      -0.00001                      -0.00002                       0.00000
                      -0.00001                      -0.00002                       0.00000
                      -0.00001                      -0.00003                       0.00000
                      -0.00001                      -0.00004                       0.00000
                      -0.00001                      -0.00004                       0.00000
                      -0.00001                      -0.00005                       0.00000
                      -0.00002                      -0.00006                       0.00000
                      -0.00002                      -0.00006                       0.00000
                      -0.00002                      -0.00007                       0.00000
                      -0.00002                      -0.00008                       0.00000
                      -0.00002                      -0.00008                       0.00000
                      -0.00003                      -0.00009                       0.00000
                      -0.00003                      -0.00010                       0.00000
                      -0.00003                      -0.00011                       0.00000
                      -0.00003                      -0.00011                       0.00000
                      -0.00003                      -0.00012                       0.00000
                      -0.00003                      -0.00012                       0.00000
                      -0.00003                      -0.00011                       0.00000
                      -0.00003                      -0.00011                       0.00000
                       0.00000                      -0.00000                       0.00000
        </DataArray>
        <DataArray type="Float32" Name="TranslationalAcceleration" NumberOfComponents="3" format="ascii">
                       0.00002                       0.00000                      -0.00000
                       0.00020                       0.00003                      -0.00000
                       0.00058                       0.00009                      -0.00000
                       0.00120                       0.00017                      -0.00000
                       0.00204                       0.00026                      -0.00000
                       0.00310                       0.00037                      -0.00000
                       0.00437                       0.00049                      -0.00000
                       0.00584                       0.00063                      -0.00000
                       0.00749                       0.00077                      -0.00000
                       0.00933                       0.00092                      -0.00000
                       0.01135                       0.00108                      -0.00001
                       0.01356                       0.00123                      -0.00001
                       0.01596                       0.00139                      -0.00001
                       0.01856                       0.00154                      -0.00001
                       0.02137                       0.00168                      -0.00002
                       0.02438                       0.00181                      -0.00002
                       0.02755                       0.00193                      -0.00002
                       0.03086                       0.00204                      -0.00003
                       0.03421                       0.00214                      -0.00003
                       0.03749                       0.00223                      -0.00004
                       0.03906                       0.00227                      -0.00004
                       0.00000                      -0.00000                       0.00000
        </DataArray>
        <DataArray type="Float32" Name="RotationalAcceleration" NumberOfComponents="3" format="ascii">
                      -0.00000                       0.00002                       0.00000
                      -0.00001                       0.00006                       0.00000
                      -0.00002                       0.00011                       0.00000
                      -0.00002                       0.00017                       0.00000
                      -0.00002                       0.00022                       0.00000
                      -0.00003                       0.00027                       0.00000
                      -0.00003                       0.00031                       0.00000
                      -0.00003                       0.00036                       0.00000
                      -0.00003                       0.00040                       0.00000
                      -0.00003                       0.00044                       0.00000
                      -0.00004                       0.00048                       0.00000
                      -0.00004                       0.00053                       0.00000
                      -0.00003                       0.00057                       0.00000
                      -0.00003                       0.00062                       0.00000
                      -0.00003                       0.00066                       0.00000
                      -0.00003                       0.00071                       0.00000
                      -0.00003                       0.00074                       0.00000
                      -0.00002                       0.00076                       0.00000
                      -0.00002                       0.00076                       0.00000
                      -0.00002                       0.00073                       0.00000
                      -0.00002                       0.00070                       0.00000
                       0.00000                      -0.00000                       0.00000
        </DataArray>
        <DataArray type="Float32" Name="OrientationX" NumberOfComponents="3" format="ascii">
                       1.00000                       0.00000                      -0.00003
                       1.00000                       0.00000                      -0.00011
                       1.00000                       0.00000                      -0.00020
                       1.00000                       0.00000                      -0.00030
                       1.00000                       0.00000                      -0.00039
                       1.00000                       0.00000                      -0.00047
                       1.00000                       0.00000                      -0.00055
                       1.00000                       0.00000                      -0.00062
                       1.00000                       0.00000                      -0.00069
                       1.00000                       0.00000                      -0.00076
                       1.00000                       0.00000                      -0.00083
                       1.00000                       0.00000                      -0.00090
                       1.00000                       0.00000                      -0.00097
                       1.00000                       0.00000                      -0.00104
                       1.00000                       0.00000                      -0.00111
                       1.00000                       0.00000                      -0.00118
                       1.00000                       0.00000                      -0.00123
                       1.00000                       0.00000                      -0.00126
                       1.00000                       0.00000                      -0.00126
                       1.00000                       0.00000                      -0.00120
                       1.00000                       0.00000                      -0.00114
                       1.00000                      -0.00000                       0.00000
        </DataArray>
        <DataArray type="Float32" Name="OrientationY" NumberOfComponents="3" format="ascii">
                       0.00000                       1.00000                       0.00000
                       0.00000                       1.00000                       0.00000
                       0.00000                       1.00000                       0.00000
                       0.00000                       1.00000                       0.00000
                       0.00000                       1.00000                       0.00000
                       0.00000                       1.00000                       0.00001
                       0.00000                       1.00000                       0.00001
                       0.00000                       1.00000                       0.00001
                       0.00000                       1.00000                       0.00001
                       0.00000                       1.00000                       0.00001
                       0.00000                       1.00000                       0.00002
                       0.00000                       1.00000                       0.00002
                       0.00000                       1.00000                       0.00002
                       0.00000                       1.00000                       0.00002
                       0.00000                       1.00000                       0.00003
                       0.00000                       1.00000                       0.00003
                       0.00000                       1.00000                       0.00003
                       0.00000                       1.00000                       0.00004
                       0.00000                       1.00000                       0.00004
                       0.00000                       1.00000                       0.00004
                       0.00000                       1.00000                       0.00004
                      -0.00000                       1.00000                      -0.00000
        </DataArray>
        <DataArray type="Float32" Name="OrientationZ" NumberOfComponents="3" format="ascii">
                       0.00003                      -0.00000                       1.00000
                       0.00011                      -0.00000                       1.00000
                       0.00020                      -0.00000                       1.00000
                       0.00030                      -0.00000                       1.00000
                       0.00039                      -0.00000                       1.00000
                       0.00047                      -0.00001                       1.00000
                       0.00055                      -0.00001                       1.00000
                       0.00062                      -0.00001                       1.00000
                       0.00069                      -0.00001                       1.00000
                       0.00076                      -0.00001                       1.00000
                       0.00083                      -0.00002                       1.00000
                       0.00090                      -0.00002                       1.00000
                       0.00097                      -0.00002                       1.00000
                       0.00104                      -0.00002                       1.00000
                       0.00111                      -0.00003                       1.00000
                       0.00118                      -0.00003                       1.00000
                       0.00123                      -0.00003                       1.00000
                       0.00126                      -0.00004                       1.00000
                       0.00126                      -0.00004                       1.00000
                       0.00120                      -0.00004                       1.00000
                       0.00114                      -0.00004                       1.00000
                       0.00000                      -0.00000                       1.00000
        </DataArray>
      </PointData>
      <Lines>
        <DataArray type="Int32" Name="connectivity" format="ascii">
      0      1
      1      2
      2      3
      3      4
      4      5
      5      6
      6      7
      7      8
      8      9
      9     10
     10     11
     11     12
     12     13
     13     14
     14     15
     15     16
     16     17
     17     18
     18     19
     19     20
     21      0
        </DataArray>
        <DataArray type="Int32" Name="offsets" format="ascii">
      2
      4
      6
      8
     10
     12
     14
     16
     18
     20
     22
     24
     26
     28
     30
     32
     34
     36
     38
     40
     42
        </DataArray>
      </Lines>
    </Piece>
  </PolyData>
</VTKFile>
