<?xml version="1.0"?>
<VTKFile type="PolyData" version="0.1" byte_order="LittleEndian">
  <PolyData>
    <Piece NumberOfPoints="     22" NumberOfVerts="  0" NumberOfLines="     21"
           NumberOfStrips="  0" NumberOfPolys="      0">
      <Points>
        <DataArray type="Float32" NumberOfComponents="3" format="ascii">
                       0.00011                      -0.00001                       2.19000
                       0.00114                      -0.00005                       6.57000
                       0.00342                      -0.00014                      10.95000
                       0.00703                      -0.00027                      15.33000
                       0.01201                      -0.00043                      19.70999
                       0.01831                      -0.00064                      24.08999
                       0.02589                      -0.00089                      28.46998
                       0.03469                      -0.00119                      32.84997
                       0.04468                      -0.00154                      37.22996
                       0.05585                      -0.00196                      41.60995
                       0.06823                      -0.00244                      45.98993
                       0.08187                      -0.00299                      50.36991
                       0.09682                      -0.00362                      54.74988
                       0.11315                      -0.00432                      59.12985
                       0.13088                      -0.00511                      63.50982
                       0.14995                      -0.00597                      67.88978
                       0.17024                      -0.00691                      72.26973
                       0.19143                      -0.00792                      76.64968
                       0.21304                      -0.00899                      81.02962
                       0.23431                      -0.01011                      85.40957
                       0.24448                      -0.01068                      87.59955
                       0.00000                       0.00000                       0.00000
        </DataArray>
      </Points>
      <PointData>
        <DataArray type="Float32" Name="TranslationalVelocity" NumberOfComponents="3" format="ascii">
                       0.00001                      -0.00000                      -0.00000
                       0.00012                      -0.00001                      -0.00000
                       0.00037                      -0.00003                      -0.00000
                       0.00076                      -0.00006                      -0.00000
                       0.00129                      -0.00010                      -0.00000
                       0.00196                      -0.00015                      -0.00000
                       0.00275                      -0.00022                      -0.00000
                       0.00367                      -0.00030                      -0.00001
                       0.00471                      -0.00041                      -0.00001
                       0.00585                      -0.00054                      -0.00001
                       0.00711                      -0.00070                      -0.00001
                       0.00848                      -0.00089                      -0.00002
                       0.00996                      -0.00111                      -0.00002
                       0.01157                      -0.00137                      -0.00003
                       0.01329                      -0.00167                      -0.00004
                       0.01513                      -0.00201                      -0.00004
                       0.01708                      -0.00239                      -0.00005
                       0.01909                      -0.00280                      -0.00006
                       0.02114                      -0.00325                      -0.00007
                       0.02313                      -0.00372                      -0.00008
                       0.02408                      -0.00396                      -0.00009
                       0.00000                      -0.00000                       0.00000
        </DataArray>
        <DataArray type="Float32" Name="RotationalVelocity" NumberOfComponents="3" format="ascii">
                       0.00000                       0.00001                       0.00000
                       0.00000                       0.00004                       0.00000
                       0.00001                       0.00007                       0.00000
                       0.00001                       0.00011                       0.00000
                       0.00001                       0.00014                       0.00000
                       0.00001                       0.00017                       0.00000
                       0.00002                       0.00020                       0.00000
                       0.00002                       0.00022                       0.00000
                       0.00003                       0.00025                       0.00000
                       0.00003                       0.00027                       0.00000
                       0.00004                       0.00030                       0.00000
                       0.00005                       0.00033                       0.00000
                       0.00006                       0.00035                       0.00000
                       0.00006                       0.00038                       0.00000
                       0.00007                       0.00041                       0.00000
                       0.00008                       0.00043                       0.00000
                       0.00009                       0.00045                       0.00000
                       0.00010                       0.00047                       0.00000
                       0.00010                       0.00046                       0.00000
                       0.00011                       0.00044                       0.00000
                       0.00011                       0.00042                       0.00000
                       0.00000                      -0.00000                       0.00000
        </DataArray>
        <DataArray type="Float32" Name="TranslationalAcceleration" NumberOfComponents="3" format="ascii">
                       0.00008                      -0.00000                      -0.00000
                       0.00074                      -0.00001                      -0.00000
                       0.00209                      -0.00003                      -0.00000
                       0.00408                      -0.00005                      -0.00000
                       0.00663                      -0.00006                      -0.00001
                       0.00963                      -0.00006                      -0.00001
                       0.01290                      -0.00004                      -0.00002
                       0.01630                       0.00002                      -0.00002
                       0.01964                       0.00011                      -0.00003
                       0.02274                       0.00025                      -0.00004
                       0.02543                       0.00046                      -0.00005
                       0.02757                       0.00074                      -0.00005
                       0.02901                       0.00111                      -0.00006
                       0.02964                       0.00158                      -0.00006
                       0.02940                       0.00214                      -0.00006
                       0.02823                       0.00281                      -0.00006
                       0.02614                       0.00359                      -0.00005
                       0.02314                       0.00447                      -0.00003
                       0.01933                       0.00544                      -0.00002
                       0.01480                       0.00648                       0.00000
                       0.01232                       0.00702                       0.00002
                       0.00000                      -0.00000                       0.00000
        </DataArray>
        <DataArray type="Float32" Name="RotationalAcceleration" NumberOfComponents="3" format="ascii">
                       0.00000                       0.00007                       0.00000
                       0.00000                       0.00023                       0.00000
                       0.00000                       0.00038                       0.00000
                       0.00000                       0.00052                       0.00000
                       0.00000                       0.00064                       0.00000
                      -0.00000                       0.00072                       0.00000
                      -0.00001                       0.00077                       0.00000
                      -0.00002                       0.00078                       0.00000
                      -0.00003                       0.00074                       0.00000
                      -0.00004                       0.00067                       0.00000
                      -0.00006                       0.00056                       0.00000
                      -0.00007                       0.00041                       0.00000
                      -0.00009                       0.00024                       0.00000
                      -0.00012                       0.00005                       0.00000
                      -0.00014                      -0.00016                       0.00000
                      -0.00017                      -0.00037                       0.00000
                      -0.00019                      -0.00058                       0.00000
                      -0.00021                      -0.00078                       0.00000
                      -0.00023                      -0.00096                       0.00000
                      -0.00024                      -0.00110                       0.00000
                      -0.00025                      -0.00116                       0.00000
                       0.00000                      -0.00000                       0.00000
        </DataArray>
        <DataArray type="Float32" Name="OrientationX" NumberOfComponents="3" format="ascii">
                       1.00000                       0.00000                      -0.00011
                       1.00000                       0.00000                      -0.00037
                       1.00000                       0.00000                      -0.00067
                       1.00000                       0.00000                      -0.00098
                       1.00000                       0.00000                      -0.00129
                       1.00000                       0.00000                      -0.00159
                       1.00000                       0.00000                      -0.00187
                       1.00000                       0.00000                      -0.00215
                       1.00000                       0.00000                      -0.00242
                       1.00000                       0.00000                      -0.00269
                       1.00000                       0.00000                      -0.00297
                       0.99999                       0.00000                      -0.00326
                       0.99999                       0.00000                      -0.00357
                       0.99999                       0.00000                      -0.00389
                       0.99999                       0.00000                      -0.00420
                       0.99999                       0.00000                      -0.00450
                       0.99999                       0.00000                      -0.00475
                       0.99999                       0.00000                      -0.00491
                       0.99999                       0.00000                      -0.00493
                       0.99999                       0.00000                      -0.00474
                       0.99999                       0.00000                      -0.00454
                       1.00000                      -0.00000                       0.00000
        </DataArray>
        <DataArray type="Float32" Name="OrientationY" NumberOfComponents="3" format="ascii">
                       0.00000                       1.00000                       0.00001
                       0.00000                       1.00000                       0.00002
                       0.00000                       1.00000                       0.00002
                       0.00000                       1.00000                       0.00003
                       0.00000                       1.00000                       0.00004
                       0.00000                       1.00000                       0.00005
                       0.00000                       1.00000                       0.00006
                       0.00000                       1.00000                       0.00007
                       0.00000                       1.00000                       0.00009
                       0.00000                       1.00000                       0.00010
                       0.00000                       1.00000                       0.00012
                       0.00000                       1.00000                       0.00013
                       0.00000                       1.00000                       0.00015
                       0.00000                       1.00000                       0.00017
                       0.00000                       1.00000                       0.00019
                       0.00000                       1.00000                       0.00021
                       0.00000                       1.00000                       0.00022
                       0.00000                       1.00000                       0.00024
                       0.00000                       1.00000                       0.00025
                       0.00000                       1.00000                       0.00026
                       0.00000                       1.00000                       0.00026
                      -0.00000                       1.00000                      -0.00000
        </DataArray>
        <DataArray type="Float32" Name="OrientationZ" NumberOfComponents="3" format="ascii">
                       0.00011                      -0.00001                       1.00000
                       0.00037                      -0.00002                       1.00000
                       0.00067                      -0.00002                       1.00000
                       0.00098                      -0.00003                       1.00000
                       0.00129                      -0.00004                       1.00000
                       0.00159                      -0.00005                       1.00000
                       0.00187                      -0.00006                       1.00000
                       0.00215                      -0.00007                       1.00000
                       0.00242                      -0.00009                       1.00000
                       0.00269                      -0.00010                       1.00000
                       0.00297                      -0.00012                       1.00000
                       0.00326                      -0.00013                       0.99999
                       0.00357                      -0.00015                       0.99999
                       0.00389                      -0.00017                       0.99999
                       0.00420                      -0.00019                       0.99999
                       0.00450                      -0.00021                       0.99999
                       0.00475                      -0.00022                       0.99999
                       0.00491                      -0.00024                       0.99999
                       0.00493                      -0.00025                       0.99999
                       0.00474                      -0.00026                       0.99999
                       0.00454                      -0.00026                       0.99999
                       0.00000                      -0.00000                       1.00000
        </DataArray>
      </PointData>
      <Lines>
        <DataArray type="Int32" Name="connectivity" format="ascii">
      0      1
      1      2
      2      3
      3      4
      4      5
      5      6
      6      7
      7      8
      8      9
      9     10
     10     11
     11     12
     12     13
     13     14
     14     15
     15     16
     16     17
     17     18
     18     19
     19     20
     21      0
        </DataArray>
        <DataArray type="Int32" Name="offsets" format="ascii">
      2
      4
      6
      8
     10
     12
     14
     16
     18
     20
     22
     24
     26
     28
     30
     32
     34
     36
     38
     40
     42
        </DataArray>
      </Lines>
    </Piece>
  </PolyData>
</VTKFile>
