<?xml version="1.0"?>
<VTKFile type="PolyData" version="0.1" byte_order="LittleEndian">
  <PolyData>
    <Piece NumberOfPoints="     19" NumberOfVerts="  0" NumberOfLines="     18"
           NumberOfStrips="  0" NumberOfPolys="      0">
      <Points>
        <DataArray type="Float32" NumberOfComponents="3" format="ascii">
                      -4.68747                      -1.26836                      89.23826
                      -4.81800                      -2.41469                      88.50536
                      -5.10395                      -4.65475                      86.96158
                      -5.39651                      -6.86938                      85.37905
                      -5.75704                      -9.62162                      83.37453
                      -6.10065                     -13.00093                      81.07454
                      -6.37451                     -16.44808                      78.86991
                      -6.60479                     -19.89230                      76.65555
                      -6.77880                     -23.33373                      74.43172
                      -6.88717                     -26.77030                      72.19641
                      -6.92153                     -30.19890                      69.94666
                      -6.87196                     -33.61906                      67.68419
                      -6.73144                     -37.02941                      65.41017
                      -6.49490                     -40.42846                      63.12632
                      -6.15722                     -43.81425                      60.83493
                      -5.79620                     -46.62395                      58.92186
                      -5.45847                     -48.86791                      57.39732
                      -5.07487                     -51.13468                      55.91896
                      -4.87202                     -52.24151                      55.14620
        </DataArray>
      </Points>
      <PointData>
        <DataArray type="Float32" Name="TranslationalVelocity" NumberOfComponents="3" format="ascii">
                      -0.14810                       1.08057                      -1.67136
                      -0.29358                       2.06895                      -3.19143
                      -0.57816                       4.15188                      -6.16126
                      -0.85993                       6.28641                      -9.09659
                      -1.21093                       8.98788                     -12.74314
                      -1.64354                      12.07719                     -17.21842
                      -2.08741                      15.02985                     -21.78101
                      -2.53463                      17.98836                     -26.33709
                      -2.98629                      20.95068                     -30.88697
                      -3.44325                      23.91823                     -35.42816
                      -3.90613                      26.89377                     -39.95685
                      -4.37574                      29.87364                     -44.47283
                      -4.85256                      32.85527                     -48.97475
                      -5.33675                      35.83553                     -53.46111
                      -5.82804                      38.81052                     -57.92984
                      -6.24248                      41.28220                     -61.63853
                      -6.57719                      43.24409                     -64.60082
                      -6.91747                      45.13781                     -67.59371
                      -7.08532                      46.12699                     -69.05532
        </DataArray>
        <DataArray type="Float32" Name="RotationalVelocity" NumberOfComponents="3" format="ascii">
                       1.32614                       0.00001                      -0.12692
                       1.32603                       0.00004                      -0.12694
                       1.32573                       0.00011                      -0.12702
                       1.32535                       0.00022                      -0.12716
                       1.32480                       0.00041                      -0.12742
                       1.32408                       0.00071                      -0.12789
                       1.32335                       0.00111                      -0.12855
                       1.32263                       0.00164                      -0.12940
                       1.32195                       0.00234                      -0.13043
                       1.32132                       0.00324                      -0.13165
                       1.32072                       0.00436                      -0.13302
                       1.32017                       0.00570                      -0.13450
                       1.31965                       0.00725                      -0.13603
                       1.31917                       0.00895                      -0.13754
                       1.31873                       0.01072                      -0.13891
                       1.31840                       0.01216                      -0.13987
                       1.31818                       0.01321                      -0.14045
                       1.31800                       0.01410                      -0.14080
                       1.31793                       0.01446                      -0.14087
        </DataArray>
        <DataArray type="Float32" Name="TranslationalAcceleration" NumberOfComponents="3" format="ascii">
                       0.13395                       2.30750                       1.31434
                       0.15325                       2.79444                       1.59054
                       0.44864                       7.91181                       4.69169
                       0.72375                      12.56984                       7.62986
                       1.04430                      17.97119                      11.12282
                       1.38257                      24.21164                      14.89849
                       1.68903                      30.38603                      18.38379
                       1.99429                      36.53244                      21.86042
                       2.30572                      42.73170                      25.36873
                       2.62711                      49.00718                      28.92345
                       2.95839                      55.34154                      32.51947
                       3.29467                      61.69809                      36.13048
                       3.62732                      68.03022                      39.72831
                       3.94373                      74.29782                      43.28966
                       4.22731                      80.48185                      46.80469
                       4.42266                      85.58142                      49.70647
                       4.54207                      89.65704                      52.01231
                       4.61333                      93.80765                      54.25378
                       4.63671                      95.86941                      55.45307
        </DataArray>
        <DataArray type="Float32" Name="OrientationX" NumberOfComponents="3" format="ascii">
                       0.94717                       0.08888                      -0.30818
                       0.94723                       0.08943                      -0.30784
                       0.94743                       0.09124                      -0.30669
                       0.94771                       0.09391                      -0.30500
                       0.94815                       0.09834                      -0.30221
                       0.95807                       0.08815                      -0.27265
                       0.96483                       0.08446                      -0.24892
                       0.97041                       0.08419                      -0.22630
                       0.97578                       0.08530                      -0.20144
                       0.98067                       0.08816                      -0.17467
                       0.98462                       0.09374                      -0.14741
                       0.98772                       0.10131                      -0.11891
                       0.98961                       0.11146                      -0.09083
                       0.98999                       0.12493                      -0.06570
                       0.98954                       0.13840                      -0.04067
                       0.98869                       0.14859                      -0.02033
                       0.98779                       0.15570                      -0.00547
                       0.98659                       0.16313                       0.00486
                       0.98589                       0.16720                       0.00751
        </DataArray>
        <DataArray type="Float32" Name="OrientationY" NumberOfComponents="3" format="ascii">
                       0.30638                      -0.53502                       0.78733
                       0.30638                      -0.53503                       0.78732
                       0.30638                      -0.53507                       0.78729
                       0.30639                      -0.53511                       0.78726
                       0.30643                      -0.53512                       0.78724
                       0.27614                      -0.53812                       0.79635
                       0.25426                      -0.54019                       0.80222
                       0.23518                      -0.54195                       0.80683
                       0.21501                      -0.54379                       0.81121
                       0.19424                      -0.54571                       0.81515
                       0.17464                      -0.54762                       0.81830
                       0.15520                      -0.54968                       0.82083
                       0.13764                      -0.55177                       0.82256
                       0.12451                      -0.55357                       0.82345
                       0.11156                      -0.55550                       0.82400
                       0.10069                      -0.55723                       0.82423
                       0.09260                      -0.55852                       0.82430
                       0.08838                      -0.55912                       0.82436
                       0.08852                      -0.55899                       0.82444
        </DataArray>
        <DataArray type="Float32" Name="OrientationZ" NumberOfComponents="3" format="ascii">
                      -0.09491                      -0.84015                      -0.53398
                      -0.09429                      -0.84008                      -0.53420
                      -0.09227                      -0.83986                      -0.53490
                      -0.08928                      -0.83955                      -0.53590
                      -0.08430                      -0.83903                      -0.53751
                      -0.07652                      -0.83825                      -0.53990
                      -0.06671                      -0.83730                      -0.54266
                      -0.05472                      -0.83618                      -0.54572
                      -0.04035                      -0.83487                      -0.54896
                      -0.02346                      -0.83332                      -0.55229
                      -0.00402                      -0.83146                      -0.55557
                       0.01780                      -0.82921                      -0.55865
                       0.04156                      -0.82652                      -0.56137
                       0.06650                      -0.82338                      -0.56358
                       0.09144                      -0.81992                      -0.56513
                       0.11114                      -0.81696                      -0.56589
                       0.12529                      -0.81475                      -0.56612
                       0.13719                      -0.81288                      -0.56605
                       0.14205                      -0.81214                      -0.56591
        </DataArray>
        <DataArray type="Float32" Name="Force" NumberOfComponents="3" format="ascii">
                       0.77032                      -5.20205                       8.04790
                     157.83731                     -42.46456                      38.94280
                     213.50275                     -89.90705                     104.54043
                     195.97721                    -107.99053                     137.05420
                    1584.08386                     287.06375                    -699.62859
                    2063.24880                     419.49986                    -950.91123
                    2531.31125                     418.27195                    -966.58359
                    3169.65738                     463.82320                   -1042.45041
                    3435.43067                     458.54167                    -965.55131
                    3913.08254                     509.88156                    -953.86856
                    4761.19574                     625.87877                    -993.16107
                    5400.39270                     746.96583                    -961.13496
                    6268.00177                     955.40860                    -971.36657
                    6789.68793                    1129.74886                    -879.53757
                    7238.18050                    1310.68311                    -760.82261
                    7477.39403                    1435.87249                    -633.43277
                    7265.12514                    1442.33863                    -493.40680
                    5242.12788                    1070.68168                    -283.63325
                    2266.89966                     359.97597                      53.46935
        </DataArray>
        <DataArray type="Float32" Name="Moment" NumberOfComponents="3" format="ascii">
                       0.00000                       0.00000                       0.00000
                       0.00000                       0.00000                       0.00000
                       0.00000                       0.00000                       0.00000
                       0.00000                       0.00000                       0.00000
                      38.64912                     386.34848                     246.03068
                      62.60934                     691.12753                     440.74204
                      78.84555                    1001.76077                     639.97678
                      90.47058                    1408.50289                     901.77628
                      87.76781                    1870.01970                    1200.35275
                      56.40105                    2116.98865                    1362.99222
                       7.31503                    2208.34106                    1426.73944
                     -53.40134                    2333.30141                    1513.32358
                    -107.07585                    2079.51730                    1354.41876
                    -168.73348                    2066.63186                    1351.99147
                    -223.69824                    1997.14484                    1312.33712
                    -257.79783                    1893.24639                    1248.44257
                    -257.32042                    1674.91974                    1107.27370
                    -141.22578                     838.63373                     555.59835
                    -124.21163                     712.07274                     472.16262
        </DataArray>
      </PointData>
      <Lines>
        <DataArray type="Int32" Name="connectivity" format="ascii">
      0      1
      1      2
      2      3
      3      4
      4      5
      5      6
      6      7
      7      8
      8      9
      9     10
     10     11
     11     12
     12     13
     13     14
     14     15
     15     16
     16     17
     17     18
        </DataArray>
        <DataArray type="Int32" Name="offsets" format="ascii">
      2
      4
      6
      8
     10
     12
     14
     16
     18
     20
     22
     24
     26
     28
     30
     32
     34
     36
        </DataArray>
      </Lines>
    </Piece>
  </PolyData>
</VTKFile>
