<?xml version="1.0"?>
<VTKFile type="PolyData" version="0.1" byte_order="LittleEndian">
  <PolyData>
    <Piece NumberOfPoints="     19" NumberOfVerts="  0" NumberOfLines="     18"
           NumberOfStrips="  0" NumberOfPolys="      0">
      <Points>
        <DataArray type="Float32" NumberOfComponents="3" format="ascii">
                      -5.06497                       1.29983                      89.27077
                      -5.18460                       2.48705                      88.60435
                      -5.43854                       4.90708                      87.35497
                      -5.69915                       7.34841                      86.14412
                      -6.02845                      10.41232                      84.65204
                      -6.38080                      14.01832                      82.72867
                      -6.71757                      17.55851                      80.68665
                      -7.05486                      21.09536                      78.63906
                      -7.39011                      24.62823                      76.58436
                      -7.72369                      28.15827                      74.52466
                      -8.05635                      31.68755                      72.46369
                      -8.38721                      35.21564                      70.40051
                      -8.71666                      38.74279                      68.33564
                      -9.04525                      42.26924                      66.26952
                      -9.37110                      45.79526                      64.20233
                      -9.64038                      48.73337                      62.47888
                      -9.85514                      51.07964                      61.09289
                     -10.07366                      53.39799                      59.65910
                     -10.17996                      54.57797                      58.97794
        </DataArray>
      </Points>
      <PointData>
        <DataArray type="Float32" Name="TranslationalVelocity" NumberOfComponents="3" format="ascii">
                       0.07921                       0.00463                       0.01240
                       0.08016                       0.01079                       0.02319
                       0.08145                       0.02230                       0.04523
                       0.08208                       0.03342                       0.06750
                       0.08185                       0.04702                       0.09551
                       0.07951                       0.06437                       0.12855
                       0.07363                       0.08252                       0.16108
                       0.06201                       0.10026                       0.19374
                       0.04199                       0.11742                       0.22662
                       0.01046                       0.13378                       0.25985
                      -0.03592                       0.14910                       0.29363
                      -0.10053                       0.16322                       0.32815
                      -0.18670                       0.17599                       0.36369
                      -0.29750                       0.18728                       0.40055
                      -0.43560                       0.19714                       0.43911
                      -0.57365                       0.20432                       0.47289
                      -0.69882                       0.20953                       0.50109
                      -0.83672                       0.21462                       0.53027
                      -0.91161                       0.21674                       0.54561
        </DataArray>
        <DataArray type="Float32" Name="RotationalVelocity" NumberOfComponents="3" format="ascii">
                       0.00910                       0.00012                      -0.00079
                       0.00909                       0.00014                      -0.00074
                       0.00910                       0.00018                      -0.00058
                       0.00911                       0.00022                      -0.00033
                       0.00913                       0.00027                       0.00011
                       0.00915                       0.00032                       0.00091
                       0.00918                       0.00037                       0.00214
                       0.00921                       0.00044                       0.00395
                       0.00927                       0.00059                       0.00649
                       0.00936                       0.00085                       0.00988
                       0.00949                       0.00127                       0.01420
                       0.00968                       0.00190                       0.01945
                       0.00994                       0.00281                       0.02555
                       0.01027                       0.00405                       0.03230
                       0.01067                       0.00566                       0.03934
                       0.01105                       0.00731                       0.04509
                       0.01139                       0.00886                       0.04934
                       0.01173                       0.01061                       0.05300
                       0.01191                       0.01156                       0.05452
        </DataArray>
        <DataArray type="Float32" Name="TranslationalAcceleration" NumberOfComponents="3" format="ascii">
                      -0.11200                      -0.00104                       0.02155
                      -0.03555                       0.00475                       0.01603
                      -0.09004                       0.01283                       0.04334
                      -0.12950                       0.01928                       0.06624
                      -0.16838                       0.02681                       0.09286
                      -0.20723                       0.03846                       0.12393
                      -0.23779                       0.05399                       0.15639
                      -0.24752                       0.07282                       0.19034
                      -0.21997                       0.09451                       0.22276
                      -0.13753                       0.11783                       0.24902
                       0.01477                       0.14075                       0.26357
                       0.24426                       0.16028                       0.26045
                       0.54720                       0.17265                       0.23432
                       0.90466                       0.17326                       0.18111
                       1.27861                       0.15589                       0.09792
                       1.55812                       0.12248                       0.00540
                       1.72241                       0.08029                      -0.08177
                       1.77536                       0.01985                      -0.17560
                       1.78050                      -0.01571                      -0.22832
        </DataArray>
        <DataArray type="Float32" Name="OrientationX" NumberOfComponents="3" format="ascii">
                       0.98421                       0.15102                       0.09236
                       0.98421                       0.15101                       0.09237
                       0.98421                       0.15096                       0.09241
                       0.98422                       0.15090                       0.09246
                       0.98422                       0.15081                       0.09255
                       0.98866                       0.13538                       0.06506
                       0.99124                       0.12403                       0.04532
                       0.99309                       0.11396                       0.02818
                       0.99461                       0.10320                       0.01014
                       0.99572                       0.09202                      -0.00834
                       0.99636                       0.08130                      -0.02570
                       0.99659                       0.07057                      -0.04281
                       0.99646                       0.06072                      -0.05816
                       0.99616                       0.05306                      -0.06958
                       0.99569                       0.04551                      -0.08078
                       0.99515                       0.03921                      -0.09016
                       0.99467                       0.03455                      -0.09714
                       0.99440                       0.03195                      -0.10073
                       0.99442                       0.03183                      -0.10057
        </DataArray>
        <DataArray type="Float32" Name="OrientationY" NumberOfComponents="3" format="ascii">
                       0.15408                      -0.47392                      -0.86698
                       0.15410                      -0.47407                      -0.86690
                       0.15415                      -0.47447                      -0.86667
                       0.15421                      -0.47498                      -0.86638
                       0.15432                      -0.47569                      -0.86597
                       0.12300                      -0.48116                      -0.86796
                       0.10041                      -0.48504                      -0.86871
                       0.08069                      -0.48826                      -0.86896
                       0.05984                      -0.49130                      -0.86893
                       0.03838                      -0.49406                      -0.86858
                       0.01812                      -0.49637                      -0.86792
                      -0.00195                      -0.49834                      -0.86698
                      -0.02008                      -0.49990                      -0.86585
                      -0.03372                      -0.50096                      -0.86481
                      -0.04713                      -0.50185                      -0.86367
                      -0.05835                      -0.50248                      -0.86262
                      -0.06669                      -0.50288                      -0.86178
                      -0.07109                      -0.50309                      -0.86131
                      -0.07100                      -0.50311                      -0.86130
        </DataArray>
        <DataArray type="Float32" Name="OrientationZ" NumberOfComponents="3" format="ascii">
                      -0.08716                       0.86752                      -0.48970
                      -0.08712                       0.86744                      -0.48985
                      -0.08699                       0.86723                      -0.49025
                      -0.08682                       0.86696                      -0.49075
                      -0.08657                       0.86659                      -0.49146
                      -0.08620                       0.86611                      -0.49236
                      -0.08576                       0.86565                      -0.49325
                      -0.08526                       0.86523                      -0.49408
                      -0.08469                       0.86486                      -0.49482
                      -0.08404                       0.86455                      -0.49548
                      -0.08332                       0.86430                      -0.49603
                      -0.08251                       0.86410                      -0.49651
                      -0.08165                       0.86395                      -0.49691
                      -0.08075                       0.86384                      -0.49725
                      -0.07984                       0.86376                      -0.49754
                      -0.07913                       0.86370                      -0.49775
                      -0.07862                       0.86367                      -0.49789
                      -0.07819                       0.86364                      -0.49800
                      -0.07802                       0.86364                      -0.49804
        </DataArray>
        <DataArray type="Float32" Name="Force" NumberOfComponents="3" format="ascii">
                     150.29392                      11.48002                      -6.41392
                     142.44542                      12.14789                      -3.81658
                     163.00641                      14.76963                      -2.77571
                     126.61027                      10.47344                      -3.87010
                     628.38696                     126.71898                     113.58196
                     594.81156                     104.31416                      80.35687
                     556.39970                      90.55146                      63.29645
                     502.99572                      74.43915                      44.65983
                     463.24016                      59.76543                      26.16114
                     429.84865                      50.55895                      16.21658
                     412.24817                      40.80869                       2.60623
                     383.25030                      33.83887                      -4.17482
                     356.16750                      27.89589                      -9.51187
                     329.95703                      23.37855                     -12.54423
                     304.08534                      19.28842                     -14.97755
                     282.89949                      16.18911                     -16.61684
                     258.32798                      13.59421                     -16.99956
                     178.26186                       8.92288                     -12.38069
                     179.77380                       8.97767                     -12.45744
        </DataArray>
        <DataArray type="Float32" Name="Moment" NumberOfComponents="3" format="ascii">
                       0.00000                       0.00000                       0.00000
                       0.00000                       0.00000                       0.00000
                       0.00000                       0.00000                       0.00000
                       0.00000                       0.00000                       0.00000
                      62.39235                    -626.35085                     353.61253
                      62.99305                    -635.66854                     358.90192
                      57.08605                    -579.49806                     327.21794
                      51.88373                    -530.22768                     299.42793
                      45.37109                    -467.16272                     263.84441
                      39.32556                    -408.32021                     230.64059
                      31.64879                    -331.68186                     187.37744
                      27.22643                    -288.26505                     162.87469
                      23.01504                    -246.37601                     139.22924
                      19.39474                    -210.03360                     118.71179
                      16.15259                    -176.96736                     100.03935
                      13.72540                    -151.77209                      85.80779
                      11.25747                    -125.31656                      70.85724
                       5.26011                     -58.88530                      33.29791
                       5.29036                     -59.35942                      33.56708
        </DataArray>
      </PointData>
      <Lines>
        <DataArray type="Int32" Name="connectivity" format="ascii">
      0      1
      1      2
      2      3
      3      4
      4      5
      5      6
      6      7
      7      8
      8      9
      9     10
     10     11
     11     12
     12     13
     13     14
     14     15
     15     16
     16     17
     17     18
        </DataArray>
        <DataArray type="Int32" Name="offsets" format="ascii">
      2
      4
      6
      8
     10
     12
     14
     16
     18
     20
     22
     24
     26
     28
     30
     32
     34
     36
        </DataArray>
      </Lines>
    </Piece>
  </PolyData>
</VTKFile>
